%!PS-Adobe-3.0 EPSF-3.0
%%Title: ROC_MCIVsNormal_connectome.eps
%%Creator: matplotlib version 2.1.0, http://matplotlib.org/
%%CreationDate: Wed Nov  8 21:24:43 2017
%%Orientation: portrait
%%BoundingBox: 90 252 522 540
%%EndComments
%%BeginProlog
/mpldict 8 dict def
mpldict begin
/m { moveto } bind def
/l { lineto } bind def
/r { rlineto } bind def
/c { curveto } bind def
/cl { closepath } bind def
/box {
m
1 index 0 r
0 exch r
neg 0 r
cl
} bind def
/clipbox {
box
clip
newpath
} bind def
%!PS-Adobe-3.0 Resource-Font
%%Title: DejaVu Sans
%%Copyright: Copyright (c) 2003 by Bitstream, Inc. All Rights Reserved. Copyright (c) 2006 by Tavmjong Bah. All Rights Reserved. DejaVu changes are in public domain 
%%Creator: Converted from TrueType to type 3 by PPR
25 dict begin
/_d{bind def}bind def
/_m{moveto}_d
/_l{lineto}_d
/_cl{closepath eofill}_d
/_c{curveto}_d
/_sc{7 -1 roll{setcachedevice}{pop pop pop pop pop pop}ifelse}_d
/_e{exec}_d
/FontName /DejaVuSans def
/PaintType 0 def
/FontMatrix[.001 0 0 .001 0 0]def
/FontBBox[-1021 -463 1793 1232]def
/FontType 3 def
/Encoding [ /space /parenleft /parenright /hyphen /period /zero /one /two /four /five /six /eight /equal /C /F /I /L /M /N /O /P /R /S /T /V /a /c /e /g /h /i /l /m /n /o /p /r /s /t /u /v ] def
/FontInfo 10 dict dup begin
/FamilyName (DejaVu Sans) def
/FullName (DejaVu Sans) def
/Notice (Copyright (c) 2003 by Bitstream, Inc. All Rights Reserved. Copyright (c) 2006 by Tavmjong Bah. All Rights Reserved. DejaVu changes are in public domain ) def
/Weight (Book) def
/Version (Version 2.35) def
/ItalicAngle 0.0 def
/isFixedPitch false def
/UnderlinePosition -130 def
/UnderlineThickness 90 def
end readonly def
/CharStrings 42 dict dup begin
/.notdef 0 def
/space{318 0 0 0 0 0 _sc
}_d
/parenleft{390 0 86 -131 310 759 _sc
310 759 _m
266 683 234 609 213 536 _c
191 463 181 389 181 314 _c
181 238 191 164 213 91 _c
234 17 266 -56 310 -131 _c
232 -131 _l
183 -54 146 20 122 94 _c
98 168 86 241 86 314 _c
86 386 98 459 122 533 _c
146 607 182 682 232 759 _c
310 759 _l
_cl}_d
/parenright{390 0 80 -131 304 759 _sc
80 759 _m
158 759 _l
206 682 243 607 267 533 _c
291 459 304 386 304 314 _c
304 241 291 168 267 94 _c
243 20 206 -54 158 -131 _c
80 -131 _l
123 -56 155 17 177 91 _c
198 164 209 238 209 314 _c
209 389 198 463 177 536 _c
155 609 123 683 80 759 _c
_cl}_d
/hyphen{361 0 49 234 312 314 _sc
49 314 _m
312 314 _l
312 234 _l
49 234 _l
49 314 _l
_cl}_d
/period{318 0 107 0 210 124 _sc
107 124 _m
210 124 _l
210 0 _l
107 0 _l
107 124 _l
_cl}_d
/zero{636 0 66 -13 570 742 _sc
318 664 _m
267 664 229 639 203 589 _c
177 539 165 464 165 364 _c
165 264 177 189 203 139 _c
229 89 267 64 318 64 _c
369 64 407 89 433 139 _c
458 189 471 264 471 364 _c
471 464 458 539 433 589 _c
407 639 369 664 318 664 _c
318 742 _m
399 742 461 709 505 645 _c
548 580 570 486 570 364 _c
570 241 548 147 505 83 _c
461 19 399 -13 318 -13 _c
236 -13 173 19 130 83 _c
87 147 66 241 66 364 _c
66 486 87 580 130 645 _c
173 709 236 742 318 742 _c
_cl}_d
/one{636 0 110 0 544 729 _sc
124 83 _m
285 83 _l
285 639 _l
110 604 _l
110 694 _l
284 729 _l
383 729 _l
383 83 _l
544 83 _l
544 0 _l
124 0 _l
124 83 _l
_cl}_d
/two{{636 0 73 0 536 742 _sc
192 83 _m
536 83 _l
536 0 _l
73 0 _l
73 83 _l
110 121 161 173 226 239 _c
290 304 331 346 348 365 _c
380 400 402 430 414 455 _c
426 479 433 504 433 528 _c
433 566 419 598 392 622 _c
365 646 330 659 286 659 _c
255 659 222 653 188 643 _c
154 632 117 616 78 594 _c
78 694 _l
118 710 155 722 189 730 _c
223 738 255 742 284 742 _c
}_e{359 742 419 723 464 685 _c
509 647 532 597 532 534 _c
532 504 526 475 515 449 _c
504 422 484 390 454 354 _c
446 344 420 317 376 272 _c
332 227 271 164 192 83 _c
_cl}_e}_d
/four{636 0 49 0 580 729 _sc
378 643 _m
129 254 _l
378 254 _l
378 643 _l
352 729 _m
476 729 _l
476 254 _l
580 254 _l
580 172 _l
476 172 _l
476 0 _l
378 0 _l
378 172 _l
49 172 _l
49 267 _l
352 729 _l
_cl}_d
/five{{636 0 77 -13 549 729 _sc
108 729 _m
495 729 _l
495 646 _l
198 646 _l
198 467 _l
212 472 227 476 241 478 _c
255 480 270 482 284 482 _c
365 482 429 459 477 415 _c
525 370 549 310 549 234 _c
549 155 524 94 475 51 _c
426 8 357 -13 269 -13 _c
238 -13 207 -10 175 -6 _c
143 -1 111 6 77 17 _c
77 116 _l
106 100 136 88 168 80 _c
199 72 232 69 267 69 _c
}_e{323 69 368 83 401 113 _c
433 143 450 183 450 234 _c
450 284 433 324 401 354 _c
368 384 323 399 267 399 _c
241 399 214 396 188 390 _c
162 384 135 375 108 363 _c
108 729 _l
_cl}_e}_d
/six{{636 0 70 -13 573 742 _sc
330 404 _m
286 404 251 388 225 358 _c
199 328 186 286 186 234 _c
186 181 199 139 225 109 _c
251 79 286 64 330 64 _c
374 64 409 79 435 109 _c
461 139 474 181 474 234 _c
474 286 461 328 435 358 _c
409 388 374 404 330 404 _c
526 713 _m
526 623 _l
501 635 476 644 451 650 _c
425 656 400 659 376 659 _c
310 659 260 637 226 593 _c
}_e{192 549 172 482 168 394 _c
187 422 211 444 240 459 _c
269 474 301 482 336 482 _c
409 482 467 459 509 415 _c
551 371 573 310 573 234 _c
573 159 550 99 506 54 _c
462 9 403 -13 330 -13 _c
246 -13 181 19 137 83 _c
92 147 70 241 70 364 _c
70 479 97 571 152 639 _c
206 707 280 742 372 742 _c
396 742 421 739 447 735 _c
472 730 498 723 526 713 _c
_cl}_e}_d
/eight{{636 0 68 -13 568 742 _sc
318 346 _m
271 346 234 333 207 308 _c
180 283 167 249 167 205 _c
167 161 180 126 207 101 _c
234 76 271 64 318 64 _c
364 64 401 76 428 102 _c
455 127 469 161 469 205 _c
469 249 455 283 429 308 _c
402 333 365 346 318 346 _c
219 388 _m
177 398 144 418 120 447 _c
96 476 85 511 85 553 _c
85 611 105 657 147 691 _c
188 725 245 742 318 742 _c
}_e{390 742 447 725 489 691 _c
530 657 551 611 551 553 _c
551 511 539 476 515 447 _c
491 418 459 398 417 388 _c
464 377 501 355 528 323 _c
554 291 568 251 568 205 _c
568 134 546 80 503 43 _c
459 5 398 -13 318 -13 _c
237 -13 175 5 132 43 _c
89 80 68 134 68 205 _c
68 251 81 291 108 323 _c
134 355 171 377 219 388 _c
183 544 _m
183 506 194 476 218 455 _c
}_e{242 434 275 424 318 424 _c
360 424 393 434 417 455 _c
441 476 453 506 453 544 _c
453 582 441 611 417 632 _c
393 653 360 664 318 664 _c
275 664 242 653 218 632 _c
194 611 183 582 183 544 _c
_cl}_e}_d
/equal{838 0 106 172 732 454 _sc
106 454 _m
732 454 _l
732 372 _l
106 372 _l
106 454 _l
106 255 _m
732 255 _l
732 172 _l
106 172 _l
106 255 _l
_cl}_d
/C{{698 0 56 -13 644 742 _sc
644 673 _m
644 569 _l
610 599 575 622 537 638 _c
499 653 460 661 418 661 _c
334 661 270 635 226 584 _c
182 533 160 460 160 364 _c
160 268 182 194 226 143 _c
270 92 334 67 418 67 _c
460 67 499 74 537 90 _c
575 105 610 128 644 159 _c
644 56 _l
609 32 572 15 534 4 _c
496 -7 455 -13 412 -13 _c
302 -13 215 20 151 87 _c
}_e{87 154 56 246 56 364 _c
56 481 87 573 151 641 _c
215 708 302 742 412 742 _c
456 742 497 736 535 725 _c
573 713 610 696 644 673 _c
_cl}_e}_d
/F{575 0 98 0 517 729 _sc
98 729 _m
517 729 _l
517 646 _l
197 646 _l
197 431 _l
486 431 _l
486 348 _l
197 348 _l
197 0 _l
98 0 _l
98 729 _l
_cl}_d
/I{295 0 98 0 197 729 _sc
98 729 _m
197 729 _l
197 0 _l
98 0 _l
98 729 _l
_cl}_d
/L{557 0 98 0 552 729 _sc
98 729 _m
197 729 _l
197 83 _l
552 83 _l
552 0 _l
98 0 _l
98 729 _l
_cl}_d
/M{863 0 98 0 765 729 _sc
98 729 _m
245 729 _l
431 233 _l
618 729 _l
765 729 _l
765 0 _l
669 0 _l
669 640 _l
481 140 _l
382 140 _l
194 640 _l
194 0 _l
98 0 _l
98 729 _l
_cl}_d
/N{748 0 98 0 650 729 _sc
98 729 _m
231 729 _l
554 119 _l
554 729 _l
650 729 _l
650 0 _l
517 0 _l
194 610 _l
194 0 _l
98 0 _l
98 729 _l
_cl}_d
/O{787 0 56 -13 731 742 _sc
394 662 _m
322 662 265 635 223 582 _c
181 528 160 456 160 364 _c
160 272 181 199 223 146 _c
265 92 322 66 394 66 _c
465 66 522 92 564 146 _c
606 199 627 272 627 364 _c
627 456 606 528 564 582 _c
522 635 465 662 394 662 _c
394 742 _m
496 742 577 707 639 639 _c
700 571 731 479 731 364 _c
731 248 700 157 639 89 _c
577 21 496 -13 394 -13 _c
291 -13 209 21 148 89 _c
86 157 56 248 56 364 _c
56 479 86 571 148 639 _c
209 707 291 742 394 742 _c
_cl}_d
/P{603 0 98 0 569 729 _sc
197 648 _m
197 374 _l
321 374 _l
367 374 402 385 427 409 _c
452 433 465 467 465 511 _c
465 555 452 588 427 612 _c
402 636 367 648 321 648 _c
197 648 _l
98 729 _m
321 729 _l
402 729 464 710 506 673 _c
548 636 569 582 569 511 _c
569 439 548 384 506 348 _c
464 311 402 293 321 293 _c
197 293 _l
197 0 _l
98 0 _l
98 729 _l
_cl}_d
/R{{695 0 98 0 666 729 _sc
444 342 _m
465 334 486 319 506 296 _c
526 272 546 240 566 199 _c
666 0 _l
560 0 _l
467 187 _l
443 235 419 268 397 284 _c
374 300 343 308 304 308 _c
197 308 _l
197 0 _l
98 0 _l
98 729 _l
321 729 _l
404 729 466 711 507 677 _c
548 642 569 589 569 519 _c
569 473 558 434 537 404 _c
515 374 484 353 444 342 _c
197 648 _m
197 389 _l
321 389 _l
}_e{368 389 404 400 428 422 _c
452 444 465 476 465 519 _c
465 561 452 593 428 615 _c
404 637 368 648 321 648 _c
197 648 _l
_cl}_e}_d
/S{{635 0 66 -13 579 742 _sc
535 705 _m
535 609 _l
497 627 462 640 429 649 _c
395 657 363 662 333 662 _c
279 662 237 651 208 631 _c
179 610 165 580 165 542 _c
165 510 174 485 194 469 _c
213 452 250 439 304 429 _c
364 417 _l
437 403 491 378 526 343 _c
561 307 579 260 579 201 _c
579 130 555 77 508 41 _c
460 5 391 -13 300 -13 _c
265 -13 228 -9 189 -2 _c
}_e{150 5 110 16 69 32 _c
69 134 _l
109 111 148 94 186 83 _c
224 71 262 66 300 66 _c
356 66 399 77 430 99 _c
460 121 476 152 476 194 _c
476 230 465 258 443 278 _c
421 298 385 313 335 323 _c
275 335 _l
201 349 148 372 115 404 _c
82 435 66 478 66 534 _c
66 598 88 649 134 686 _c
179 723 242 742 322 742 _c
356 742 390 739 426 733 _c
461 727 497 717 535 705 _c
}_e{_cl}_e}_d
/T{611 0 -2 0 614 729 _sc
-2 729 _m
614 729 _l
614 646 _l
355 646 _l
355 0 _l
256 0 _l
256 646 _l
-2 646 _l
-2 729 _l
_cl}_d
/V{684 0 8 0 676 729 _sc
286 0 _m
8 729 _l
111 729 _l
342 115 _l
573 729 _l
676 729 _l
398 0 _l
286 0 _l
_cl}_d
/a{{613 0 60 -13 522 560 _sc
343 275 _m
270 275 220 266 192 250 _c
164 233 150 205 150 165 _c
150 133 160 107 181 89 _c
202 70 231 61 267 61 _c
317 61 357 78 387 114 _c
417 149 432 196 432 255 _c
432 275 _l
343 275 _l
522 312 _m
522 0 _l
432 0 _l
432 83 _l
411 49 385 25 355 10 _c
325 -5 287 -13 243 -13 _c
187 -13 142 2 109 33 _c
76 64 60 106 60 159 _c
}_e{60 220 80 266 122 298 _c
163 329 224 345 306 345 _c
432 345 _l
432 354 _l
432 395 418 427 391 450 _c
364 472 326 484 277 484 _c
245 484 215 480 185 472 _c
155 464 127 453 100 439 _c
100 522 _l
132 534 164 544 195 550 _c
226 556 256 560 286 560 _c
365 560 424 539 463 498 _c
502 457 522 395 522 312 _c
_cl}_e}_d
/c{{550 0 55 -13 488 560 _sc
488 526 _m
488 442 _l
462 456 437 466 411 473 _c
385 480 360 484 334 484 _c
276 484 230 465 198 428 _c
166 391 150 339 150 273 _c
150 206 166 154 198 117 _c
230 80 276 62 334 62 _c
360 62 385 65 411 72 _c
437 79 462 90 488 104 _c
488 21 _l
462 9 436 0 410 -5 _c
383 -10 354 -13 324 -13 _c
242 -13 176 12 128 64 _c
}_e{79 115 55 185 55 273 _c
55 362 79 432 128 483 _c
177 534 244 560 330 560 _c
358 560 385 557 411 551 _c
437 545 463 537 488 526 _c
_cl}_e}_d
/e{{615 0 55 -13 562 560 _sc
562 296 _m
562 252 _l
149 252 _l
153 190 171 142 205 110 _c
238 78 284 62 344 62 _c
378 62 412 66 444 74 _c
476 82 509 95 541 113 _c
541 28 _l
509 14 476 3 442 -3 _c
408 -9 373 -13 339 -13 _c
251 -13 182 12 131 62 _c
80 112 55 181 55 268 _c
55 357 79 428 127 481 _c
175 533 241 560 323 560 _c
397 560 455 536 498 489 _c
}_e{540 441 562 377 562 296 _c
472 322 _m
471 371 457 410 431 440 _c
404 469 368 484 324 484 _c
274 484 234 469 204 441 _c
174 413 156 373 152 322 _c
472 322 _l
_cl}_e}_d
/g{{635 0 55 -207 544 560 _sc
454 280 _m
454 344 440 395 414 431 _c
387 467 349 485 301 485 _c
253 485 215 467 188 431 _c
161 395 148 344 148 280 _c
148 215 161 165 188 129 _c
215 93 253 75 301 75 _c
349 75 387 93 414 129 _c
440 165 454 215 454 280 _c
544 68 _m
544 -24 523 -93 482 -139 _c
440 -184 377 -207 292 -207 _c
260 -207 231 -204 203 -200 _c
175 -195 147 -188 121 -178 _c
}_e{121 -91 _l
147 -105 173 -115 199 -122 _c
225 -129 251 -133 278 -133 _c
336 -133 380 -117 410 -87 _c
439 -56 454 -10 454 52 _c
454 96 _l
435 64 411 40 382 24 _c
353 8 319 0 279 0 _c
211 0 157 25 116 76 _c
75 127 55 195 55 280 _c
55 364 75 432 116 483 _c
157 534 211 560 279 560 _c
319 560 353 552 382 536 _c
411 520 435 496 454 464 _c
454 547 _l
544 547 _l
}_e{544 68 _l
_cl}_e}_d
/h{634 0 91 0 549 760 _sc
549 330 _m
549 0 _l
459 0 _l
459 327 _l
459 379 448 417 428 443 _c
408 469 378 482 338 482 _c
289 482 251 466 223 435 _c
195 404 181 362 181 309 _c
181 0 _l
91 0 _l
91 760 _l
181 760 _l
181 462 _l
202 494 227 519 257 535 _c
286 551 320 560 358 560 _c
420 560 468 540 500 501 _c
532 462 549 405 549 330 _c
_cl}_d
/i{278 0 94 0 184 760 _sc
94 547 _m
184 547 _l
184 0 _l
94 0 _l
94 547 _l
94 760 _m
184 760 _l
184 646 _l
94 646 _l
94 760 _l
_cl}_d
/l{278 0 94 0 184 760 _sc
94 760 _m
184 760 _l
184 0 _l
94 0 _l
94 760 _l
_cl}_d
/m{{974 0 91 0 889 560 _sc
520 442 _m
542 482 569 511 600 531 _c
631 550 668 560 711 560 _c
767 560 811 540 842 500 _c
873 460 889 403 889 330 _c
889 0 _l
799 0 _l
799 327 _l
799 379 789 418 771 444 _c
752 469 724 482 686 482 _c
639 482 602 466 575 435 _c
548 404 535 362 535 309 _c
535 0 _l
445 0 _l
445 327 _l
445 379 435 418 417 444 _c
398 469 369 482 331 482 _c
}_e{285 482 248 466 221 435 _c
194 404 181 362 181 309 _c
181 0 _l
91 0 _l
91 547 _l
181 547 _l
181 462 _l
201 495 226 520 255 536 _c
283 552 317 560 357 560 _c
397 560 430 550 458 530 _c
486 510 506 480 520 442 _c
_cl}_e}_d
/n{634 0 91 0 549 560 _sc
549 330 _m
549 0 _l
459 0 _l
459 327 _l
459 379 448 417 428 443 _c
408 469 378 482 338 482 _c
289 482 251 466 223 435 _c
195 404 181 362 181 309 _c
181 0 _l
91 0 _l
91 547 _l
181 547 _l
181 462 _l
202 494 227 519 257 535 _c
286 551 320 560 358 560 _c
420 560 468 540 500 501 _c
532 462 549 405 549 330 _c
_cl}_d
/o{612 0 55 -13 557 560 _sc
306 484 _m
258 484 220 465 192 427 _c
164 389 150 338 150 273 _c
150 207 163 156 191 118 _c
219 80 257 62 306 62 _c
354 62 392 80 420 118 _c
448 156 462 207 462 273 _c
462 337 448 389 420 427 _c
392 465 354 484 306 484 _c
306 560 _m
384 560 445 534 490 484 _c
534 433 557 363 557 273 _c
557 183 534 113 490 63 _c
445 12 384 -13 306 -13 _c
227 -13 165 12 121 63 _c
77 113 55 183 55 273 _c
55 363 77 433 121 484 _c
165 534 227 560 306 560 _c
_cl}_d
/p{{635 0 91 -207 580 560 _sc
181 82 _m
181 -207 _l
91 -207 _l
91 547 _l
181 547 _l
181 464 _l
199 496 223 520 252 536 _c
281 552 316 560 356 560 _c
422 560 476 533 518 481 _c
559 428 580 359 580 273 _c
580 187 559 117 518 65 _c
476 13 422 -13 356 -13 _c
316 -13 281 -5 252 10 _c
223 25 199 49 181 82 _c
487 273 _m
487 339 473 390 446 428 _c
418 466 381 485 334 485 _c
}_e{286 485 249 466 222 428 _c
194 390 181 339 181 273 _c
181 207 194 155 222 117 _c
249 79 286 61 334 61 _c
381 61 418 79 446 117 _c
473 155 487 207 487 273 _c
_cl}_e}_d
/r{411 0 91 0 411 560 _sc
411 463 _m
401 469 390 473 378 476 _c
366 478 353 480 339 480 _c
288 480 249 463 222 430 _c
194 397 181 350 181 288 _c
181 0 _l
91 0 _l
91 547 _l
181 547 _l
181 462 _l
199 495 224 520 254 536 _c
284 552 321 560 365 560 _c
371 560 378 559 386 559 _c
393 558 401 557 411 555 _c
411 463 _l
_cl}_d
/s{{521 0 54 -13 472 560 _sc
443 531 _m
443 446 _l
417 458 391 468 364 475 _c
336 481 308 485 279 485 _c
234 485 200 478 178 464 _c
156 450 145 430 145 403 _c
145 382 153 366 169 354 _c
185 342 217 330 265 320 _c
296 313 _l
360 299 405 279 432 255 _c
458 230 472 195 472 151 _c
472 100 452 60 412 31 _c
372 1 316 -13 246 -13 _c
216 -13 186 -10 154 -5 _c
}_e{122 0 89 8 54 20 _c
54 113 _l
87 95 120 82 152 74 _c
184 65 216 61 248 61 _c
290 61 323 68 346 82 _c
368 96 380 117 380 144 _c
380 168 371 187 355 200 _c
339 213 303 226 247 238 _c
216 245 _l
160 257 119 275 95 299 _c
70 323 58 356 58 399 _c
58 450 76 490 112 518 _c
148 546 200 560 268 560 _c
301 560 332 557 362 552 _c
391 547 418 540 443 531 _c
}_e{_cl}_e}_d
/t{392 0 27 0 368 702 _sc
183 702 _m
183 547 _l
368 547 _l
368 477 _l
183 477 _l
183 180 _l
183 135 189 106 201 94 _c
213 81 238 75 276 75 _c
368 75 _l
368 0 _l
276 0 _l
206 0 158 13 132 39 _c
106 65 93 112 93 180 _c
93 477 _l
27 477 _l
27 547 _l
93 547 _l
93 702 _l
183 702 _l
_cl}_d
/u{634 0 85 -13 543 560 _sc
85 216 _m
85 547 _l
175 547 _l
175 219 _l
175 167 185 129 205 103 _c
225 77 255 64 296 64 _c
344 64 383 79 411 110 _c
439 141 453 183 453 237 _c
453 547 _l
543 547 _l
543 0 _l
453 0 _l
453 84 _l
431 50 405 26 377 10 _c
348 -5 315 -13 277 -13 _c
214 -13 166 6 134 45 _c
101 83 85 140 85 216 _c
311 560 _m
311 560 _l
_cl}_d
/v{592 0 30 0 562 547 _sc
30 547 _m
125 547 _l
296 88 _l
467 547 _l
562 547 _l
357 0 _l
235 0 _l
30 547 _l
_cl}_d
end readonly def

/BuildGlyph
 {exch begin
 CharStrings exch
 2 copy known not{pop /.notdef}if
 true 3 1 roll get exec
 end}_d

/BuildChar {
 1 index /Encoding get exch get
 1 index /BuildGlyph get exec
}_d

FontName currentdict end definefont pop
end
%%EndProlog
mpldict begin
90 252 translate
432 288 0 0 clipbox
gsave
0 0 m
432 0 l
432 288 l
0 288 l
cl
1.000 setgray
fill
grestore
gsave
54 36 m
388.8 36 l
388.8 253.44 l
54 253.44 l
cl
1.000 setgray
fill
grestore
0.800 setlinewidth
1 setlinejoin
0 setlinecap
[] 0 setdash
0.000 setgray
gsave
/o {
gsave
newpath
translate
0.8 setlinewidth
1 setlinejoin
0 setlinecap
0 0 m
0 -3.5 l

gsave
0.000 setgray
fill
grestore
stroke
grestore
} bind def
54 36 o
grestore
/DejaVuSans findfont
10.000 scalefont
setfont
gsave
46.046875 21.406250 translate
0.000000 rotate
0.000000 0.000000 m /zero glyphshow
6.362305 0.000000 m /period glyphshow
9.541016 0.000000 m /zero glyphshow
grestore
gsave
/o {
gsave
newpath
translate
0.8 setlinewidth
1 setlinejoin
0 setlinecap
0 0 m
0 -3.5 l

gsave
0.000 setgray
fill
grestore
stroke
grestore
} bind def
120.96 36 o
grestore
gsave
113.006875 21.406250 translate
0.000000 rotate
0.000000 0.000000 m /zero glyphshow
6.362305 0.000000 m /period glyphshow
9.541016 0.000000 m /two glyphshow
grestore
gsave
/o {
gsave
newpath
translate
0.8 setlinewidth
1 setlinejoin
0 setlinecap
0 0 m
0 -3.5 l

gsave
0.000 setgray
fill
grestore
stroke
grestore
} bind def
187.92 36 o
grestore
gsave
179.966875 21.406250 translate
0.000000 rotate
0.000000 0.000000 m /zero glyphshow
6.362305 0.000000 m /period glyphshow
9.541016 0.000000 m /four glyphshow
grestore
gsave
/o {
gsave
newpath
translate
0.8 setlinewidth
1 setlinejoin
0 setlinecap
0 0 m
0 -3.5 l

gsave
0.000 setgray
fill
grestore
stroke
grestore
} bind def
254.88 36 o
grestore
gsave
246.926875 21.406250 translate
0.000000 rotate
0.000000 0.000000 m /zero glyphshow
6.362305 0.000000 m /period glyphshow
9.541016 0.000000 m /six glyphshow
grestore
gsave
/o {
gsave
newpath
translate
0.8 setlinewidth
1 setlinejoin
0 setlinecap
0 0 m
0 -3.5 l

gsave
0.000 setgray
fill
grestore
stroke
grestore
} bind def
321.84 36 o
grestore
gsave
313.886875 21.406250 translate
0.000000 rotate
0.000000 0.000000 m /zero glyphshow
6.362305 0.000000 m /period glyphshow
9.541016 0.000000 m /eight glyphshow
grestore
gsave
/o {
gsave
newpath
translate
0.8 setlinewidth
1 setlinejoin
0 setlinecap
0 0 m
0 -3.5 l

gsave
0.000 setgray
fill
grestore
stroke
grestore
} bind def
388.8 36 o
grestore
gsave
380.846875 21.406250 translate
0.000000 rotate
0.000000 0.000000 m /one glyphshow
6.362305 0.000000 m /period glyphshow
9.541016 0.000000 m /zero glyphshow
grestore
gsave
174.150000 7.734375 translate
0.000000 rotate
0.000000 0.000000 m /F glyphshow
5.751953 0.000000 m /a glyphshow
11.879883 0.000000 m /l glyphshow
14.658203 0.000000 m /s glyphshow
19.868164 0.000000 m /e glyphshow
26.020508 0.000000 m /space glyphshow
29.199219 0.000000 m /P glyphshow
35.229492 0.000000 m /o glyphshow
41.347656 0.000000 m /s glyphshow
46.557617 0.000000 m /i glyphshow
49.335938 0.000000 m /t glyphshow
53.256836 0.000000 m /i glyphshow
56.035156 0.000000 m /v glyphshow
61.953125 0.000000 m /e glyphshow
68.105469 0.000000 m /space glyphshow
71.284180 0.000000 m /R glyphshow
78.232422 0.000000 m /a glyphshow
84.360352 0.000000 m /t glyphshow
88.281250 0.000000 m /e glyphshow
grestore
gsave
/o {
gsave
newpath
translate
0.8 setlinewidth
1 setlinejoin
0 setlinecap
0 0 m
-3.5 0 l

gsave
0.000 setgray
fill
grestore
stroke
grestore
} bind def
54 36 o
grestore
gsave
31.093750 32.203125 translate
0.000000 rotate
0.000000 0.000000 m /zero glyphshow
6.362305 0.000000 m /period glyphshow
9.541016 0.000000 m /zero glyphshow
grestore
gsave
/o {
gsave
newpath
translate
0.8 setlinewidth
1 setlinejoin
0 setlinecap
0 0 m
-3.5 0 l

gsave
0.000 setgray
fill
grestore
stroke
grestore
} bind def
54 79.488 o
grestore
gsave
31.093750 75.691125 translate
0.000000 rotate
0.000000 0.000000 m /zero glyphshow
6.362305 0.000000 m /period glyphshow
9.541016 0.000000 m /two glyphshow
grestore
gsave
/o {
gsave
newpath
translate
0.8 setlinewidth
1 setlinejoin
0 setlinecap
0 0 m
-3.5 0 l

gsave
0.000 setgray
fill
grestore
stroke
grestore
} bind def
54 122.976 o
grestore
gsave
31.093750 119.179125 translate
0.000000 rotate
0.000000 0.000000 m /zero glyphshow
6.362305 0.000000 m /period glyphshow
9.541016 0.000000 m /four glyphshow
grestore
gsave
/o {
gsave
newpath
translate
0.8 setlinewidth
1 setlinejoin
0 setlinecap
0 0 m
-3.5 0 l

gsave
0.000 setgray
fill
grestore
stroke
grestore
} bind def
54 166.464 o
grestore
gsave
31.093750 162.667125 translate
0.000000 rotate
0.000000 0.000000 m /zero glyphshow
6.362305 0.000000 m /period glyphshow
9.541016 0.000000 m /six glyphshow
grestore
gsave
/o {
gsave
newpath
translate
0.8 setlinewidth
1 setlinejoin
0 setlinecap
0 0 m
-3.5 0 l

gsave
0.000 setgray
fill
grestore
stroke
grestore
} bind def
54 209.952 o
grestore
gsave
31.093750 206.155125 translate
0.000000 rotate
0.000000 0.000000 m /zero glyphshow
6.362305 0.000000 m /period glyphshow
9.541016 0.000000 m /eight glyphshow
grestore
gsave
/o {
gsave
newpath
translate
0.8 setlinewidth
1 setlinejoin
0 setlinecap
0 0 m
-3.5 0 l

gsave
0.000 setgray
fill
grestore
stroke
grestore
} bind def
54 253.44 o
grestore
gsave
31.093750 249.643125 translate
0.000000 rotate
0.000000 0.000000 m /one glyphshow
6.362305 0.000000 m /period glyphshow
9.541016 0.000000 m /zero glyphshow
grestore
gsave
25.015625 99.134062 translate
90.000000 rotate
0.000000 0.000000 m /T glyphshow
6.092773 0.000000 m /r glyphshow
10.204102 0.000000 m /u glyphshow
16.541992 0.000000 m /e glyphshow
22.694336 0.000000 m /space glyphshow
25.873047 0.000000 m /P glyphshow
31.903320 0.000000 m /o glyphshow
38.021484 0.000000 m /s glyphshow
43.231445 0.000000 m /i glyphshow
46.009766 0.000000 m /t glyphshow
49.930664 0.000000 m /i glyphshow
52.708984 0.000000 m /v glyphshow
58.626953 0.000000 m /e glyphshow
64.779297 0.000000 m /space glyphshow
67.958008 0.000000 m /R glyphshow
74.906250 0.000000 m /a glyphshow
81.034180 0.000000 m /t glyphshow
84.955078 0.000000 m /e glyphshow
grestore
3.000 setlinewidth
2 setlinecap
0.122 0.467 0.706 setrgbcolor
gsave
334.8 217.4 54 36 clipbox
54 36.184584 m
54 40.245433 l
54.489474 40.245433 l
54.489474 40.799185 l
54.978947 40.799185 l
54.978947 47.259626 l
55.957895 47.259626 l
55.957895 47.444211 l
56.447368 47.444211 l
56.447368 50.397555 l
56.936842 50.397555 l
56.936842 51.135891 l
57.426316 51.135891 l
57.426316 52.243396 l
57.915789 52.243396 l
57.915789 52.797148 l
58.894737 52.797148 l
58.894737 53.535484 l
59.384211 53.535484 l
59.384211 57.965501 l
59.873684 57.965501 l
59.873684 59.442173 l
60.363158 59.442173 l
60.363158 61.10343 l
60.852632 61.10343 l
60.852632 65.348862 l
61.342105 65.348862 l
61.342105 65.718031 l
61.831579 65.718031 l
61.831579 66.456367 l
62.321053 66.456367 l
62.321053 68.117623 l
62.810526 68.117623 l
62.810526 70.517216 l
63.789474 70.517216 l
63.789474 72.54764 l
64.278947 72.54764 l
64.278947 74.208896 l
65.257895 74.208896 l
65.257895 76.239321 l
65.747368 76.239321 l
65.747368 78.638913 l
66.236842 78.638913 l
66.236842 79.931002 l
66.726316 79.931002 l
66.726316 82.884346 l
67.215789 82.884346 l
67.215789 85.099355 l
67.705263 85.099355 l
67.705263 85.468523 l
68.194737 85.468523 l
68.194737 86.945195 l
68.684211 86.945195 l
68.684211 88.791036 l
69.173684 88.791036 l
69.173684 101.527334 l
69.663158 101.527334 l
69.663158 102.450255 l
70.152632 102.450255 l
70.152632 103.373175 l
70.642105 103.373175 l
70.642105 106.32652 l
71.131579 106.32652 l
71.131579 107.434024 l
71.621053 107.434024 l
71.621053 110.202784 l
72.110526 110.202784 l
72.110526 112.233209 l
73.089474 112.233209 l
73.089474 114.079049 l
73.578947 114.079049 l
73.578947 114.817385 l
74.068421 114.817385 l
74.068421 115.186553 l
74.557895 115.186553 l
74.557895 118.324482 l
75.047368 118.324482 l
75.047368 122.200747 l
75.536842 122.200747 l
75.536842 124.046587 l
76.515789 124.046587 l
76.515789 124.415756 l
77.494737 124.415756 l
77.494737 130.322445 l
77.984211 130.322445 l
77.984211 143.79708 l
78.473684 143.79708 l
78.473684 146.196672 l
78.963158 146.196672 l
78.963158 162.255484 l
79.452632 162.255484 l
79.452632 163.362988 l
79.942105 163.362988 l
79.942105 163.732156 l
80.431579 163.732156 l
80.431579 165.947165 l
80.921053 165.947165 l
80.921053 167.977589 l
81.9 167.977589 l
81.9 172.776774 l
82.389474 172.776774 l
82.389474 173.330526 l
82.878947 173.330526 l
82.878947 177.206791 l
83.368421 177.206791 l
83.368421 179.606384 l
83.857895 179.606384 l
83.857895 182.559728 l
84.347368 182.559728 l
84.347368 186.435993 l
85.815789 186.435993 l
85.815789 187.174329 l
86.305263 187.174329 l
86.305263 187.912666 l
87.284211 187.912666 l
87.284211 189.573922 l
87.773684 189.573922 l
87.773684 191.973514 l
88.263158 191.973514 l
88.263158 193.081019 l
88.752632 193.081019 l
88.752632 193.265603 l
89.242105 193.265603 l
89.242105 194.373107 l
90.221053 194.373107 l
90.221053 194.742275 l
90.710526 194.742275 l
90.710526 196.034363 l
91.2 196.034363 l
91.2 196.218947 l
92.178947 196.218947 l
92.178947 196.403531 l
93.157895 196.403531 l
93.157895 196.588115 l
93.647368 196.588115 l
93.647368 196.772699 l
94.626316 196.772699 l
94.626316 197.141868 l
95.115789 197.141868 l
95.115789 198.064788 l
95.605263 198.064788 l
95.605263 198.987708 l
97.073684 198.987708 l
97.073684 199.356876 l
97.563158 199.356876 l
97.563158 199.726044 l
98.052632 199.726044 l
98.052632 199.910628 l
99.031579 199.910628 l
99.031579 200.279796 l
99.521053 200.279796 l
99.521053 200.648964 l
100.5 200.648964 l
100.5 200.833548 l
101.478947 200.833548 l
101.478947 201.387301 l
102.457895 201.387301 l
102.457895 201.756469 l
103.436842 201.756469 l
103.436842 202.310221 l
103.926316 202.310221 l
103.926316 202.679389 l
104.415789 202.679389 l
104.415789 202.863973 l
105.884211 202.863973 l
105.884211 203.048557 l
106.373684 203.048557 l
106.373684 203.417725 l
107.352632 203.417725 l
107.352632 203.971477 l
107.842105 203.971477 l
107.842105 204.525229 l
109.310526 204.525229 l
109.310526 204.709813 l
110.289474 204.709813 l
110.289474 204.894397 l
110.778947 204.894397 l
110.778947 205.263565 l
111.268421 205.263565 l
111.268421 205.632733 l
111.757895 205.632733 l
111.757895 205.817317 l
112.736842 205.817317 l
112.736842 207.109406 l
118.121053 207.109406 l
118.121053 207.478574 l
118.610526 207.478574 l
118.610526 207.663158 l
119.589474 207.663158 l
119.589474 207.847742 l
120.568421 207.847742 l
120.568421 208.21691 l
122.036842 208.21691 l
122.036842 208.586078 l
123.015789 208.586078 l
123.015789 208.955246 l
123.505263 208.955246 l
123.505263 209.508998 l
124.973684 209.508998 l
124.973684 209.878166 l
125.463158 209.878166 l
125.463158 210.06275 l
125.952632 210.06275 l
125.952632 210.247334 l
126.442105 210.247334 l
126.442105 210.431919 l
127.421053 210.431919 l
127.421053 210.616503 l
127.910526 210.616503 l
127.910526 211.170255 l
128.889474 211.170255 l
128.889474 211.724007 l
129.868421 211.724007 l
129.868421 212.277759 l
130.357895 212.277759 l
130.357895 212.462343 l
132.805263 212.462343 l
132.805263 212.646927 l
134.763158 212.646927 l
134.763158 212.831511 l
135.252632 212.831511 l
135.252632 213.200679 l
135.742105 213.200679 l
135.742105 213.385263 l
136.721053 213.385263 l
136.721053 213.754431 l
137.210526 213.754431 l
137.210526 214.492767 l
138.189474 214.492767 l
138.189474 214.677351 l
139.168421 214.677351 l
139.168421 214.861935 l
140.147368 214.861935 l
140.147368 215.231104 l
141.126316 215.231104 l
141.126316 215.415688 l
141.615789 215.415688 l
141.615789 216.154024 l
142.105263 216.154024 l
142.105263 216.338608 l
143.084211 216.338608 l
143.084211 216.523192 l
143.573684 216.523192 l
143.573684 216.707776 l
144.552632 216.707776 l
144.552632 217.076944 l
145.531579 217.076944 l
145.531579 217.446112 l
146.510526 217.446112 l
146.510526 217.630696 l
147.489474 217.630696 l
147.489474 218.369032 l
148.468421 218.369032 l
148.468421 219.107368 l
148.957895 219.107368 l
148.957895 219.291952 l
150.915789 219.291952 l
150.915789 220.030289 l
152.384211 220.030289 l
152.384211 220.214873 l
154.342105 220.214873 l
154.342105 220.953209 l
155.810526 220.953209 l
155.810526 221.322377 l
156.789474 221.322377 l
156.789474 221.506961 l
157.768421 221.506961 l
157.768421 221.876129 l
159.726316 221.876129 l
159.726316 222.060713 l
161.684211 222.060713 l
161.684211 222.245297 l
163.152632 222.245297 l
163.152632 222.614465 l
163.642105 222.614465 l
163.642105 223.537385 l
166.089474 223.537385 l
166.089474 223.721969 l
166.578947 223.721969 l
166.578947 224.275722 l
168.536842 224.275722 l
168.536842 225.014058 l
169.026316 225.014058 l
169.026316 225.936978 l
171.963158 225.936978 l
171.963158 226.306146 l
172.452632 226.306146 l
172.452632 226.675314 l
174.9 226.675314 l
174.9 226.859898 l
175.878947 226.859898 l
175.878947 227.044482 l
176.857895 227.044482 l
176.857895 227.229066 l
177.347368 227.229066 l
177.347368 227.598234 l
178.326316 227.598234 l
178.326316 227.782818 l
180.284211 227.782818 l
180.284211 228.151986 l
181.752632 228.151986 l
181.752632 228.521154 l
182.731579 228.521154 l
182.731579 228.705739 l
183.221053 228.705739 l
183.221053 228.890323 l
183.710526 228.890323 l
183.710526 229.074907 l
185.178947 229.074907 l
185.178947 229.259491 l
186.157895 229.259491 l
186.157895 229.628659 l
190.563158 229.628659 l
190.563158 229.813243 l
191.052632 229.813243 l
191.052632 230.182411 l
191.542105 230.182411 l
191.542105 230.366995 l
192.031579 230.366995 l
192.031579 230.551579 l
192.521053 230.551579 l
192.521053 230.920747 l
196.436842 230.920747 l
196.436842 231.474499 l
199.863158 231.474499 l
199.863158 232.582003 l
200.352632 232.582003 l
200.352632 232.951171 l
202.310526 232.951171 l
202.310526 233.135756 l
203.289474 233.135756 l
203.289474 233.32034 l
206.226316 233.32034 l
206.226316 233.504924 l
208.673684 233.504924 l
208.673684 233.689508 l
209.163158 233.689508 l
209.163158 234.058676 l
213.078947 234.058676 l
213.078947 234.24326 l
213.568421 234.24326 l
213.568421 234.612428 l
215.036842 234.612428 l
215.036842 234.797012 l
215.526316 234.797012 l
215.526316 235.16618 l
219.442105 235.16618 l
219.442105 235.350764 l
222.868421 235.350764 l
222.868421 235.535348 l
223.847368 235.535348 l
223.847368 235.719932 l
224.336842 235.719932 l
224.336842 236.0891 l
225.805263 236.0891 l
225.805263 236.273684 l
230.7 236.273684 l
230.7 236.458268 l
232.657895 236.458268 l
232.657895 236.642852 l
234.126316 236.642852 l
234.126316 237.01202 l
236.573684 237.01202 l
236.573684 237.196604 l
237.063158 237.196604 l
237.063158 237.381188 l
239.021053 237.381188 l
239.021053 237.565772 l
240 237.565772 l
240 237.934941 l
241.468421 237.934941 l
241.468421 238.304109 l
244.405263 238.304109 l
244.405263 238.488693 l
245.384211 238.488693 l
245.384211 239.042445 l
250.768421 239.042445 l
250.768421 239.411613 l
251.257895 239.411613 l
251.257895 240.149949 l
251.747368 240.149949 l
251.747368 240.334533 l
252.726316 240.334533 l
252.726316 240.519117 l
257.621053 240.519117 l
257.621053 240.703701 l
258.110526 240.703701 l
258.110526 240.888285 l
261.047368 240.888285 l
261.047368 241.257453 l
263.984211 241.257453 l
263.984211 241.442037 l
265.452632 241.442037 l
265.452632 241.626621 l
266.921053 241.626621 l
266.921053 241.811205 l
268.878947 241.811205 l
268.878947 242.180374 l
271.326316 242.180374 l
271.326316 242.364958 l
272.794737 242.364958 l
272.794737 242.549542 l
281.115789 242.549542 l
281.115789 242.734126 l
282.584211 242.734126 l
282.584211 243.103294 l
284.052632 243.103294 l
284.052632 243.287878 l
284.542105 243.287878 l
284.542105 243.472462 l
285.031579 243.472462 l
285.031579 243.657046 l
285.521053 243.657046 l
285.521053 244.026214 l
286.5 244.026214 l
286.5 244.210798 l
288.457895 244.210798 l
288.457895 244.395382 l
289.926316 244.395382 l
289.926316 244.579966 l
290.415789 244.579966 l
290.415789 244.949134 l
292.863158 244.949134 l
292.863158 245.133718 l
293.842105 245.133718 l
293.842105 245.318302 l
294.331579 245.318302 l
294.331579 245.502886 l
295.310526 245.502886 l
295.310526 245.872054 l
298.247368 245.872054 l
298.247368 246.056638 l
306.078947 246.056638 l
306.078947 246.241222 l
308.526316 246.241222 l
308.526316 246.425806 l
319.294737 246.425806 l
319.294737 246.61039 l
319.784211 246.61039 l
319.784211 246.794975 l
338.384211 246.794975 l
338.384211 247.164143 l
340.342105 247.164143 l
340.342105 247.348727 l
342.789474 247.348727 l
342.789474 247.533311 l
343.278947 247.533311 l
343.278947 247.717895 l
346.215789 247.717895 l
346.215789 247.902479 l
347.194737 247.902479 l
347.194737 248.271647 l
350.621053 248.271647 l
350.621053 248.456231 l
351.110526 248.456231 l
351.110526 248.640815 l
352.089474 248.640815 l
352.089474 249.009983 l
354.536842 249.009983 l
354.536842 249.194567 l
356.005263 249.194567 l
356.005263 249.379151 l
356.984211 249.379151 l
356.984211 249.748319 l
360.9 249.748319 l
360.9 249.932903 l
362.368421 249.932903 l
362.368421 250.117487 l
363.347368 250.117487 l
363.347368 250.302071 l
365.794737 250.302071 l
365.794737 250.486655 l
366.284211 250.486655 l
366.284211 250.671239 l
368.242105 250.671239 l
368.242105 251.224992 l
368.731579 251.224992 l
368.731579 251.409576 l
370.689474 251.409576 l
370.689474 251.59416 l
371.668421 251.59416 l
371.668421 251.778744 l
383.415789 251.778744 l
383.415789 252.147912 l
384.394737 252.147912 l
384.394737 252.332496 l
384.884211 252.332496 l
384.884211 252.51708 l
385.373684 252.51708 l
385.373684 252.886248 l
388.310526 252.886248 l
388.310526 253.255416 l
388.8 253.255416 l
388.8 253.44 l
388.8 253.44 l
stroke
grestore
1.000 0.498 0.055 setrgbcolor
gsave
334.8 217.4 54 36 clipbox
54 36.184584 m
54 40.614601 l
54.489474 40.614601 l
54.489474 49.474635 l
54.978947 49.474635 l
54.978947 58.888421 l
55.468421 58.888421 l
55.468421 67.563871 l
55.957895 67.563871 l
55.957895 69.409711 l
56.447368 69.409711 l
56.447368 71.440136 l
56.936842 71.440136 l
56.936842 71.62472 l
57.426316 71.62472 l
57.426316 72.178472 l
57.915789 72.178472 l
57.915789 82.884346 l
58.405263 82.884346 l
58.405263 84.176435 l
58.894737 84.176435 l
58.894737 85.099355 l
59.384211 85.099355 l
59.384211 92.113548 l
59.873684 92.113548 l
59.873684 93.590221 l
60.363158 93.590221 l
60.363158 96.728149 l
60.852632 96.728149 l
60.852632 97.097317 l
61.342105 97.097317 l
61.342105 97.281902 l
61.831579 97.281902 l
61.831579 100.050662 l
62.321053 100.050662 l
62.321053 102.450255 l
62.810526 102.450255 l
62.810526 103.557759 l
63.3 103.557759 l
63.3 104.296095 l
63.789474 104.296095 l
63.789474 109.09528 l
64.278947 109.09528 l
64.278947 110.387368 l
64.768421 110.387368 l
64.768421 115.740306 l
65.257895 115.740306 l
65.257895 116.294058 l
65.747368 116.294058 l
65.747368 117.955314 l
66.236842 117.955314 l
66.236842 121.277827 l
66.726316 121.277827 l
66.726316 126.077012 l
67.215789 126.077012 l
67.215789 127.553684 l
67.705263 127.553684 l
67.705263 133.644958 l
68.194737 133.644958 l
68.194737 134.937046 l
68.684211 134.937046 l
68.684211 137.89039 l
69.173684 137.89039 l
69.173684 140.474567 l
69.663158 140.474567 l
69.663158 144.350832 l
70.152632 144.350832 l
70.152632 146.196672 l
70.642105 146.196672 l
70.642105 151.365025 l
71.131579 151.365025 l
71.131579 158.194635 l
71.621053 158.194635 l
71.621053 172.59219 l
72.110526 172.59219 l
72.110526 179.606384 l
72.6 179.606384 l
72.6 184.405569 l
73.578947 184.405569 l
73.578947 185.513073 l
74.068421 185.513073 l
74.068421 187.912666 l
74.557895 187.912666 l
74.557895 188.835586 l
75.047368 188.835586 l
75.047368 191.050594 l
76.026316 191.050594 l
76.026316 191.78893 l
76.515789 191.78893 l
76.515789 192.342683 l
77.005263 192.342683 l
77.005263 193.081019 l
77.494737 193.081019 l
77.494737 193.634771 l
77.984211 193.634771 l
77.984211 194.373107 l
78.963158 194.373107 l
78.963158 195.480611 l
79.452632 195.480611 l
79.452632 197.69562 l
79.942105 197.69562 l
79.942105 198.803124 l
80.431579 198.803124 l
80.431579 199.172292 l
80.921053 199.172292 l
80.921053 199.910628 l
81.410526 199.910628 l
81.410526 201.756469 l
81.9 201.756469 l
81.9 201.941053 l
82.389474 201.941053 l
82.389474 203.233141 l
82.878947 203.233141 l
82.878947 203.417725 l
83.368421 203.417725 l
83.368421 205.078981 l
83.857895 205.078981 l
83.857895 205.817317 l
84.347368 205.817317 l
84.347368 206.555654 l
84.836842 206.555654 l
84.836842 209.878166 l
85.815789 209.878166 l
85.815789 210.06275 l
86.305263 210.06275 l
86.305263 211.354839 l
86.794737 211.354839 l
86.794737 211.908591 l
87.284211 211.908591 l
87.284211 215.415688 l
89.242105 215.415688 l
89.242105 215.600272 l
89.731579 215.600272 l
89.731579 215.784856 l
90.221053 215.784856 l
90.221053 215.96944 l
90.710526 215.96944 l
90.710526 216.707776 l
91.2 216.707776 l
91.2 217.446112 l
92.178947 217.446112 l
92.178947 218.369032 l
92.668421 218.369032 l
92.668421 218.553616 l
95.115789 218.553616 l
95.115789 218.7382 l
95.605263 218.7382 l
95.605263 218.922784 l
98.052632 218.922784 l
98.052632 219.291952 l
99.521053 219.291952 l
99.521053 219.476537 l
101.478947 219.476537 l
101.478947 220.214873 l
102.947368 220.214873 l
102.947368 220.399457 l
104.905263 220.399457 l
104.905263 220.768625 l
106.373684 220.768625 l
106.373684 220.953209 l
107.352632 220.953209 l
107.352632 221.322377 l
108.331579 221.322377 l
108.331579 221.506961 l
110.778947 221.506961 l
110.778947 221.691545 l
113.226316 221.691545 l
113.226316 221.876129 l
113.715789 221.876129 l
113.715789 222.429881 l
114.205263 222.429881 l
114.205263 223.352801 l
116.163158 223.352801 l
116.163158 223.537385 l
117.142105 223.537385 l
117.142105 223.721969 l
119.589474 223.721969 l
119.589474 223.906553 l
121.547368 223.906553 l
121.547368 224.091138 l
124.973684 224.091138 l
124.973684 224.275722 l
126.931579 224.275722 l
126.931579 224.64489 l
128.4 224.64489 l
128.4 224.829474 l
131.336842 224.829474 l
131.336842 225.383226 l
132.805263 225.383226 l
132.805263 225.56781 l
133.294737 225.56781 l
133.294737 225.752394 l
135.252632 225.752394 l
135.252632 226.121562 l
138.678947 226.121562 l
138.678947 226.306146 l
139.168421 226.306146 l
139.168421 226.49073 l
139.657895 226.49073 l
139.657895 226.859898 l
140.636842 226.859898 l
140.636842 227.229066 l
142.105263 227.229066 l
142.105263 227.598234 l
143.084211 227.598234 l
143.084211 227.782818 l
144.552632 227.782818 l
144.552632 227.967402 l
145.042105 227.967402 l
145.042105 228.151986 l
146.510526 228.151986 l
146.510526 228.705739 l
147 228.705739 l
147 228.890323 l
147.489474 228.890323 l
147.489474 229.074907 l
150.426316 229.074907 l
150.426316 229.259491 l
153.363158 229.259491 l
153.363158 229.444075 l
157.768421 229.444075 l
157.768421 229.628659 l
159.726316 229.628659 l
159.726316 229.813243 l
160.215789 229.813243 l
160.215789 230.182411 l
161.684211 230.182411 l
161.684211 230.366995 l
166.089474 230.366995 l
166.089474 230.551579 l
166.578947 230.551579 l
166.578947 230.736163 l
168.047368 230.736163 l
168.047368 230.920747 l
169.026316 230.920747 l
169.026316 231.289915 l
173.431579 231.289915 l
173.431579 231.474499 l
179.794737 231.474499 l
179.794737 231.659083 l
180.284211 231.659083 l
180.284211 231.843667 l
198.884211 231.843667 l
198.884211 232.028251 l
201.821053 232.028251 l
201.821053 232.397419 l
204.268421 232.397419 l
204.268421 232.766587 l
210.142105 232.766587 l
210.142105 233.135756 l
212.1 233.135756 l
212.1 233.32034 l
213.078947 233.32034 l
213.078947 233.504924 l
216.505263 233.504924 l
216.505263 233.689508 l
219.931579 233.689508 l
219.931579 234.24326 l
224.826316 234.24326 l
224.826316 234.612428 l
228.252632 234.612428 l
228.252632 235.16618 l
229.231579 235.16618 l
229.231579 235.350764 l
233.636842 235.350764 l
233.636842 235.535348 l
236.084211 235.535348 l
236.084211 235.719932 l
238.531579 235.719932 l
238.531579 235.904516 l
242.936842 235.904516 l
242.936842 236.0891 l
244.405263 236.0891 l
244.405263 236.273684 l
244.894737 236.273684 l
244.894737 236.458268 l
245.873684 236.458268 l
245.873684 236.642852 l
247.342105 236.642852 l
247.342105 236.827436 l
248.321053 236.827436 l
248.321053 237.01202 l
248.810526 237.01202 l
248.810526 237.196604 l
249.789474 237.196604 l
249.789474 237.381188 l
251.257895 237.381188 l
251.257895 237.565772 l
252.236842 237.565772 l
252.236842 237.934941 l
254.194737 237.934941 l
254.194737 238.119525 l
255.663158 238.119525 l
255.663158 238.673277 l
258.110526 238.673277 l
258.110526 238.857861 l
260.068421 238.857861 l
260.068421 239.227029 l
260.557895 239.227029 l
260.557895 239.596197 l
263.005263 239.596197 l
263.005263 239.965365 l
268.389474 239.965365 l
268.389474 240.149949 l
270.347368 240.149949 l
270.347368 240.334533 l
271.326316 240.334533 l
271.326316 240.703701 l
272.305263 240.703701 l
272.305263 240.888285 l
280.626316 240.888285 l
280.626316 241.072869 l
282.584211 241.072869 l
282.584211 241.257453 l
285.521053 241.257453 l
285.521053 241.626621 l
286.010526 241.626621 l
286.010526 241.811205 l
286.5 241.811205 l
286.5 241.995789 l
288.947368 241.995789 l
288.947368 242.180374 l
290.415789 242.180374 l
290.415789 242.364958 l
291.394737 242.364958 l
291.394737 242.549542 l
293.352632 242.549542 l
293.352632 242.734126 l
294.821053 242.734126 l
294.821053 243.103294 l
296.289474 243.103294 l
296.289474 243.287878 l
296.778947 243.287878 l
296.778947 243.472462 l
298.247368 243.472462 l
298.247368 243.84163 l
298.736842 243.84163 l
298.736842 244.026214 l
299.715789 244.026214 l
299.715789 244.210798 l
305.589474 244.210798 l
305.589474 244.395382 l
307.547368 244.395382 l
307.547368 244.76455 l
314.4 244.76455 l
314.4 245.133718 l
315.378947 245.133718 l
315.378947 245.502886 l
315.868421 245.502886 l
315.868421 245.872054 l
318.805263 245.872054 l
318.805263 246.056638 l
319.784211 246.056638 l
319.784211 246.241222 l
320.273684 246.241222 l
320.273684 246.425806 l
322.231579 246.425806 l
322.231579 246.61039 l
323.7 246.61039 l
323.7 246.794975 l
324.678947 246.794975 l
324.678947 246.979559 l
329.084211 246.979559 l
329.084211 247.164143 l
329.573684 247.164143 l
329.573684 247.348727 l
333.978947 247.348727 l
333.978947 247.717895 l
338.384211 247.717895 l
338.384211 247.902479 l
342.3 247.902479 l
342.3 248.456231 l
342.789474 248.456231 l
342.789474 248.640815 l
343.768421 248.640815 l
343.768421 249.194567 l
345.726316 249.194567 l
345.726316 249.563735 l
347.684211 249.563735 l
347.684211 249.748319 l
348.173684 249.748319 l
348.173684 249.932903 l
350.131579 249.932903 l
350.131579 250.117487 l
354.536842 250.117487 l
354.536842 250.302071 l
356.005263 250.302071 l
356.005263 250.486655 l
358.452632 250.486655 l
358.452632 250.671239 l
362.857895 250.671239 l
362.857895 250.855823 l
364.815789 250.855823 l
364.815789 251.409576 l
366.284211 251.409576 l
366.284211 251.778744 l
366.773684 251.778744 l
366.773684 251.963328 l
373.136842 251.963328 l
373.136842 252.147912 l
373.626316 252.147912 l
373.626316 252.332496 l
377.542105 252.332496 l
377.542105 252.51708 l
379.5 252.51708 l
379.5 252.886248 l
381.457895 252.886248 l
381.457895 253.070832 l
387.331579 253.070832 l
387.331579 253.255416 l
387.821053 253.255416 l
387.821053 253.44 l
388.8 253.44 l
388.8 253.44 l
stroke
grestore
2.000 setlinewidth
0 setlinecap
[7.4 3.2] 0 setdash
0.000 0.000 0.502 setrgbcolor
gsave
334.8 217.4 54 36 clipbox
54 36 m
388.8 253.44 l
stroke
grestore
0.800 setlinewidth
0 setlinejoin
2 setlinecap
[] 0 setdash
0.000 setgray
gsave
54 36 m
54 253.44 l
stroke
grestore
gsave
388.8 36 m
388.8 253.44 l
stroke
grestore
gsave
54 36 m
388.8 36 l
stroke
grestore
gsave
54 253.44 m
388.8 253.44 l
stroke
grestore
/DejaVuSans findfont
12.000 scalefont
setfont
gsave
73.978125 259.440000 translate
0.000000 rotate
0.000000 0.000000 m /R glyphshow
8.337891 0.000000 m /e glyphshow
15.720703 0.000000 m /c glyphshow
22.318359 0.000000 m /e glyphshow
29.701172 0.000000 m /i glyphshow
33.035156 0.000000 m /v glyphshow
40.136719 0.000000 m /e glyphshow
47.519531 0.000000 m /r glyphshow
52.453125 0.000000 m /space glyphshow
56.267578 0.000000 m /O glyphshow
65.712891 0.000000 m /p glyphshow
73.330078 0.000000 m /e glyphshow
80.712891 0.000000 m /r glyphshow
85.646484 0.000000 m /a glyphshow
93.000000 0.000000 m /t glyphshow
97.705078 0.000000 m /i glyphshow
101.039062 0.000000 m /n glyphshow
108.644531 0.000000 m /g glyphshow
116.261719 0.000000 m /space glyphshow
120.076172 0.000000 m /C glyphshow
128.455078 0.000000 m /h glyphshow
136.060547 0.000000 m /a glyphshow
143.414062 0.000000 m /r glyphshow
148.347656 0.000000 m /a glyphshow
155.701172 0.000000 m /c glyphshow
162.298828 0.000000 m /t glyphshow
167.003906 0.000000 m /e glyphshow
174.386719 0.000000 m /r glyphshow
179.320312 0.000000 m /i glyphshow
182.654297 0.000000 m /s glyphshow
188.906250 0.000000 m /t glyphshow
193.611328 0.000000 m /i glyphshow
196.945312 0.000000 m /c glyphshow
203.542969 0.000000 m /hyphen glyphshow
207.873047 0.000000 m /M glyphshow
218.226562 0.000000 m /C glyphshow
226.605469 0.000000 m /I glyphshow
230.144531 0.000000 m /space glyphshow
233.958984 0.000000 m /v glyphshow
241.060547 0.000000 m /s glyphshow
247.312500 0.000000 m /space glyphshow
251.126953 0.000000 m /N glyphshow
260.103516 0.000000 m /o glyphshow
267.445312 0.000000 m /r glyphshow
272.378906 0.000000 m /m glyphshow
284.068359 0.000000 m /a glyphshow
291.421875 0.000000 m /l glyphshow
grestore
1.000 setlinewidth
0 setlinecap
0.800 setgray
gsave
182.425 41 m
381.8 41 l
383.133333 41 383.8 41.666667 383.8 43 c
383.8 71.34375 l
383.8 72.677083 383.133333 73.34375 381.8 73.34375 c
182.425 73.34375 l
181.091667 73.34375 180.425 72.677083 180.425 71.34375 c
180.425 43 l
180.425 41.666667 181.091667 41 182.425 41 c
cl
gsave
1.000 setgray
fill
grestore
stroke
grestore
3.000 setlinewidth
1 setlinejoin
2 setlinecap
[] 0 setdash
0.122 0.467 0.706 setrgbcolor
gsave
184.425 65.25 m
204.425 65.25 l
stroke
grestore
0.000 setgray
/DejaVuSans findfont
10.000 scalefont
setfont
gsave
212.425000 61.750000 translate
0.000000 rotate
0.000000 0.000000 m /L glyphshow
5.571289 0.000000 m /o glyphshow
11.689453 0.000000 m /g glyphshow
18.037109 0.000000 m /i glyphshow
20.815430 0.000000 m /s glyphshow
26.025391 0.000000 m /t glyphshow
29.946289 0.000000 m /i glyphshow
32.724609 0.000000 m /c glyphshow
38.222656 0.000000 m /space glyphshow
41.401367 0.000000 m /R glyphshow
48.349609 0.000000 m /e glyphshow
54.501953 0.000000 m /g glyphshow
60.849609 0.000000 m /r glyphshow
64.960938 0.000000 m /e glyphshow
71.113281 0.000000 m /s glyphshow
76.323242 0.000000 m /s glyphshow
81.533203 0.000000 m /i glyphshow
84.311523 0.000000 m /o glyphshow
90.429688 0.000000 m /n glyphshow
96.767578 0.000000 m /space glyphshow
99.946289 0.000000 m /parenleft glyphshow
103.847656 0.000000 m /a glyphshow
109.975586 0.000000 m /r glyphshow
114.086914 0.000000 m /e glyphshow
120.239258 0.000000 m /a glyphshow
126.367188 0.000000 m /space glyphshow
129.545898 0.000000 m /equal glyphshow
137.924805 0.000000 m /space glyphshow
141.103516 0.000000 m /zero glyphshow
147.465820 0.000000 m /period glyphshow
150.644531 0.000000 m /eight glyphshow
157.006836 0.000000 m /five glyphshow
163.369141 0.000000 m /parenright glyphshow
grestore
1.000 0.498 0.055 setrgbcolor
gsave
184.425 50.578125 m
204.425 50.578125 l
stroke
grestore
0.000 setgray
gsave
212.425000 47.078125 translate
0.000000 rotate
0.000000 0.000000 m /S glyphshow
6.347656 0.000000 m /V glyphshow
13.188477 0.000000 m /M glyphshow
21.816406 0.000000 m /space glyphshow
24.995117 0.000000 m /parenleft glyphshow
28.896484 0.000000 m /a glyphshow
35.024414 0.000000 m /r glyphshow
39.135742 0.000000 m /e glyphshow
45.288086 0.000000 m /a glyphshow
51.416016 0.000000 m /space glyphshow
54.594727 0.000000 m /equal glyphshow
62.973633 0.000000 m /space glyphshow
66.152344 0.000000 m /zero glyphshow
72.514648 0.000000 m /period glyphshow
75.693359 0.000000 m /eight glyphshow
82.055664 0.000000 m /eight glyphshow
88.417969 0.000000 m /parenright glyphshow
grestore

end
showpage
