lh.aparc.a2009s.volume	lh_G_and_S_frontomargin_volume	lh_G_and_S_occipital_inf_volume	lh_G_and_S_paracentral_volume	lh_G_and_S_subcentral_volume	lh_G_and_S_transv_frontopol_volume	lh_G_and_S_cingul-Ant_volume	lh_G_and_S_cingul-Mid-Ant_volume	lh_G_and_S_cingul-Mid-Post_volume	lh_G_cingul-Post-dorsal_volume	lh_G_cingul-Post-ventral_volume	lh_G_cuneus_volume	lh_G_front_inf-Opercular_volume	lh_G_front_inf-Orbital_volume	lh_G_front_inf-Triangul_volume	lh_G_front_middle_volume	lh_G_front_sup_volume	lh_G_Ins_lg_and_S_cent_ins_volume	lh_G_insular_short_volume	lh_G_occipital_middle_volume	lh_G_occipital_sup_volume	lh_G_oc-temp_lat-fusifor_volume	lh_G_oc-temp_med-Lingual_volume	lh_G_oc-temp_med-Parahip_volume	lh_G_orbital_volume	lh_G_pariet_inf-Angular_volume	lh_G_pariet_inf-Supramar_volume	lh_G_parietal_sup_volume	lh_G_postcentral_volume	lh_G_precentral_volume	lh_G_precuneus_volume	lh_G_rectus_volume	lh_G_subcallosal_volume	lh_G_temp_sup-G_T_transv_volume	lh_G_temp_sup-Lateral_volume	lh_G_temp_sup-Plan_polar_volume	lh_G_temp_sup-Plan_tempo_volume	lh_G_temporal_inf_volume	lh_G_temporal_middle_volume	lh_Lat_Fis-ant-Horizont_volume	lh_Lat_Fis-ant-Vertical_volume	lh_Lat_Fis-post_volume	lh_Pole_occipital_volume	lh_Pole_temporal_volume	lh_S_calcarine_volume	lh_S_central_volume	lh_S_cingul-Marginalis_volume	lh_S_circular_insula_ant_volume	lh_S_circular_insula_inf_volume	lh_S_circular_insula_sup_volume	lh_S_collat_transv_ant_volume	lh_S_collat_transv_post_volume	lh_S_front_inf_volume	lh_S_front_middle_volume	lh_S_front_sup_volume	lh_S_interm_prim-Jensen_volume	lh_S_intrapariet_and_P_trans_volume	lh_S_oc_middle_and_Lunatus_volume	lh_S_oc_sup_and_transversal_volume	lh_S_occipital_ant_volume	lh_S_oc-temp_lat_volume	lh_S_oc-temp_med_and_Lingual_volume	lh_S_orbital_lateral_volume	lh_S_orbital_med-olfact_volume	lh_S_orbital-H_Shaped_volume	lh_S_parieto_occipital_volume	lh_S_pericallosal_volume	lh_S_postcentral_volume	lh_S_precentral-inf-part_volume	lh_S_precentral-sup-part_volume	lh_S_suborbital_volume	lh_S_subparietal_volume	lh_S_temporal_inf_volume	lh_S_temporal_sup_volume	lh_S_temporal_transverse_volume
10398/	1675.0	2531.0	2449.0	2931.0	1539.0	4214.0	2751.0	2001.0	1026.0	647.0	2539.0	3735.0	693.0	2777.0	8857.0	15336.0	1174.0	1763.0	4426.0	3217.0	4111.0	4122.0	2952.0	5897.0	4403.0	6254.0	6121.0	3450.0	5897.0	6185.0	2433.0	265.0	914.0	5026.0	1320.0	1715.0	5835.0	8805.0	308.0	305.0	1596.0	2930.0	6063.0	2704.0	3411.0	1683.0	678.0	1996.0	2356.0	1062.0	474.0	3052.0	1958.0	3603.0	780.0	3579.0	1194.0	1710.0	1002.0	1286.0	3788.0	458.0	878.0	1726.0	2052.0	1690.0	3391.0	2449.0	1641.0	838.0	1174.0	1946.0	6186.0	401.0
10423/	2200.0	4324.0	2383.0	2977.0	1342.0	5140.0	2524.0	2667.0	1177.0	516.0	3492.0	3625.0	831.0	3030.0	11512.0	17526.0	1100.0	2494.0	5511.0	3728.0	4668.0	5983.0	2890.0	5748.0	4879.0	7428.0	6626.0	4089.0	5928.0	4733.0	2727.0	494.0	1296.0	7023.0	1665.0	2081.0	6438.0	9949.0	508.0	511.0	1729.0	3450.0	4248.0	3350.0	3576.0	1494.0	743.0	1992.0	2532.0	984.0	477.0	3279.0	1888.0	4281.0	300.0	3823.0	1890.0	1273.0	1261.0	1359.0	4382.0	911.0	1465.0	1432.0	3357.0	1294.0	3829.0	1925.0	1779.0	911.0	1623.0	1759.0	9300.0	261.0
10524/	2434.0	3972.0	2383.0	3210.0	1350.0	4753.0	3334.0	2732.0	1406.0	481.0	2847.0	3832.0	999.0	2789.0	9880.0	19742.0	1199.0	2185.0	4960.0	2571.0	6687.0	6362.0	3799.0	5677.0	6677.0	7583.0	7590.0	4379.0	8029.0	5835.0	2559.0	616.0	1209.0	6736.0	2119.0	2704.0	6486.0	7617.0	386.0	567.0	1461.0	4121.0	4974.0	3477.0	3547.0	1597.0	809.0	1888.0	2555.0	2086.0	1004.0	2982.0	2385.0	5722.0	1295.0	4401.0	2113.0	1640.0	828.0	1169.0	4792.0	535.0	1135.0	2182.0	3320.0	1439.0	4190.0	2153.0	2649.0	1280.0	1654.0	1474.0	9310.0	609.0
10536/	1459.0	3506.0	2115.0	2609.0	1804.0	4099.0	2162.0	2090.0	1419.0	487.0	3277.0	3905.0	653.0	3100.0	9714.0	15906.0	921.0	2163.0	5942.0	2699.0	4918.0	5661.0	2732.0	5675.0	6922.0	6324.0	5285.0	3917.0	5455.0	4733.0	2183.0	628.0	988.0	6393.0	820.0	1978.0	8079.0	7342.0	369.0	533.0	1478.0	3436.0	5782.0	2820.0	3528.0	1388.0	761.0	2108.0	2335.0	2252.0	796.0	3705.0	2118.0	4861.0	487.0	4097.0	1610.0	1891.0	1064.0	1504.0	3780.0	463.0	1454.0	2156.0	3113.0	1224.0	3943.0	1849.0	1519.0	920.0	1527.0	2028.0	8869.0	484.0
10547/	2901.0	2719.0	3296.0	3976.0	2030.0	5184.0	3630.0	2960.0	1365.0	957.0	3894.0	4039.0	1029.0	2810.0	15619.0	18762.0	1139.0	2299.0	6197.0	3862.0	4723.0	6265.0	3852.0	8168.0	7703.0	7781.0	6866.0	5266.0	8208.0	7558.0	2912.0	1566.0	1460.0	8192.0	1776.0	2527.0	9749.0	10109.0	422.0	544.0	2036.0	3698.0	5737.0	3705.0	4917.0	2060.0	1046.0	2836.0	2746.0	1718.0	559.0	4414.0	3396.0	6434.0	270.0	4831.0	2379.0	2193.0	763.0	1865.0	4044.0	1123.0	1553.0	2945.0	3411.0	1592.0	6575.0	2999.0	1869.0	1110.0	1780.0	2721.0	10007.0	991.0
10563/	1711.0	3045.0	2480.0	3452.0	2128.0	4316.0	2634.0	1968.0	1253.0	474.0	1972.0	4141.0	1029.0	2640.0	8450.0	18064.0	1107.0	2565.0	3396.0	2196.0	5130.0	3168.0	3132.0	5477.0	5543.0	6788.0	5423.0	3284.0	6674.0	4794.0	2275.0	420.0	1187.0	6785.0	1078.0	2540.0	8744.0	7917.0	603.0	439.0	1920.0	2716.0	5379.0	2197.0	3596.0	1397.0	1095.0	2786.0	2752.0	1247.0	366.0	3957.0	1811.0	4312.0	765.0	3596.0	753.0	1658.0	804.0	1077.0	3630.0	441.0	835.0	2249.0	2944.0	1273.0	3423.0	1298.0	1612.0	1014.0	1143.0	2117.0	7535.0	554.0
10566/	1418.0	2858.0	2900.0	3215.0	1714.0	3908.0	2440.0	2552.0	1259.0	388.0	2172.0	2754.0	861.0	2609.0	10095.0	16477.0	985.0	2311.0	3727.0	2437.0	3628.0	3662.0	2837.0	5659.0	6615.0	6812.0	5193.0	3552.0	6098.0	5536.0	2428.0	226.0	1213.0	5152.0	1373.0	1593.0	8479.0	8955.0	480.0	694.0	1537.0	3322.0	5040.0	2629.0	3768.0	1711.0	906.0	1988.0	3003.0	1269.0	588.0	2251.0	1882.0	4452.0	504.0	4444.0	1071.0	1776.0	1127.0	1699.0	2960.0	590.0	939.0	1958.0	2895.0	1075.0	3098.0	2205.0	1416.0	818.0	1394.0	1489.0	8562.0	593.0
10606/	2452.0	3351.0	3109.0	3685.0	1860.0	4990.0	2675.0	2406.0	1581.0	732.0	2537.0	3799.0	843.0	3707.0	11830.0	15151.0	933.0	2083.0	5006.0	2768.0	4086.0	5806.0	3334.0	6188.0	4984.0	8742.0	6812.0	3193.0	6969.0	5788.0	3308.0	917.0	1119.0	6619.0	1460.0	2495.0	7279.0	9342.0	786.0	390.0	1975.0	3145.0	5596.0	2331.0	3687.0	1844.0	724.0	2200.0	2431.0	2388.0	888.0	2873.0	2798.0	4178.0	304.0	4673.0	1916.0	1541.0	1267.0	1047.0	3559.0	396.0	1622.0	1996.0	2268.0	794.0	4232.0	2749.0	1866.0	858.0	2018.0	2450.0	10199.0	670.0
10620/	4174.0	2812.0	3206.0	3775.0	2852.0	6933.0	4097.0	3893.0	2457.0	1418.0	3050.0	4459.0	865.0	4293.0	17628.0	24563.0	1641.0	2667.0	6034.0	4082.0	7232.0	4957.0	3917.0	9788.0	7918.0	9810.0	8358.0	5062.0	10109.0	8378.0	4407.0	1602.0	1514.0	7846.0	2241.0	2612.0	9705.0	13031.0	684.0	708.0	2282.0	3415.0	6983.0	3427.0	4847.0	1666.0	1350.0	2515.0	3270.0	2227.0	614.0	3768.0	3459.0	6323.0	1095.0	6191.0	1846.0	2435.0	1735.0	1943.0	4688.0	963.0	1491.0	3151.0	3076.0	1995.0	3804.0	4114.0	2333.0	933.0	2891.0	3574.0	15348.0	386.0
10621/	2854.0	2616.0	3155.0	3387.0	1883.0	5733.0	2547.0	2159.0	1495.0	758.0	3103.0	4109.0	695.0	2715.0	13107.0	18428.0	1052.0	2417.0	4696.0	3625.0	5052.0	4243.0	3841.0	6156.0	7069.0	6260.0	8099.0	4142.0	7964.0	4704.0	2805.0	1309.0	1177.0	7785.0	1509.0	1818.0	8579.0	10149.0	378.0	572.0	1526.0	3165.0	5795.0	3099.0	4643.0	1468.0	1018.0	2319.0	2641.0	1914.0	527.0	4133.0	2555.0	6170.0	524.0	5341.0	1912.0	1987.0	1647.0	1415.0	3175.0	655.0	1669.0	2561.0	3197.0	1262.0	3436.0	3084.0	1927.0	1095.0	1866.0	1935.0	9424.0	438.0
10667/	2438.0	4162.0	3050.0	3140.0	1884.0	4701.0	2623.0	2352.0	1387.0	480.0	3532.0	4810.0	1082.0	2909.0	10289.0	16939.0	1008.0	2041.0	4246.0	3415.0	5817.0	5886.0	2867.0	7538.0	6232.0	7767.0	5352.0	4335.0	6581.0	5786.0	2232.0	496.0	790.0	6385.0	1034.0	1861.0	10839.0	7085.0	550.0	353.0	1452.0	2933.0	6517.0	3005.0	3605.0	1558.0	874.0	2273.0	2759.0	2469.0	426.0	3996.0	2670.0	3413.0	515.0	4663.0	1419.0	1823.0	1333.0	1809.0	3372.0	445.0	1553.0	2443.0	4274.0	1208.0	4175.0	2528.0	1394.0	885.0	1522.0	2250.0	9080.0	514.0
10813/	2395.0	3820.0	2847.0	3826.0	1881.0	4088.0	3146.0	2774.0	1119.0	508.0	3901.0	3096.0	675.0	4231.0	12222.0	18899.0	869.0	1788.0	6172.0	2649.0	6310.0	6975.0	4240.0	6773.0	7347.0	9187.0	6800.0	4063.0	6779.0	5846.0	3402.0	526.0	817.0	6145.0	1398.0	1813.0	8841.0	9664.0	403.0	402.0	1629.0	3415.0	5563.0	3458.0	3366.0	1657.0	773.0	2371.0	2418.0	2575.0	862.0	3510.0	3134.0	4698.0	307.0	4116.0	2361.0	1426.0	702.0	1996.0	3209.0	579.0	1511.0	2518.0	3075.0	971.0	3457.0	1899.0	2470.0	1102.0	1900.0	2630.0	10271.0	642.0
10903/	2218.0	3877.0	3021.0	3988.0	1836.0	5738.0	3128.0	2400.0	1789.0	800.0	3041.0	3968.0	746.0	1704.0	10824.0	18731.0	1315.0	2259.0	6348.0	2714.0	6357.0	6289.0	4578.0	6235.0	6989.0	8853.0	5455.0	5541.0	6878.0	6784.0	2639.0	1221.0	960.0	6542.0	2347.0	2648.0	10307.0	10120.0	350.0	491.0	1858.0	3326.0	6839.0	2928.0	4655.0	1539.0	891.0	2480.0	3001.0	2440.0	567.0	3274.0	2620.0	5272.0	933.0	4371.0	1774.0	2131.0	2540.0	1628.0	4118.0	445.0	1560.0	2319.0	3261.0	1903.0	5305.0	2299.0	1822.0	1333.0	2588.0	2457.0	12082.0	619.0
10943/	2565.0	2930.0	2486.0	3108.0	1465.0	4980.0	2212.0	2315.0	1250.0	529.0	3160.0	3709.0	803.0	2381.0	12732.0	17882.0	1057.0	2111.0	5713.0	2683.0	5141.0	5093.0	3335.0	6115.0	5892.0	7172.0	6592.0	4197.0	6491.0	6291.0	2482.0	76.0	1164.0	5524.0	1277.0	1707.0	5556.0	9175.0	426.0	249.0	1580.0	2967.0	5279.0	2653.0	3603.0	1718.0	581.0	2240.0	2596.0	1875.0	381.0	2701.0	2145.0	4842.0	496.0	4847.0	1807.0	1931.0	1721.0	817.0	3307.0	376.0	801.0	2169.0	2612.0	1143.0	3971.0	2629.0	1311.0	1231.0	1455.0	1534.0	9437.0	533.0
5202/	1987.0	2437.0	2978.0	2938.0	1705.0	4003.0	2913.0	2033.0	1002.0	626.0	2650.0	3965.0	701.0	2583.0	8677.0	15868.0	1235.0	1808.0	4252.0	3604.0	4136.0	4104.0	3257.0	5498.0	4482.0	6567.0	6963.0	3712.0	6405.0	6811.0	2577.0	1003.0	906.0	4728.0	1412.0	1858.0	5802.0	9054.0	410.0	344.0	1652.0	3140.0	6383.0	2557.0	3448.0	1707.0	776.0	1912.0	2508.0	894.0	452.0	3269.0	2065.0	3901.0	1010.0	4046.0	1041.0	1580.0	804.0	1235.0	3870.0	522.0	1242.0	1954.0	2288.0	1740.0	3697.0	2409.0	1696.0	1182.0	1237.0	2221.0	6665.0	403.0
5302/	2329.0	3368.0	2394.0	3576.0	2112.0	4888.0	2683.0	2001.0	1425.0	537.0	2446.0	3681.0	792.0	2889.0	10144.0	15606.0	900.0	2161.0	4918.0	2407.0	4263.0	4435.0	2300.0	6387.0	4915.0	7185.0	6644.0	4493.0	6734.0	6041.0	2529.0	575.0	784.0	4657.0	1379.0	1730.0	7786.0	9147.0	431.0	488.0	1471.0	3533.0	5505.0	2687.0	3257.0	1268.0	800.0	2009.0	2495.0	1968.0	777.0	3575.0	1555.0	3384.0	230.0	4549.0	1230.0	1895.0	669.0	1566.0	2991.0	592.0	1005.0	1858.0	2564.0	1230.0	5096.0	2562.0	1539.0	1532.0	2051.0	2126.0	8613.0	491.0
5305/	1648.0	2946.0	2479.0	2616.0	1755.0	4603.0	2025.0	2309.0	1046.0	462.0	2528.0	3617.0	826.0	3390.0	8718.0	15013.0	849.0	1947.0	5895.0	2490.0	4447.0	4038.0	2555.0	6178.0	5135.0	5319.0	5291.0	3995.0	6237.0	4877.0	2355.0	486.0	1006.0	4484.0	1347.0	1919.0	7819.0	7448.0	441.0	463.0	1414.0	2698.0	5393.0	2823.0	3623.0	1163.0	791.0	1993.0	2269.0	1424.0	458.0	3825.0	1925.0	3883.0	224.0	3149.0	1871.0	1457.0	799.0	1120.0	3322.0	639.0	1115.0	2424.0	2814.0	1054.0	3059.0	2180.0	1337.0	1241.0	1025.0	1424.0	7767.0	322.0
5306/	1980.0	3081.0	2612.0	2864.0	1785.0	3748.0	2153.0	2239.0	1256.0	396.0	1969.0	3610.0	903.0	2524.0	10224.0	15837.0	1107.0	2010.0	3886.0	2142.0	3991.0	3965.0	1818.0	5817.0	5958.0	5712.0	4629.0	4006.0	6316.0	4318.0	2481.0	598.0	782.0	5175.0	789.0	2294.0	5485.0	7435.0	402.0	381.0	1332.0	3480.0	5156.0	2797.0	3604.0	1462.0	841.0	1761.0	2527.0	1382.0	554.0	4219.0	1549.0	3302.0	416.0	3233.0	1301.0	1213.0	864.0	1521.0	2790.0	519.0	1098.0	2118.0	2043.0	1243.0	3845.0	2845.0	1635.0	1115.0	1242.0	1378.0	6720.0	368.0
5464/	1877.0	2838.0	2689.0	2461.0	1422.0	3987.0	2202.0	2124.0	1203.0	467.0	2319.0	2944.0	508.0	2164.0	7263.0	13033.0	1038.0	2213.0	3222.0	2026.0	4883.0	3343.0	2219.0	5117.0	4495.0	5449.0	4645.0	3520.0	5495.0	4753.0	2127.0	549.0	905.0	4992.0	1403.0	1707.0	5180.0	6029.0	415.0	499.0	1571.0	2574.0	5547.0	2356.0	3661.0	1301.0	528.0	2021.0	2075.0	1565.0	472.0	3388.0	2693.0	3424.0	238.0	3050.0	794.0	1600.0	687.0	1101.0	3121.0	493.0	1075.0	1815.0	1951.0	1265.0	3983.0	2188.0	1361.0	955.0	852.0	1583.0	5989.0	473.0
5505/	2441.0	2966.0	2173.0	3200.0	1616.0	4104.0	2645.0	2144.0	1327.0	577.0	2671.0	3475.0	911.0	3277.0	11312.0	17245.0	1293.0	2297.0	4799.0	2801.0	5825.0	5829.0	2908.0	6337.0	7302.0	7607.0	5644.0	3535.0	6990.0	5862.0	2643.0	283.0	1042.0	5344.0	1283.0	2442.0	6081.0	9320.0	396.0	698.0	1734.0	3087.0	6216.0	2777.0	3583.0	1217.0	867.0	2734.0	2646.0	2163.0	463.0	3881.0	1253.0	4259.0	1160.0	4927.0	1377.0	1700.0	1111.0	1699.0	4802.0	841.0	928.0	2776.0	2150.0	1323.0	3560.0	1780.0	1808.0	1042.0	1490.0	1584.0	9340.0	313.0
5506/	2102.0	2189.0	2581.0	2413.0	1367.0	2880.0	1782.0	1845.0	799.0	390.0	2157.0	4102.0	810.0	2907.0	8584.0	16120.0	1080.0	1806.0	4129.0	2799.0	3869.0	4413.0	2164.0	5787.0	4941.0	5974.0	5135.0	3373.0	6460.0	5493.0	2621.0	50.0	707.0	4279.0	1400.0	1875.0	5596.0	7103.0	358.0	541.0	1357.0	2764.0	5756.0	2678.0	3166.0	1407.0	630.0	1837.0	2119.0	1735.0	428.0	4247.0	2596.0	3859.0	457.0	4222.0	1232.0	1264.0	659.0	1251.0	3181.0	764.0	820.0	2036.0	1527.0	947.0	3338.0	2867.0	1199.0	1211.0	1106.0	1076.0	7926.0	380.0
5514/	2889.0	3086.0	3437.0	3491.0	2406.0	4642.0	2672.0	2933.0	1382.0	701.0	3152.0	4480.0	981.0	4496.0	14852.0	20482.0	1333.0	2579.0	6688.0	2627.0	5054.0	6315.0	3739.0	8358.0	7045.0	9088.0	7147.0	4965.0	7973.0	6611.0	3063.0	807.0	916.0	7039.0	1698.0	2502.0	10215.0	9089.0	539.0	691.0	1641.0	3215.0	6649.0	3834.0	3744.0	1671.0	1164.0	1770.0	2839.0	1847.0	425.0	3549.0	2716.0	5915.0	681.0	5234.0	2033.0	1508.0	2046.0	2110.0	4302.0	691.0	1417.0	3015.0	3483.0	1280.0	4156.0	2045.0	1998.0	846.0	2215.0	1793.0	9585.0	541.0
5515/	2231.0	3728.0	2390.0	3084.0	2438.0	4927.0	2687.0	2434.0	1480.0	716.0	2571.0	3917.0	943.0	3470.0	10595.0	18710.0	1165.0	2259.0	5442.0	3003.0	5539.0	5445.0	3124.0	6597.0	6403.0	6132.0	5345.0	4661.0	6868.0	4808.0	3226.0	445.0	1078.0	6105.0	1513.0	1971.0	7161.0	10262.0	664.0	512.0	1931.0	3149.0	5863.0	3122.0	4347.0	1574.0	866.0	2416.0	3256.0	1676.0	550.0	3454.0	1935.0	6143.0	812.0	5001.0	1848.0	2018.0	881.0	1682.0	4052.0	594.0	1518.0	2271.0	3569.0	1646.0	3739.0	2567.0	2453.0	990.0	1505.0	2615.0	9974.0	573.0
5516/	1945.0	3541.0	2079.0	3020.0	1287.0	3481.0	2249.0	1842.0	1201.0	657.0	2219.0	2856.0	785.0	2305.0	9318.0	14337.0	899.0	1855.0	5086.0	2258.0	4182.0	4583.0	3559.0	5880.0	5336.0	4805.0	5083.0	3964.0	6224.0	5225.0	2163.0	793.0	1319.0	5150.0	1177.0	1603.0	6122.0	8182.0	380.0	386.0	1329.0	2725.0	5262.0	2622.0	3944.0	1347.0	830.0	1980.0	2216.0	1399.0	442.0	2379.0	2002.0	4220.0	241.0	3434.0	1503.0	1365.0	683.0	1077.0	2422.0	517.0	1049.0	2464.0	2180.0	954.0	3037.0	1926.0	1485.0	755.0	1164.0	1380.0	8200.0	382.0
5518/	2278.0	3152.0	2617.0	2634.0	2222.0	4659.0	2390.0	2832.0	1201.0	684.0	2561.0	3792.0	953.0	3520.0	11182.0	16582.0	1169.0	2288.0	4902.0	2176.0	4582.0	5266.0	2813.0	6785.0	6402.0	7107.0	6320.0	5308.0	7183.0	5601.0	2818.0	517.0	918.0	5787.0	1047.0	1678.0	5794.0	9048.0	498.0	706.0	1683.0	3057.0	5733.0	2670.0	3862.0	1986.0	890.0	2550.0	2605.0	1410.0	736.0	4254.0	2072.0	4627.0	414.0	3499.0	1218.0	1506.0	1066.0	1202.0	3292.0	600.0	1123.0	2742.0	2510.0	977.0	3524.0	2898.0	1443.0	1501.0	1789.0	2572.0	9016.0	396.0
5640/	1873.0	3541.0	3962.0	2648.0	887.0	4960.0	2887.0	2344.0	1381.0	866.0	3677.0	3621.0	631.0	3065.0	11158.0	18533.0	1089.0	2475.0	5039.0	3012.0	5714.0	4541.0	3666.0	6563.0	6043.0	8370.0	5839.0	5482.0	7075.0	5137.0	2626.0	375.0	1102.0	6642.0	2036.0	2016.0	8337.0	8472.0	599.0	581.0	1829.0	3832.0	4767.0	2463.0	5380.0	1483.0	1052.0	2388.0	2705.0	1374.0	724.0	3942.0	2687.0	5385.0	55.0	3859.0	1035.0	1824.0	1369.0	1773.0	3410.0	721.0	1421.0	2821.0	2131.0	1550.0	3765.0	2057.0	1921.0	1077.0	954.0	1361.0	10157.0	392.0
5649/	2598.0	3096.0	3320.0	3992.0	2091.0	5850.0	3182.0	2746.0	1680.0	1420.0	2350.0	5455.0	892.0	3711.0	13618.0	21655.0	1459.0	2574.0	7590.0	3321.0	6867.0	5562.0	6761.0	8319.0	9526.0	10213.0	7394.0	5316.0	7840.0	8053.0	2477.0	502.0	941.0	5848.0	1403.0	2425.0	9293.0	9653.0	641.0	593.0	2225.0	3902.0	4739.0	2984.0	4680.0	1894.0	1133.0	2338.0	3582.0	2239.0	576.0	4468.0	2315.0	5014.0	1054.0	5993.0	2368.0	2669.0	1088.0	1884.0	5270.0	793.0	1293.0	2604.0	1911.0	1512.0	5331.0	3658.0	1735.0	933.0	2811.0	2160.0	10876.0	484.0
5754/	2668.0	3545.0	2660.0	3391.0	2331.0	5814.0	2524.0	2618.0	1533.0	415.0	3024.0	3981.0	957.0	3093.0	13796.0	19369.0	1109.0	2315.0	4599.0	2232.0	6517.0	5571.0	3395.0	5979.0	7206.0	8957.0	6841.0	3990.0	6540.0	5784.0	2585.0	543.0	985.0	6801.0	1346.0	2690.0	8755.0	9312.0	383.0	412.0	1608.0	3485.0	5269.0	2917.0	3364.0	1685.0	881.0	1968.0	2807.0	1723.0	521.0	3025.0	3809.0	5940.0	917.0	5326.0	1568.0	1445.0	897.0	1888.0	4053.0	596.0	1357.0	1886.0	3145.0	1409.0	4098.0	2283.0	1763.0	1528.0	1663.0	1960.0	7968.0	609.0
5755/	1655.0	2464.0	1727.0	2156.0	1234.0	3450.0	1884.0	1672.0	826.0	214.0	2183.0	2475.0	365.0	2641.0	7079.0	12555.0	635.0	1372.0	2742.0	2450.0	4344.0	3901.0	2822.0	3777.0	4099.0	4482.0	4798.0	2562.0	4310.0	3576.0	2052.0	227.0	775.0	4984.0	518.0	1257.0	6077.0	5557.0	396.0	528.0	941.0	2768.0	4305.0	2197.0	2922.0	1044.0	563.0	2101.0	2014.0	1047.0	516.0	2132.0	1449.0	2768.0	356.0	3527.0	1004.0	548.0	884.0	1305.0	2358.0	465.0	711.0	1522.0	2099.0	737.0	2079.0	1729.0	1170.0	883.0	918.0	1354.0	6524.0	445.0
5771/	2390.0	4568.0	2265.0	3788.0	1611.0	4867.0	2492.0	2304.0	1201.0	755.0	3367.0	3912.0	1017.0	3388.0	11501.0	18036.0	1191.0	2366.0	4492.0	3342.0	5625.0	4668.0	3987.0	7285.0	6462.0	7284.0	7746.0	4462.0	6774.0	6226.0	3045.0	687.0	1062.0	5924.0	2292.0	1948.0	10403.0	8467.0	614.0	723.0	1914.0	3559.0	5928.0	3036.0	3776.0	1617.0	1137.0	2535.0	2751.0	1245.0	555.0	3394.0	2592.0	4775.0	581.0	4488.0	2049.0	1472.0	1030.0	1458.0	3945.0	650.0	1584.0	2749.0	3765.0	1631.0	4973.0	3112.0	1719.0	1339.0	1484.0	2312.0	9722.0	656.0
5798/	284.0	415.0	72.0	481.0	283.0	1029.0	24.0	3.0	1086.0	1237.0	557.0	610.0	38.0	454.0	2131.0	2204.0	288.0	265.0	709.0	210.0	537.0	940.0	2334.0	1663.0	1125.0	1966.0	1403.0	1542.0	1178.0	784.0	646.0	645.0	304.0	360.0	141.0	504.0	888.0	1332.0	180.0	0.0	518.0	638.0	514.0	732.0	1093.0	80.0	463.0	511.0	618.0	259.0	93.0	752.0	467.0	865.0	103.0	1424.0	64.0	211.0	69.0	203.0	785.0	37.0	325.0	397.0	334.0	890.0	1146.0	662.0	596.0	98.0	721.0	493.0	2489.0	0.0
5825/	2395.0	2871.0	2509.0	2589.0	1792.0	4221.0	2473.0	2460.0	1576.0	595.0	2171.0	3900.0	684.0	2583.0	10137.0	15706.0	1043.0	1693.0	4064.0	2910.0	4461.0	4561.0	3385.0	5644.0	7073.0	6344.0	6197.0	4131.0	6079.0	5871.0	2374.0	539.0	1177.0	5723.0	1105.0	1369.0	7525.0	5849.0	375.0	569.0	1460.0	2893.0	3963.0	2097.0	3265.0	1722.0	759.0	2485.0	2578.0	2235.0	527.0	3211.0	2913.0	3379.0	323.0	3857.0	1144.0	2289.0	1264.0	1034.0	2804.0	413.0	838.0	2214.0	1937.0	1102.0	4908.0	2369.0	1823.0	979.0	1588.0	1537.0	7807.0	629.0
5843/	1705.0	2884.0	2176.0	2246.0	1065.0	3386.0	1625.0	1633.0	698.0	472.0	2052.0	2613.0	489.0	2790.0	6895.0	11446.0	731.0	1612.0	3080.0	2123.0	5102.0	3773.0	2355.0	4540.0	4169.0	4724.0	4293.0	3175.0	4532.0	4302.0	1961.0	324.0	1093.0	5168.0	809.0	1368.0	4381.0	6030.0	360.0	269.0	897.0	2533.0	5466.0	2129.0	3374.0	1290.0	537.0	1694.0	2057.0	1064.0	575.0	2635.0	909.0	2844.0	499.0	2831.0	1097.0	689.0	1077.0	1063.0	2716.0	390.0	1060.0	1423.0	1971.0	874.0	2331.0	1465.0	1335.0	781.0	826.0	1066.0	5810.0	443.0
5844/	1998.0	3041.0	2371.0	3804.0	1922.0	3877.0	2605.0	1916.0	1331.0	303.0	2543.0	2523.0	661.0	2260.0	7651.0	15353.0	783.0	1884.0	3741.0	2703.0	3967.0	4124.0	4051.0	5156.0	5624.0	5414.0	5034.0	4637.0	5673.0	5217.0	2352.0	350.0	926.0	6074.0	1308.0	1687.0	6601.0	6963.0	682.0	534.0	1373.0	3218.0	5672.0	2156.0	3849.0	1382.0	706.0	2292.0	2672.0	2016.0	565.0	3212.0	1895.0	3497.0	625.0	3648.0	1317.0	1596.0	1229.0	1250.0	3130.0	523.0	729.0	1946.0	2724.0	1219.0	3420.0	2050.0	1878.0	1258.0	1868.0	1364.0	8590.0	431.0
5899/	2234.0	3196.0	2471.0	2791.0	1388.0	3832.0	3021.0	2130.0	1281.0	569.0	2516.0	2701.0	503.0	2089.0	8869.0	15215.0	853.0	1872.0	3095.0	1667.0	3681.0	4862.0	3198.0	6253.0	5973.0	5968.0	5079.0	4364.0	5787.0	5118.0	2134.0	672.0	1151.0	5461.0	1827.0	2233.0	7316.0	7533.0	351.0	467.0	1522.0	3140.0	5094.0	2844.0	3702.0	1768.0	822.0	2175.0	2586.0	1550.0	454.0	2179.0	2711.0	4320.0	544.0	3935.0	867.0	1625.0	818.0	1259.0	3250.0	499.0	1173.0	2114.0	1894.0	1752.0	4014.0	2026.0	2262.0	1136.0	2153.0	1776.0	8558.0	548.0
5900/	2973.0	2979.0	2491.0	3672.0	2391.0	4423.0	2706.0	2223.0	1643.0	543.0	3411.0	3167.0	967.0	2360.0	12367.0	18121.0	1233.0	2106.0	5488.0	3116.0	5272.0	5115.0	2916.0	5033.0	6277.0	6652.0	7494.0	4650.0	7396.0	5772.0	2040.0	892.0	887.0	4848.0	2208.0	1565.0	8114.0	9575.0	403.0	243.0	1302.0	3290.0	4623.0	3640.0	4396.0	1603.0	721.0	2183.0	2606.0	1666.0	332.0	4509.0	2286.0	5293.0	630.0	5357.0	1176.0	2247.0	520.0	1788.0	2212.0	561.0	1305.0	1744.0	3242.0	1362.0	5632.0	2779.0	2310.0	1192.0	2148.0	2994.0	10551.0	613.0
5902/	2465.0	4601.0	2884.0	3594.0	1440.0	4471.0	2781.0	2799.0	1494.0	658.0	2874.0	3797.0	868.0	3386.0	14365.0	19876.0	1183.0	2466.0	5598.0	2160.0	5184.0	5216.0	3549.0	8132.0	7049.0	9555.0	7035.0	3798.0	7895.0	6408.0	2813.0	907.0	1047.0	6089.0	2375.0	2344.0	6753.0	10227.0	510.0	595.0	2384.0	3768.0	4959.0	3445.0	3903.0	2007.0	1172.0	2303.0	2862.0	1767.0	723.0	3579.0	2627.0	4309.0	615.0	4702.0	1534.0	1942.0	852.0	823.0	4020.0	707.0	1299.0	2396.0	2655.0	1359.0	5068.0	3004.0	2121.0	1004.0	2254.0	1974.0	8793.0	559.0
5953/	1853.0	3173.0	2471.0	2628.0	1325.0	3937.0	2304.0	2002.0	1138.0	536.0	2986.0	3678.0	640.0	2390.0	10966.0	14780.0	997.0	1939.0	4607.0	2729.0	4360.0	4888.0	2760.0	5285.0	4841.0	7176.0	5915.0	3775.0	5898.0	4954.0	2104.0	316.0	991.0	5629.0	1255.0	1650.0	6089.0	7424.0	374.0	425.0	1144.0	3236.0	4626.0	2497.0	3519.0	1307.0	1100.0	2122.0	2672.0	1644.0	377.0	3149.0	2660.0	4581.0	335.0	4279.0	998.0	1862.0	1030.0	1445.0	2971.0	388.0	577.0	1851.0	2398.0	1203.0	3211.0	2412.0	1757.0	994.0	1452.0	1806.0	7087.0	474.0
5955/	2082.0	3024.0	2112.0	3342.0	1684.0	4557.0	2200.0	2225.0	1647.0	504.0	2172.0	3077.0	931.0	2359.0	11815.0	16309.0	1045.0	1794.0	4853.0	2344.0	5404.0	5160.0	3853.0	6051.0	5286.0	7610.0	6487.0	3609.0	6385.0	6836.0	2536.0	410.0	1085.0	6306.0	1799.0	1167.0	6353.0	7603.0	295.0	205.0	1489.0	2285.0	4611.0	2726.0	3462.0	1531.0	837.0	2250.0	2531.0	1688.0	712.0	3275.0	1992.0	4054.0	486.0	4353.0	1531.0	1667.0	1644.0	843.0	2926.0	478.0	760.0	1924.0	2384.0	1315.0	3752.0	1900.0	2066.0	897.0	1987.0	1972.0	8416.0	530.0
5977/	2084.0	4019.0	3083.0	3496.0	1827.0	5133.0	2159.0	2146.0	1457.0	587.0	2613.0	3428.0	662.0	2722.0	11025.0	17260.0	1269.0	2175.0	4999.0	2911.0	4366.0	4443.0	3069.0	5703.0	7711.0	7173.0	5215.0	5019.0	6572.0	5944.0	2751.0	759.0	1010.0	6832.0	1899.0	1788.0	8496.0	9326.0	583.0	341.0	1693.0	3329.0	6642.0	2673.0	4059.0	1694.0	1006.0	2332.0	2284.0	1325.0	563.0	2823.0	2827.0	4020.0	386.0	4218.0	1419.0	1493.0	1540.0	1616.0	3560.0	430.0	1322.0	2135.0	2422.0	1031.0	3647.0	2535.0	1474.0	728.0	1106.0	1943.0	10905.0	490.0
6010/	1344.0	3474.0	2811.0	3924.0	1417.0	3658.0	1874.0	2274.0	1018.0	619.0	3052.0	4068.0	598.0	4071.0	9791.0	16035.0	1199.0	1905.0	4096.0	2735.0	5242.0	5253.0	1836.0	4968.0	5635.0	7909.0	5423.0	4713.0	6466.0	5036.0	2545.0	895.0	1466.0	6045.0	1344.0	1787.0	6931.0	5831.0	443.0	470.0	1567.0	3197.0	5148.0	3019.0	3000.0	1739.0	699.0	1872.0	2775.0	1760.0	417.0	3972.0	1661.0	3553.0	124.0	3504.0	980.0	1200.0	859.0	1553.0	2581.0	835.0	1868.0	1627.0	2695.0	1380.0	3587.0	3274.0	2087.0	1126.0	1679.0	1478.0	7105.0	487.0
6026/	2420.0	3457.0	2417.0	3823.0	1580.0	4675.0	2197.0	2193.0	1731.0	517.0	2935.0	4047.0	792.0	2629.0	9024.0	17176.0	1322.0	2560.0	4681.0	2973.0	5885.0	4549.0	4248.0	6648.0	4620.0	8921.0	5595.0	4552.0	6682.0	5809.0	2427.0	942.0	712.0	6736.0	2675.0	2606.0	7839.0	9791.0	679.0	473.0	1938.0	2862.0	5740.0	2700.0	4087.0	1330.0	733.0	2108.0	2523.0	2856.0	485.0	2810.0	2294.0	5135.0	606.0	4846.0	1296.0	2158.0	1470.0	1226.0	3870.0	524.0	1837.0	2329.0	2976.0	2007.0	3701.0	2206.0	2008.0	1428.0	1534.0	2266.0	10426.0	635.0
6028/	1991.0	2358.0	2012.0	3236.0	1329.0	3741.0	2473.0	1648.0	1025.0	367.0	2276.0	3143.0	464.0	1989.0	9418.0	14817.0	1082.0	1913.0	3849.0	2253.0	4712.0	4357.0	2560.0	5239.0	5480.0	6177.0	4540.0	3697.0	5620.0	3977.0	1657.0	396.0	882.0	5546.0	1114.0	2260.0	5731.0	9038.0	482.0	270.0	1658.0	2450.0	4884.0	2772.0	3034.0	1375.0	628.0	2172.0	2377.0	1647.0	350.0	2439.0	1796.0	4155.0	330.0	3557.0	808.0	1621.0	1151.0	1487.0	3588.0	532.0	1011.0	1766.0	2753.0	874.0	3502.0	1827.0	1656.0	676.0	1394.0	1504.0	9486.0	585.0
6033/	1424.0	3581.0	2566.0	2788.0	1718.0	3706.0	1796.0	1999.0	985.0	565.0	2892.0	3393.0	578.0	1996.0	8650.0	15956.0	1040.0	1884.0	4269.0	2241.0	3963.0	5066.0	2694.0	5856.0	5419.0	5604.0	5170.0	4226.0	6268.0	5672.0	2208.0	95.0	1205.0	4925.0	1455.0	1599.0	5266.0	7091.0	526.0	355.0	1608.0	2876.0	5387.0	2404.0	3117.0	1286.0	844.0	1883.0	2285.0	1431.0	691.0	2650.0	2425.0	4865.0	331.0	3637.0	1442.0	1589.0	1317.0	1207.0	3400.0	483.0	468.0	2088.0	2681.0	1028.0	3749.0	1904.0	1190.0	904.0	1161.0	1161.0	8852.0	440.0
6034/	2213.0	3172.0	2139.0	3452.0	2007.0	5702.0	2521.0	2054.0	1719.0	836.0	3100.0	4736.0	321.0	3468.0	12794.0	17282.0	1233.0	2276.0	4789.0	3048.0	5464.0	4972.0	3298.0	6607.0	5996.0	5983.0	5453.0	5107.0	7326.0	5832.0	2628.0	735.0	883.0	6369.0	1875.0	1860.0	7976.0	9390.0	558.0	570.0	1589.0	3364.0	5699.0	3973.0	3459.0	1614.0	1009.0	2246.0	3108.0	1702.0	637.0	4361.0	1588.0	4444.0	267.0	3840.0	1168.0	2128.0	1225.0	1381.0	3463.0	672.0	1076.0	2358.0	2574.0	1459.0	4121.0	2509.0	2065.0	1197.0	2202.0	1922.0	10005.0	606.0
6035/	2650.0	3494.0	2700.0	3646.0	1809.0	4631.0	3398.0	2483.0	1434.0	652.0	3925.0	4220.0	1014.0	3654.0	13068.0	20775.0	1513.0	2851.0	5763.0	3211.0	4091.0	5455.0	3888.0	7537.0	6597.0	7900.0	7242.0	4564.0	7278.0	5882.0	2748.0	1156.0	1259.0	8198.0	1945.0	2838.0	9293.0	10674.0	491.0	648.0	2141.0	3306.0	5182.0	3971.0	4130.0	1928.0	1143.0	2593.0	3377.0	2415.0	590.0	4429.0	2585.0	5821.0	852.0	4966.0	2457.0	1656.0	655.0	2163.0	2911.0	789.0	1671.0	2503.0	3034.0	2137.0	3692.0	2731.0	2066.0	1264.0	1654.0	1688.0	11558.0	498.0
6040/	2478.0	4263.0	2724.0	3883.0	2371.0	5966.0	2919.0	2465.0	1422.0	702.0	3493.0	4234.0	837.0	3394.0	14499.0	21708.0	1044.0	1930.0	6329.0	4646.0	6689.0	6492.0	3635.0	7581.0	6758.0	8539.0	7829.0	5628.0	7655.0	7388.0	2976.0	703.0	1152.0	7992.0	1536.0	2530.0	7983.0	10219.0	503.0	598.0	1930.0	4174.0	6701.0	4173.0	3842.0	1476.0	1113.0	2562.0	3084.0	2077.0	777.0	4156.0	3056.0	5172.0	1006.0	4451.0	1461.0	2641.0	1355.0	1749.0	3646.0	803.0	1640.0	2602.0	4164.0	1399.0	3871.0	2714.0	3039.0	1344.0	1969.0	2475.0	10795.0	501.0
6044/	1959.0	2683.0	2052.0	3271.0	1589.0	4257.0	2250.0	2149.0	1101.0	674.0	2178.0	2789.0	839.0	1875.0	9727.0	16191.0	1517.0	1934.0	4512.0	2822.0	3889.0	4677.0	3392.0	5697.0	5033.0	5636.0	5491.0	3766.0	6534.0	4805.0	3111.0	474.0	1075.0	6483.0	1106.0	1994.0	7315.0	5902.0	636.0	479.0	1744.0	2975.0	4265.0	2597.0	4454.0	1734.0	671.0	2501.0	2728.0	1727.0	528.0	2806.0	1956.0	4067.0	422.0	4402.0	1314.0	1540.0	1034.0	1831.0	2486.0	415.0	1022.0	2334.0	1996.0	1120.0	4160.0	2008.0	2361.0	1136.0	1159.0	2039.0	6638.0	464.0
6045/	2856.0	4289.0	2943.0	3471.0	1944.0	5551.0	2791.0	2661.0	1301.0	702.0	2243.0	4642.0	1197.0	4022.0	11736.0	20050.0	995.0	2506.0	5629.0	3037.0	5908.0	4782.0	2707.0	6853.0	6794.0	6656.0	4904.0	5226.0	6871.0	5946.0	3569.0	763.0	1043.0	6158.0	1577.0	1888.0	5505.0	8326.0	586.0	597.0	1654.0	2821.0	5245.0	2845.0	3731.0	1809.0	969.0	2443.0	3008.0	2370.0	490.0	4424.0	2134.0	5593.0	395.0	4261.0	1541.0	1783.0	1500.0	1476.0	3704.0	673.0	1474.0	2334.0	2354.0	1197.0	4472.0	2452.0	2347.0	1081.0	1899.0	2142.0	10953.0	623.0
6050/	660.0	826.0	1297.0	213.0	503.0	862.0	427.0	409.0	31.0	17.0	1025.0	909.0	537.0	501.0	2321.0	4878.0	304.0	180.0	1579.0	778.0	1440.0	770.0	461.0	1259.0	1813.0	1816.0	2592.0	1775.0	1508.0	1508.0	561.0	79.0	369.0	1172.0	172.0	261.0	1539.0	1546.0	275.0	116.0	837.0	648.0	328.0	1170.0	1516.0	291.0	371.0	717.0	667.0	620.0	225.0	1238.0	837.0	1247.0	165.0	1462.0	400.0	564.0	506.0	336.0	1129.0	62.0	460.0	545.0	1222.0	60.0	1460.0	736.0	654.0	222.0	321.0	616.0	2918.0	57.0
6057/	2174.0	1730.0	2617.0	2237.0	1417.0	4208.0	2007.0	2026.0	1222.0	460.0	2430.0	3265.0	540.0	2934.0	10570.0	16851.0	892.0	1977.0	3682.0	2957.0	4298.0	4189.0	3451.0	5518.0	5663.0	5821.0	4852.0	2903.0	4764.0	4971.0	2270.0	0.0	689.0	6070.0	1242.0	1305.0	7706.0	8185.0	475.0	450.0	1005.0	2387.0	5925.0	2312.0	2718.0	1156.0	792.0	2129.0	2404.0	1351.0	401.0	2892.0	1842.0	4218.0	1141.0	3524.0	646.0	1477.0	1160.0	1644.0	2723.0	415.0	444.0	2095.0	2398.0	976.0	3042.0	1835.0	1038.0	856.0	1251.0	1396.0	10006.0	409.0
6058/	2067.0	5380.0	3164.0	2614.0	1666.0	4920.0	1984.0	2195.0	1049.0	580.0	2945.0	3368.0	892.0	2831.0	9050.0	16377.0	991.0	2082.0	3743.0	2671.0	3925.0	4953.0	2931.0	5627.0	5141.0	6833.0	5604.0	3459.0	5141.0	5149.0	2195.0	637.0	883.0	7063.0	1040.0	1360.0	6312.0	6295.0	356.0	228.0	1203.0	3717.0	5084.0	2515.0	3574.0	1309.0	850.0	1974.0	2387.0	1230.0	718.0	3252.0	2423.0	4563.0	469.0	4536.0	1982.0	1953.0	857.0	1118.0	3430.0	429.0	1087.0	1944.0	2637.0	1012.0	3865.0	2017.0	1232.0	583.0	1707.0	1457.0	8425.0	596.0
6060/	1836.0	3603.0	2797.0	3209.0	1972.0	4545.0	2596.0	2211.0	1143.0	761.0	3082.0	3912.0	791.0	3272.0	12841.0	18103.0	1311.0	2197.0	4939.0	2967.0	5483.0	5562.0	3369.0	5847.0	4906.0	9261.0	6576.0	3857.0	6296.0	5831.0	2347.0	470.0	882.0	5796.0	1491.0	1740.0	9705.0	7865.0	430.0	470.0	1387.0	3442.0	5551.0	3113.0	3051.0	1513.0	806.0	2210.0	2367.0	1538.0	585.0	4393.0	1664.0	4357.0	210.0	4484.0	1204.0	1480.0	1810.0	1736.0	3180.0	466.0	1208.0	2137.0	3097.0	1023.0	4312.0	2993.0	1944.0	591.0	1594.0	2305.0	7607.0	385.0
6102/	2241.0	2510.0	3083.0	3014.0	1219.0	4292.0	2613.0	2494.0	1560.0	576.0	2605.0	3309.0	347.0	3231.0	12804.0	17106.0	1356.0	2305.0	4560.0	2871.0	5133.0	3965.0	3311.0	5901.0	5690.0	6455.0	4635.0	4821.0	5983.0	4216.0	2008.0	1433.0	1120.0	6373.0	1266.0	2135.0	6489.0	7744.0	503.0	543.0	2089.0	2506.0	4311.0	2711.0	4448.0	1621.0	801.0	2659.0	2570.0	1174.0	676.0	3471.0	2343.0	4398.0	407.0	4409.0	1031.0	1924.0	1243.0	1129.0	3228.0	468.0	1185.0	2301.0	2637.0	1119.0	3492.0	2379.0	1840.0	623.0	1462.0	1769.0	8949.0	453.0
6103/	2718.0	4408.0	2770.0	4225.0	2064.0	5062.0	2773.0	2443.0	1674.0	484.0	3113.0	4034.0	946.0	2961.0	10552.0	19532.0	903.0	2416.0	4575.0	3014.0	6287.0	5166.0	4130.0	6260.0	4693.0	7951.0	7306.0	4439.0	7200.0	5034.0	3076.0	950.0	1364.0	6612.0	1716.0	2618.0	7894.0	8487.0	562.0	470.0	1975.0	4205.0	6118.0	3545.0	3974.0	1727.0	859.0	2928.0	2533.0	1989.0	734.0	2967.0	3053.0	5336.0	970.0	5524.0	1502.0	2174.0	1485.0	1222.0	3382.0	585.0	1187.0	2590.0	3484.0	1636.0	4586.0	2090.0	2549.0	1019.0	1369.0	1529.0	6853.0	757.0
6105/	2571.0	3703.0	2859.0	3624.0	1512.0	6619.0	3535.0	2355.0	1391.0	705.0	3912.0	4490.0	744.0	3118.0	11826.0	20401.0	1138.0	2777.0	4948.0	3536.0	4877.0	6023.0	3010.0	7418.0	6815.0	7142.0	6537.0	4831.0	7928.0	5084.0	2998.0	714.0	1280.0	7925.0	1814.0	2589.0	9326.0	9665.0	604.0	470.0	2247.0	3433.0	7217.0	3691.0	4252.0	1729.0	1036.0	2570.0	2692.0	2057.0	757.0	3691.0	2983.0	6051.0	363.0	4558.0	2089.0	2235.0	784.0	1383.0	4002.0	495.0	1550.0	2521.0	3179.0	1773.0	4660.0	2086.0	1520.0	1151.0	1935.0	2384.0	11332.0	699.0
6138/	1836.0	2575.0	2374.0	2659.0	1139.0	4017.0	1874.0	2217.0	857.0	327.0	2472.0	3432.0	420.0	2231.0	6455.0	13408.0	753.0	1575.0	3444.0	2041.0	4726.0	4403.0	2879.0	5089.0	4125.0	5710.0	4598.0	2910.0	4993.0	4353.0	2388.0	71.0	965.0	5597.0	1281.0	1480.0	4949.0	7162.0	303.0	311.0	1449.0	2159.0	4664.0	2004.0	2561.0	1167.0	682.0	1801.0	2074.0	996.0	434.0	3856.0	1389.0	2977.0	78.0	3672.0	1076.0	1143.0	1367.0	1653.0	2808.0	458.0	807.0	1875.0	2162.0	717.0	2824.0	1833.0	1151.0	1108.0	1191.0	1305.0	6911.0	504.0
6149/	2727.0	3959.0	2383.0	3369.0	1988.0	4461.0	2492.0	2120.0	1100.0	1091.0	4024.0	3975.0	792.0	2598.0	10322.0	20556.0	1112.0	2508.0	6454.0	3102.0	5146.0	4189.0	5479.0	7851.0	6657.0	9332.0	6940.0	4124.0	7731.0	6312.0	2994.0	286.0	1331.0	6821.0	2040.0	2536.0	10617.0	8518.0	376.0	367.0	1867.0	3352.0	5552.0	3162.0	4094.0	1507.0	1071.0	2433.0	2828.0	2600.0	633.0	3537.0	2801.0	4831.0	352.0	4991.0	1539.0	2230.0	1133.0	1360.0	3910.0	608.0	1437.0	2931.0	3717.0	1370.0	4216.0	2567.0	1701.0	1134.0	1425.0	2339.0	10845.0	492.0
6162/	1459.0	2416.0	2124.0	2610.0	1499.0	3617.0	1853.0	1938.0	967.0	420.0	2320.0	3656.0	481.0	2552.0	9222.0	14425.0	1019.0	1863.0	4623.0	1786.0	4572.0	3170.0	2321.0	5004.0	5040.0	5263.0	4163.0	4212.0	4903.0	4004.0	2245.0	637.0	900.0	5063.0	878.0	1246.0	5962.0	7453.0	271.0	93.0	1262.0	2793.0	4720.0	2267.0	3403.0	1123.0	631.0	2349.0	2077.0	784.0	631.0	3058.0	1600.0	3394.0	467.0	3577.0	1209.0	1345.0	924.0	1175.0	2727.0	367.0	1071.0	1475.0	2431.0	1166.0	3949.0	1895.0	1563.0	781.0	1237.0	1299.0	7539.0	432.0
6163/	2712.0	3567.0	3030.0	4583.0	2480.0	5599.0	2796.0	2733.0	1372.0	403.0	2669.0	4042.0	1438.0	2694.0	12110.0	20655.0	1041.0	2153.0	6387.0	2863.0	5934.0	4770.0	3869.0	6734.0	6857.0	8366.0	6696.0	6278.0	7373.0	5552.0	4001.0	663.0	695.0	6319.0	1756.0	1692.0	9582.0	9079.0	683.0	548.0	1849.0	2999.0	5111.0	2408.0	3912.0	2349.0	1003.0	2398.0	2849.0	1992.0	583.0	3592.0	4094.0	5760.0	396.0	4774.0	1316.0	2048.0	1302.0	1967.0	3785.0	452.0	1554.0	1833.0	3069.0	1797.0	4238.0	2772.0	2099.0	889.0	2124.0	2381.0	11386.0	755.0
6165/	2298.0	3459.0	3172.0	4271.0	2301.0	5766.0	2614.0	2684.0	1330.0	415.0	3088.0	4484.0	883.0	3310.0	12760.0	18587.0	1131.0	2985.0	5754.0	3359.0	5825.0	6554.0	3193.0	7570.0	8390.0	7462.0	6394.0	5235.0	7379.0	6440.0	2941.0	2178.0	939.0	6827.0	2169.0	2379.0	10112.0	10165.0	631.0	525.0	2015.0	3199.0	4947.0	2765.0	4722.0	2050.0	1140.0	2092.0	3219.0	1933.0	607.0	4129.0	2644.0	5277.0	1027.0	4166.0	2092.0	1440.0	1490.0	2008.0	4278.0	624.0	1287.0	2021.0	3059.0	2163.0	3694.0	2634.0	2970.0	681.0	1510.0	3335.0	9785.0	376.0
6167/	2450.0	3125.0	2635.0	2989.0	1293.0	4632.0	1984.0	2227.0	1229.0	338.0	2682.0	4469.0	617.0	2903.0	11134.0	16822.0	993.0	1701.0	5093.0	2286.0	4402.0	5523.0	2845.0	5749.0	4848.0	8135.0	5665.0	3287.0	5916.0	6030.0	2878.0	362.0	1064.0	5237.0	1428.0	1847.0	7239.0	10398.0	357.0	227.0	1648.0	2981.0	4993.0	2268.0	3691.0	1644.0	685.0	2106.0	2481.0	2200.0	550.0	3214.0	2637.0	4287.0	925.0	3889.0	1683.0	1358.0	1426.0	1148.0	3170.0	632.0	1131.0	1825.0	2615.0	1364.0	2709.0	2285.0	1154.0	959.0	1942.0	2011.0	8932.0	561.0
6199/	1968.0	2442.0	3327.0	3318.0	2117.0	4421.0	2280.0	2374.0	1265.0	861.0	3291.0	3209.0	982.0	2619.0	9719.0	16936.0	926.0	2159.0	4913.0	2627.0	4006.0	4980.0	3272.0	5481.0	4569.0	6682.0	6450.0	4193.0	6932.0	4926.0	2765.0	516.0	1313.0	5447.0	1428.0	2461.0	6040.0	7531.0	400.0	511.0	2461.0	3693.0	3730.0	3823.0	4035.0	1478.0	903.0	2106.0	2586.0	1663.0	176.0	2719.0	2520.0	4585.0	867.0	4520.0	1341.0	1400.0	925.0	1397.0	2573.0	304.0	1185.0	1126.0	1903.0	1500.0	3401.0	1837.0	1745.0	963.0	1607.0	1199.0	8228.0	394.0
6226/	1955.0	3070.0	2433.0	3567.0	1170.0	3959.0	2381.0	2467.0	1760.0	568.0	2269.0	3757.0	781.0	2087.0	9588.0	17407.0	1378.0	2173.0	3966.0	2060.0	4066.0	4595.0	2257.0	5669.0	5235.0	7243.0	6386.0	4075.0	5856.0	5996.0	2265.0	1048.0	977.0	6304.0	940.0	1611.0	7612.0	7908.0	421.0	630.0	1323.0	3398.0	4126.0	2070.0	3172.0	1267.0	963.0	2416.0	2238.0	1367.0	442.0	3237.0	2277.0	4658.0	431.0	4331.0	1262.0	1612.0	746.0	1785.0	2741.0	284.0	1349.0	2516.0	2260.0	1331.0	3835.0	1763.0	2064.0	693.0	2112.0	1392.0	8831.0	574.0
6227/	2287.0	3107.0	2421.0	3424.0	1888.0	5363.0	3168.0	3003.0	2436.0	655.0	3197.0	4088.0	1206.0	3774.0	12916.0	20913.0	1155.0	2372.0	4398.0	2903.0	5856.0	5932.0	2842.0	6208.0	6556.0	8683.0	7915.0	4598.0	6822.0	7957.0	3027.0	1091.0	952.0	6833.0	1585.0	2123.0	9973.0	9391.0	550.0	567.0	1891.0	3040.0	5224.0	3120.0	3138.0	1710.0	1145.0	2727.0	3085.0	1538.0	682.0	3626.0	2330.0	4911.0	705.0	4797.0	1225.0	1858.0	1220.0	2036.0	3772.0	494.0	1211.0	2005.0	2212.0	1991.0	4948.0	2427.0	1880.0	861.0	3243.0	2002.0	10144.0	862.0
6228/	2055.0	2961.0	2119.0	3030.0	1944.0	4403.0	2801.0	2491.0	1759.0	769.0	2670.0	3113.0	770.0	2732.0	11980.0	15802.0	1121.0	2165.0	4569.0	2489.0	4385.0	5784.0	3818.0	5800.0	5739.0	7864.0	5808.0	3771.0	6411.0	6403.0	2514.0	1209.0	720.0	6834.0	1525.0	1689.0	7631.0	8258.0	625.0	349.0	1259.0	2565.0	5283.0	3843.0	4226.0	1884.0	996.0	2332.0	2688.0	2309.0	675.0	3590.0	1924.0	4158.0	474.0	4008.0	1554.0	1629.0	1572.0	1464.0	4317.0	558.0	924.0	1993.0	2444.0	1500.0	3830.0	2522.0	1469.0	830.0	2090.0	2334.0	9266.0	520.0
6229/	2063.0	3136.0	3312.0	3693.0	1998.0	5565.0	3573.0	3139.0	2523.0	864.0	3499.0	5460.0	1265.0	2418.0	15901.0	20268.0	1649.0	2588.0	4995.0	2652.0	6703.0	5211.0	3484.0	6788.0	7132.0	9408.0	7605.0	4304.0	7140.0	6934.0	3217.0	1431.0	1278.0	7588.0	1922.0	2615.0	6886.0	7994.0	490.0	294.0	1537.0	3890.0	4345.0	4481.0	3824.0	2362.0	1091.0	2748.0	3105.0	1910.0	522.0	5387.0	2404.0	6146.0	1019.0	4814.0	1275.0	2003.0	686.0	1705.0	3934.0	491.0	1778.0	2478.0	2637.0	1085.0	5232.0	2298.0	2533.0	1387.0	2697.0	2145.0	10145.0	483.0
6291/	1479.0	2243.0	2455.0	2457.0	799.0	2912.0	1521.0	1746.0	1064.0	363.0	2095.0	2799.0	622.0	2633.0	5820.0	14762.0	889.0	1566.0	3104.0	2124.0	2831.0	4485.0	3385.0	4631.0	3884.0	5331.0	3960.0	3720.0	4511.0	4594.0	2669.0	390.0	809.0	4722.0	1249.0	1292.0	6210.0	5352.0	304.0	293.0	1189.0	2976.0	4204.0	2161.0	2878.0	1263.0	663.0	1664.0	2637.0	1181.0	323.0	1899.0	1618.0	3375.0	490.0	3068.0	1104.0	1067.0	820.0	1230.0	3004.0	413.0	982.0	1833.0	1955.0	1052.0	3095.0	2026.0	1227.0	722.0	899.0	1340.0	6256.0	400.0
6347/	1761.0	3796.0	2903.0	2706.0	1536.0	4714.0	2425.0	1916.0	1251.0	590.0	3356.0	3703.0	797.0	3261.0	7766.0	16196.0	1276.0	2278.0	4625.0	3000.0	5168.0	5160.0	4066.0	5928.0	4809.0	6484.0	5641.0	4213.0	6892.0	5468.0	2758.0	616.0	1463.0	6871.0	1924.0	1933.0	5195.0	6222.0	510.0	386.0	2024.0	2763.0	5229.0	3157.0	4654.0	1633.0	1079.0	2437.0	2652.0	1983.0	428.0	3852.0	1904.0	4402.0	513.0	3502.0	1708.0	1723.0	1300.0	1221.0	2588.0	599.0	1478.0	2247.0	2767.0	879.0	3348.0	1560.0	2805.0	609.0	1655.0	1871.0	8522.0	575.0
6348/	1456.0	3372.0	2321.0	2615.0	1130.0	4421.0	2314.0	1935.0	1212.0	518.0	2763.0	2601.0	926.0	2326.0	8898.0	14233.0	721.0	1951.0	4245.0	2090.0	5163.0	4052.0	3049.0	4910.0	4948.0	5902.0	5992.0	3793.0	5869.0	4866.0	2129.0	491.0	1181.0	5290.0	1159.0	1242.0	6185.0	6305.0	372.0	424.0	1319.0	2731.0	5050.0	2137.0	4037.0	1317.0	832.0	2089.0	2208.0	979.0	353.0	2664.0	2119.0	3353.0	321.0	3688.0	1572.0	1462.0	1009.0	1293.0	2897.0	407.0	777.0	2010.0	2927.0	1041.0	3391.0	1762.0	2041.0	756.0	1952.0	1326.0	8484.0	397.0
6503/	2489.0	2900.0	2938.0	3560.0	1679.0	4858.0	2436.0	2545.0	1183.0	570.0	2696.0	3953.0	843.0	2793.0	10451.0	17437.0	1239.0	2682.0	6097.0	3085.0	5947.0	4653.0	3747.0	6137.0	5201.0	8271.0	7514.0	4624.0	6283.0	6089.0	2648.0	583.0	1279.0	5880.0	1928.0	2030.0	6445.0	10358.0	377.0	617.0	2333.0	4165.0	5303.0	3270.0	4239.0	1525.0	890.0	2262.0	2796.0	1841.0	592.0	3904.0	2433.0	4503.0	519.0	4914.0	2005.0	1817.0	1230.0	1433.0	4082.0	664.0	1678.0	2274.0	3202.0	1186.0	4449.0	2708.0	1303.0	1518.0	1571.0	2624.0	10844.0	683.0
6512/	1877.0	2261.0	2346.0	2622.0	1765.0	3810.0	2698.0	1874.0	1500.0	413.0	2979.0	2879.0	953.0	2107.0	8453.0	16639.0	1022.0	2086.0	4425.0	2490.0	4091.0	3138.0	3055.0	6266.0	4858.0	6305.0	5927.0	3988.0	5980.0	4591.0	2253.0	444.0	901.0	5410.0	951.0	2513.0	6324.0	8137.0	438.0	558.0	2028.0	3016.0	5130.0	2493.0	3606.0	1218.0	749.0	2279.0	2516.0	1514.0	323.0	3408.0	2660.0	4263.0	322.0	4171.0	1313.0	953.0	804.0	1395.0	3542.0	623.0	482.0	1598.0	1498.0	1300.0	2663.0	2077.0	1655.0	816.0	1897.0	1737.0	8277.0	672.0
6613/	3152.0	3898.0	3208.0	3534.0	2618.0	5334.0	3045.0	2759.0	1533.0	667.0	2942.0	4595.0	1025.0	2726.0	15402.0	20858.0	1208.0	2367.0	5672.0	3356.0	6326.0	6213.0	3729.0	6486.0	7264.0	8266.0	7257.0	5381.0	7398.0	7248.0	2703.0	606.0	1434.0	7166.0	1408.0	2623.0	8433.0	10000.0	379.0	507.0	1986.0	3472.0	5066.0	2782.0	4946.0	2208.0	845.0	2831.0	2555.0	1164.0	986.0	6407.0	2289.0	4726.0	420.0	5227.0	1652.0	2382.0	1481.0	1874.0	4559.0	633.0	1361.0	2622.0	2709.0	1477.0	3920.0	2616.0	1749.0	1360.0	2307.0	2055.0	11537.0	292.0
6636/	154.0	963.0	1565.0	393.0	183.0	50.0	0.0	201.0	326.0	206.0	725.0	479.0	74.0	254.0	2693.0	1778.0	216.0	299.0	1062.0	724.0	838.0	1542.0	2144.0	493.0	1471.0	1651.0	2387.0	1924.0	1702.0	1519.0	2.0	0.0	269.0	933.0	539.0	338.0	1268.0	1425.0	64.0	0.0	697.0	580.0	902.0	1142.0	1855.0	678.0	250.0	643.0	411.0	369.0	159.0	927.0	381.0	1442.0	99.0	1342.0	308.0	573.0	188.0	317.0	986.0	10.0	9.0	40.0	875.0	826.0	1286.0	413.0	742.0	14.0	583.0	69.0	2443.0	57.0
6685/	338.0	296.0	663.0	833.0	348.0	64.0	89.0	2.0	43.0	0.0	567.0	612.0	29.0	319.0	1815.0	2160.0	272.0	389.0	1077.0	1040.0	522.0	628.0	975.0	1368.0	963.0	1311.0	1289.0	1020.0	1447.0	961.0	342.0	513.0	325.0	1208.0	509.0	395.0	796.0	860.0	117.0	0.0	383.0	982.0	472.0	378.0	1420.0	191.0	103.0	609.0	502.0	320.0	50.0	863.0	570.0	944.0	53.0	1300.0	251.0	603.0	230.0	107.0	482.0	0.0	263.0	156.0	473.0	0.0	1345.0	411.0	410.0	29.0	218.0	200.0	1858.0	53.0
6712/	1647.0	3196.0	1912.0	2539.0	2280.0	4342.0	2186.0	1675.0	998.0	451.0	1900.0	2989.0	812.0	1766.0	7682.0	13755.0	1129.0	1243.0	2874.0	1951.0	5036.0	4669.0	3396.0	4926.0	4235.0	5032.0	4142.0	3140.0	3666.0	4822.0	3002.0	154.0	727.0	3911.0	1109.0	1421.0	4951.0	7473.0	230.0	70.0	1476.0	2631.0	5809.0	2628.0	2152.0	1555.0	508.0	1529.0	2137.0	1504.0	341.0	1941.0	1687.0	3991.0	438.0	2624.0	1025.0	1102.0	1303.0	1076.0	3370.0	342.0	679.0	1578.0	1468.0	1206.0	4505.0	1237.0	1075.0	768.0	1343.0	1714.0	6267.0	364.0
6730/	1907.0	2415.0	2564.0	2930.0	1992.0	4394.0	1863.0	2145.0	917.0	234.0	2718.0	3107.0	740.0	3294.0	11212.0	16263.0	706.0	2445.0	3582.0	2151.0	3833.0	3887.0	3175.0	5723.0	6604.0	5546.0	6168.0	3836.0	6138.0	5857.0	2487.0	328.0	811.0	5883.0	1499.0	2355.0	7963.0	8211.0	577.0	504.0	1457.0	2538.0	5827.0	1962.0	3163.0	1400.0	598.0	2195.0	2570.0	1616.0	619.0	3453.0	1276.0	4314.0	531.0	3696.0	1130.0	1407.0	681.0	1553.0	3527.0	592.0	957.0	1370.0	3031.0	1104.0	3682.0	2012.0	1829.0	769.0	1189.0	1726.0	8696.0	413.0
6731/	2466.0	2849.0	2814.0	4288.0	2178.0	4012.0	2717.0	2534.0	1397.0	642.0	2767.0	3551.0	1041.0	2493.0	12177.0	18833.0	1126.0	2329.0	4410.0	2668.0	5432.0	5533.0	2723.0	7012.0	5527.0	8300.0	7315.0	3993.0	6251.0	6225.0	3352.0	628.0	1343.0	6493.0	1348.0	2342.0	5991.0	10937.0	343.0	379.0	2135.0	4088.0	6966.0	2854.0	3396.0	1797.0	934.0	2351.0	2773.0	2099.0	503.0	3349.0	2016.0	5395.0	600.0	4909.0	942.0	1416.0	695.0	2289.0	4316.0	750.0	1414.0	2005.0	2540.0	902.0	4116.0	2598.0	2019.0	846.0	2170.0	2197.0	8629.0	655.0
6732/	1583.0	3164.0	2104.0	2860.0	1591.0	4631.0	2842.0	2495.0	1338.0	669.0	2426.0	3176.0	811.0	2574.0	9303.0	17541.0	987.0	1970.0	3456.0	2267.0	3276.0	4388.0	2439.0	5076.0	4616.0	6622.0	5132.0	3589.0	6010.0	5281.0	2408.0	734.0	1453.0	4244.0	1203.0	1280.0	7534.0	6965.0	339.0	231.0	1563.0	3484.0	5921.0	2251.0	3698.0	1512.0	916.0	2247.0	2232.0	2774.0	432.0	2611.0	1773.0	4547.0	580.0	3702.0	1505.0	1470.0	884.0	1882.0	2721.0	399.0	1175.0	1554.0	1915.0	1243.0	3989.0	2070.0	1457.0	804.0	2006.0	2584.0	7480.0	446.0
6738/	2879.0	3525.0	2454.0	3655.0	2061.0	5330.0	3024.0	2915.0	1755.0	722.0	3770.0	4245.0	1331.0	2201.0	14724.0	18902.0	1171.0	2429.0	5258.0	3441.0	7529.0	6432.0	3289.0	7298.0	5474.0	9850.0	6734.0	4328.0	8464.0	5794.0	3119.0	935.0	1391.0	6628.0	2040.0	2328.0	9690.0	9112.0	577.0	610.0	1943.0	3656.0	6137.0	3123.0	4168.0	1446.0	951.0	2287.0	2906.0	1775.0	892.0	3870.0	2628.0	5713.0	844.0	5889.0	2295.0	1878.0	1393.0	2082.0	4602.0	762.0	1842.0	3023.0	2701.0	1526.0	4023.0	3322.0	2236.0	1148.0	1681.0	2338.0	9733.0	641.0
6741/	2609.0	2736.0	2706.0	3721.0	1586.0	5056.0	2780.0	2901.0	1274.0	648.0	2899.0	4021.0	1112.0	3331.0	11773.0	20808.0	1201.0	2221.0	4368.0	2330.0	3845.0	4976.0	3127.0	7896.0	6320.0	7093.0	6535.0	4032.0	6813.0	6462.0	2727.0	315.0	1367.0	5512.0	1579.0	2193.0	9150.0	7958.0	479.0	668.0	1745.0	2859.0	5352.0	3425.0	3610.0	1917.0	1149.0	2483.0	2984.0	2715.0	685.0	3475.0	2105.0	5194.0	439.0	4565.0	1683.0	1261.0	2083.0	922.0	3138.0	741.0	1178.0	2841.0	2859.0	1432.0	4015.0	2695.0	2335.0	1167.0	1326.0	2636.0	8140.0	560.0
6752/	1062.0	1185.0	463.0	630.0	544.0	448.0	0.0	0.0	0.0	0.0	589.0	878.0	227.0	764.0	1991.0	1532.0	70.0	183.0	1374.0	714.0	677.0	13.0	24.0	1976.0	2406.0	1253.0	2297.0	961.0	1357.0	780.0	1219.0	8.0	28.0	518.0	426.0	73.0	1650.0	1815.0	90.0	20.0	603.0	1151.0	773.0	182.0	1815.0	199.0	99.0	624.0	483.0	392.0	52.0	1306.0	515.0	847.0	178.0	1568.0	572.0	694.0	187.0	24.0	104.0	123.0	128.0	924.0	526.0	18.0	1692.0	536.0	608.0	252.0	155.0	0.0	2466.0	38.0
6802/	1997.0	3384.0	2775.0	3389.0	2088.0	5366.0	2961.0	2523.0	1173.0	971.0	3422.0	3621.0	909.0	3439.0	10556.0	16803.0	1041.0	2237.0	5009.0	3644.0	5492.0	6568.0	2992.0	5895.0	6205.0	6366.0	6391.0	4728.0	6724.0	5216.0	3017.0	441.0	1031.0	5477.0	1042.0	2059.0	6694.0	8377.0	389.0	602.0	1833.0	3463.0	5481.0	3798.0	3687.0	1729.0	1041.0	2822.0	2879.0	2385.0	659.0	3211.0	2081.0	4256.0	339.0	4163.0	1554.0	2189.0	1008.0	1288.0	3310.0	661.0	1128.0	1597.0	3372.0	1687.0	4117.0	3199.0	1954.0	1124.0	1782.0	2195.0	8097.0	425.0
6863/	2594.0	2370.0	3316.0	3692.0	2246.0	4241.0	2234.0	2760.0	1065.0	736.0	3737.0	3558.0	1138.0	3477.0	12695.0	18893.0	1299.0	2352.0	5594.0	3028.0	5246.0	4109.0	2563.0	5708.0	6314.0	6829.0	6437.0	4430.0	6200.0	4919.0	2377.0	611.0	932.0	4571.0	978.0	884.0	8521.0	9957.0	335.0	438.0	1448.0	3322.0	4513.0	2819.0	3285.0	2109.0	667.0	2205.0	2643.0	1949.0	452.0	3086.0	3764.0	4923.0	247.0	4049.0	1954.0	1584.0	1675.0	1664.0	2875.0	463.0	701.0	1766.0	2908.0	1185.0	4336.0	2314.0	1698.0	947.0	1442.0	2776.0	10230.0	437.0
6888/	2141.0	2798.0	2908.0	3963.0	1897.0	4726.0	3167.0	2563.0	1852.0	721.0	2797.0	3730.0	724.0	2112.0	9864.0	16154.0	1267.0	2107.0	4568.0	2606.0	4606.0	5326.0	3238.0	6797.0	5432.0	8151.0	7213.0	3724.0	7014.0	5558.0	2949.0	448.0	1199.0	5711.0	1384.0	2335.0	7613.0	8223.0	395.0	518.0	1798.0	3124.0	4703.0	3571.0	4075.0	1660.0	812.0	2117.0	2498.0	1490.0	402.0	2991.0	2199.0	3645.0	486.0	5026.0	1339.0	1874.0	1351.0	1686.0	3076.0	544.0	1362.0	2113.0	2340.0	1493.0	3418.0	2493.0	1706.0	1159.0	2106.0	1879.0	8304.0	423.0
6908/	1946.0	2975.0	2656.0	3291.0	1670.0	4741.0	2867.0	2632.0	1319.0	647.0	2908.0	3091.0	921.0	2626.0	13526.0	16269.0	1403.0	2475.0	5378.0	1878.0	4998.0	4866.0	3286.0	5564.0	4487.0	6505.0	6237.0	3804.0	6070.0	4928.0	2795.0	552.0	895.0	6682.0	942.0	1880.0	5665.0	5896.0	444.0	419.0	1623.0	3882.0	5089.0	2243.0	3538.0	1527.0	895.0	2172.0	2472.0	1845.0	534.0	3232.0	2042.0	4913.0	360.0	3491.0	1605.0	1317.0	669.0	1315.0	3284.0	407.0	908.0	1665.0	2625.0	1498.0	4085.0	2330.0	1753.0	843.0	1709.0	2021.0	9018.0	581.0
6909/	1448.0	2945.0	2562.0	3473.0	1358.0	3793.0	2371.0	2179.0	1047.0	296.0	2443.0	3584.0	886.0	2606.0	10105.0	13272.0	1102.0	2338.0	3470.0	2757.0	5282.0	4691.0	3381.0	6146.0	3696.0	5518.0	4925.0	3280.0	4761.0	4759.0	2023.0	767.0	1587.0	5842.0	1085.0	1575.0	6992.0	7377.0	577.0	337.0	1849.0	2960.0	3426.0	2716.0	3080.0	1336.0	829.0	2615.0	2741.0	1226.0	459.0	3807.0	1703.0	4085.0	200.0	3578.0	1046.0	1485.0	1419.0	1879.0	3390.0	534.0	677.0	1797.0	2634.0	1189.0	3720.0	1775.0	1566.0	934.0	1460.0	1317.0	7875.0	552.0
6955/	3062.0	4129.0	2866.0	3753.0	2094.0	5690.0	2777.0	2683.0	1279.0	1058.0	4113.0	4202.0	1063.0	3502.0	15074.0	20191.0	1458.0	2687.0	6173.0	3363.0	4546.0	7404.0	4808.0	7233.0	8144.0	7165.0	6070.0	4637.0	7296.0	6126.0	3031.0	1006.0	1301.0	7336.0	1727.0	1884.0	9329.0	9863.0	386.0	449.0	1812.0	3661.0	5274.0	4682.0	3835.0	1679.0	920.0	2989.0	3013.0	2532.0	849.0	3823.0	2833.0	4855.0	371.0	4562.0	2057.0	1821.0	1460.0	1584.0	3830.0	652.0	2006.0	2736.0	3371.0	1316.0	3694.0	2281.0	1824.0	1641.0	2059.0	2455.0	11427.0	495.0
6957/	1463.0	2294.0	2070.0	2780.0	1335.0	3717.0	1956.0	1840.0	970.0	343.0	2437.0	2577.0	754.0	1759.0	9522.0	14283.0	921.0	1801.0	3648.0	2131.0	4805.0	4775.0	3563.0	5340.0	6388.0	5813.0	4260.0	4073.0	5968.0	4483.0	2123.0	306.0	971.0	5796.0	1248.0	1953.0	7809.0	6132.0	343.0	272.0	1406.0	2641.0	5023.0	2387.0	3535.0	1459.0	691.0	2255.0	1901.0	1956.0	524.0	2382.0	2096.0	3582.0	875.0	3347.0	637.0	2073.0	920.0	1518.0	3367.0	633.0	1001.0	2065.0	2121.0	771.0	3507.0	2707.0	1594.0	998.0	1461.0	2213.0	8396.0	438.0
6958/	1706.0	3734.0	2694.0	3248.0	1924.0	4943.0	2243.0	2087.0	1220.0	565.0	2844.0	4256.0	942.0	2444.0	10763.0	19082.0	1166.0	2046.0	5468.0	2927.0	3780.0	4999.0	3099.0	6647.0	6293.0	6643.0	5120.0	5354.0	5886.0	5361.0	2514.0	552.0	994.0	7242.0	1238.0	1996.0	7579.0	8667.0	390.0	342.0	1765.0	3306.0	6878.0	3116.0	4027.0	1401.0	625.0	2574.0	2845.0	2285.0	715.0	4161.0	2027.0	5848.0	105.0	3733.0	1871.0	1266.0	1432.0	1330.0	3330.0	637.0	1224.0	1912.0	2740.0	1049.0	4706.0	2798.0	1421.0	957.0	1592.0	1900.0	8461.0	612.0
6964/	1806.0	2504.0	2367.0	2563.0	1424.0	2982.0	1669.0	1724.0	828.0	471.0	2173.0	3621.0	457.0	2245.0	9131.0	15386.0	1065.0	2120.0	4553.0	2460.0	4150.0	4369.0	2787.0	5981.0	5210.0	5796.0	4584.0	3887.0	5246.0	4854.0	1868.0	1059.0	911.0	6149.0	1528.0	2068.0	8723.0	7747.0	565.0	225.0	1451.0	2670.0	4847.0	2004.0	3321.0	1184.0	640.0	2340.0	2792.0	1109.0	356.0	2690.0	1825.0	4042.0	613.0	3406.0	821.0	2011.0	1356.0	1353.0	3295.0	347.0	1061.0	2117.0	1992.0	1243.0	4094.0	1886.0	1001.0	708.0	1449.0	1982.0	9122.0	485.0
6965/	2023.0	3498.0	2719.0	4014.0	2095.0	5054.0	3149.0	3053.0	2145.0	760.0	2472.0	3864.0	1012.0	3809.0	13135.0	20243.0	1368.0	2971.0	6180.0	2373.0	6423.0	4854.0	3572.0	6734.0	7762.0	8451.0	7265.0	4783.0	6924.0	6523.0	2509.0	138.0	1510.0	7937.0	1970.0	2779.0	10056.0	9486.0	379.0	456.0	1732.0	3546.0	5048.0	2351.0	4050.0	1958.0	934.0	2615.0	2989.0	1882.0	787.0	3694.0	2170.0	4563.0	822.0	3978.0	2068.0	1641.0	1102.0	1742.0	4183.0	505.0	860.0	2206.0	2537.0	1429.0	4426.0	1986.0	1376.0	940.0	2065.0	2300.0	12260.0	642.0
6983/	2157.0	2797.0	2066.0	3257.0	1956.0	4457.0	2180.0	2696.0	1132.0	528.0	2951.0	3758.0	749.0	2927.0	10990.0	16737.0	1157.0	2426.0	4284.0	2511.0	4303.0	5344.0	3132.0	5761.0	4137.0	6251.0	5656.0	4542.0	7086.0	5278.0	2203.0	483.0	992.0	6208.0	1172.0	2147.0	8771.0	7514.0	462.0	366.0	1708.0	3772.0	5883.0	3764.0	4648.0	1324.0	735.0	2786.0	2543.0	2143.0	599.0	3430.0	2436.0	4376.0	656.0	4980.0	1818.0	986.0	1094.0	1616.0	3659.0	589.0	1465.0	2129.0	3202.0	1146.0	4534.0	2345.0	2054.0	967.0	1205.0	1656.0	9490.0	435.0
6985/	1808.0	2356.0	2540.0	2715.0	1575.0	3277.0	2170.0	2045.0	1491.0	445.0	1783.0	3344.0	598.0	2114.0	8991.0	14364.0	1094.0	2094.0	3165.0	2212.0	3263.0	4273.0	3638.0	5169.0	5395.0	6229.0	5127.0	3564.0	5220.0	5466.0	2177.0	956.0	1086.0	4396.0	1399.0	1552.0	6769.0	7441.0	531.0	356.0	1557.0	2494.0	5006.0	2583.0	3263.0	1409.0	868.0	1974.0	2640.0	1235.0	383.0	3037.0	1866.0	4088.0	340.0	4048.0	1346.0	1685.0	557.0	1334.0	2996.0	678.0	1011.0	1804.0	1666.0	1123.0	3625.0	1966.0	2061.0	916.0	1586.0	2065.0	8512.0	491.0
7041/	60.0	63.0	60.0	116.0	46.0	0.0	0.0	0.0	0.0	0.0	35.0	76.0	66.0	128.0	302.0	181.0	11.0	39.0	104.0	56.0	55.0	23.0	37.0	125.0	144.0	262.0	228.0	178.0	300.0	63.0	21.0	0.0	96.0	265.0	0.0	79.0	212.0	61.0	15.0	31.0	97.0	47.0	14.0	23.0	220.0	15.0	27.0	146.0	143.0	160.0	2.0	156.0	42.0	125.0	24.0	231.0	19.0	56.0	13.0	106.0	36.0	0.0	0.0	43.0	39.0	0.0	171.0	78.0	94.0	4.0	2.0	88.0	374.0	21.0
7055/	31.0	31.0	461.0	0.0	142.0	1139.0	968.0	1326.0	31.0	0.0	162.0	0.0	0.0	0.0	13.0	2010.0	0.0	0.0	580.0	355.0	0.0	0.0	0.0	0.0	943.0	54.0	773.0	778.0	321.0	1487.0	0.0	0.0	0.0	0.0	0.0	0.0	319.0	387.0	0.0	0.0	0.0	18.0	35.0	0.0	536.0	1227.0	0.0	0.0	0.0	0.0	0.0	0.0	9.0	200.0	0.0	2158.0	184.0	548.0	33.0	0.0	0.0	0.0	0.0	0.0	236.0	224.0	838.0	0.0	184.0	31.0	633.0	2.0	672.0	0.0
7105/	1993.0	2965.0	2274.0	2609.0	1354.0	3483.0	2029.0	1982.0	958.0	599.0	2572.0	3060.0	659.0	2434.0	9400.0	15794.0	1070.0	1999.0	4568.0	2575.0	4935.0	4320.0	2496.0	5293.0	4189.0	5936.0	4756.0	3668.0	6133.0	3969.0	2186.0	185.0	1076.0	4898.0	881.0	1092.0	5973.0	7707.0	391.0	352.0	1287.0	2761.0	4885.0	2806.0	3622.0	1208.0	656.0	2638.0	2340.0	1371.0	441.0	2572.0	1767.0	4187.0	222.0	3799.0	1111.0	1723.0	1179.0	1303.0	3275.0	624.0	595.0	1592.0	2451.0	1332.0	3411.0	2131.0	1828.0	776.0	778.0	1520.0	7728.0	381.0
7106/	1943.0	3561.0	2465.0	2544.0	1485.0	3816.0	2146.0	2359.0	1281.0	408.0	2373.0	3361.0	860.0	2537.0	9268.0	17050.0	1238.0	1709.0	3483.0	2609.0	3545.0	4006.0	3056.0	5996.0	5627.0	6883.0	5936.0	3827.0	7115.0	4743.0	2567.0	798.0	1021.0	6467.0	1151.0	2475.0	6669.0	9284.0	634.0	530.0	1696.0	2590.0	4714.0	2314.0	3503.0	1543.0	738.0	2374.0	2914.0	1156.0	491.0	2822.0	2071.0	4276.0	792.0	4287.0	1107.0	1391.0	1023.0	1096.0	3145.0	536.0	1083.0	1637.0	2263.0	1091.0	3005.0	1773.0	1850.0	643.0	1326.0	1939.0	7526.0	581.0
7108/	2343.0	2589.0	2632.0	3190.0	1952.0	3804.0	1990.0	1950.0	1026.0	637.0	3265.0	2857.0	933.0	2144.0	10002.0	15096.0	829.0	1755.0	4303.0	2479.0	6481.0	6758.0	3171.0	5986.0	4647.0	6171.0	4506.0	4144.0	5920.0	4248.0	2646.0	540.0	1087.0	6537.0	1916.0	1622.0	5759.0	8120.0	385.0	456.0	1401.0	2808.0	5144.0	2901.0	3437.0	1420.0	796.0	1906.0	2469.0	1229.0	437.0	2670.0	2321.0	3519.0	295.0	3851.0	1332.0	1383.0	1157.0	1391.0	3201.0	682.0	987.0	1879.0	2156.0	952.0	3599.0	2353.0	1811.0	1056.0	1214.0	1280.0	7798.0	432.0
7118/	15.0	13.0	0.0	820.0	0.0	0.0	0.0	0.0	0.0	0.0	0.0	495.0	113.0	503.0	546.0	14.0	350.0	383.0	116.0	0.0	0.0	0.0	269.0	564.0	4.0	764.0	0.0	142.0	283.0	0.0	1.0	20.0	314.0	1082.0	175.0	646.0	349.0	1148.0	217.0	113.0	782.0	346.0	181.0	0.0	83.0	0.0	362.0	807.0	1443.0	13.0	0.0	1589.0	8.0	19.0	22.0	0.0	32.0	2.0	162.0	0.0	0.0	156.0	75.0	156.0	0.0	0.0	45.0	546.0	11.0	0.0	0.0	374.0	3060.0	161.0
7148/	302.0	0.0	259.0	483.0	245.0	406.0	96.0	64.0	0.0	0.0	0.0	245.0	76.0	297.0	665.0	2039.0	17.0	138.0	76.0	0.0	0.0	0.0	162.0	615.0	1089.0	513.0	995.0	1292.0	733.0	0.0	245.0	11.0	230.0	648.0	36.0	394.0	15.0	197.0	88.0	0.0	568.0	0.0	373.0	0.0	1324.0	42.0	174.0	185.0	535.0	83.0	0.0	693.0	433.0	1033.0	0.0	959.0	0.0	3.0	6.0	0.0	0.0	13.0	5.0	363.0	0.0	3.0	607.0	354.0	642.0	2.0	0.0	0.0	1070.0	28.0
7151/	2107.0	2751.0	2228.0	3255.0	1860.0	4919.0	2141.0	2056.0	1405.0	784.0	3354.0	4106.0	1104.0	3309.0	10833.0	18511.0	1034.0	2668.0	5213.0	3140.0	4691.0	5634.0	3349.0	6217.0	6910.0	7148.0	6273.0	3683.0	7227.0	6271.0	2581.0	507.0	1004.0	6047.0	1588.0	2161.0	6138.0	10633.0	422.0	590.0	1438.0	3111.0	5852.0	3774.0	4116.0	1636.0	990.0	2486.0	2589.0	1389.0	537.0	3538.0	2618.0	3543.0	748.0	4528.0	1835.0	1800.0	1052.0	1554.0	3162.0	616.0	1304.0	2309.0	2363.0	1350.0	4190.0	2703.0	1445.0	929.0	1403.0	2346.0	10665.0	459.0
7152/	1862.0	2753.0	2780.0	3230.0	1532.0	3611.0	1621.0	1855.0	1165.0	362.0	2412.0	3046.0	793.0	1458.0	7937.0	15311.0	855.0	1540.0	3804.0	2324.0	3250.0	4119.0	2141.0	4897.0	4513.0	5799.0	5852.0	3632.0	4879.0	4252.0	2188.0	945.0	1017.0	5402.0	1211.0	1636.0	6021.0	6397.0	390.0	263.0	1536.0	3152.0	4633.0	2445.0	3574.0	1534.0	771.0	2135.0	2330.0	1705.0	449.0	2169.0	2148.0	3708.0	624.0	3994.0	1423.0	1465.0	1139.0	1229.0	2730.0	362.0	813.0	1733.0	2147.0	914.0	3785.0	1713.0	1129.0	844.0	1299.0	1537.0	7818.0	498.0
7163/	1711.0	3834.0	2747.0	3346.0	1959.0	4551.0	2447.0	2443.0	1287.0	885.0	3081.0	3376.0	597.0	2442.0	9545.0	13983.0	1523.0	2202.0	5002.0	3090.0	4454.0	5178.0	3896.0	5181.0	6510.0	5091.0	4209.0	4436.0	6240.0	4596.0	2063.0	528.0	1010.0	6544.0	1308.0	1505.0	7676.0	8419.0	651.0	429.0	1388.0	3421.0	5343.0	2892.0	4022.0	1442.0	767.0	2383.0	2218.0	1386.0	535.0	5258.0	2289.0	3615.0	418.0	3478.0	1334.0	2085.0	943.0	2131.0	3591.0	484.0	1402.0	1700.0	2558.0	1497.0	3497.0	2751.0	1698.0	1581.0	1661.0	2015.0	10092.0	510.0
7168/	2350.0	3594.0	3388.0	3727.0	1869.0	5398.0	3675.0	2439.0	2020.0	773.0	2662.0	5354.0	1061.0	3065.0	14409.0	24331.0	1309.0	2419.0	6153.0	3010.0	5426.0	5115.0	4742.0	8861.0	7425.0	10544.0	5564.0	4190.0	6905.0	6279.0	2893.0	1106.0	947.0	8512.0	2311.0	3100.0	10689.0	12476.0	470.0	665.0	2255.0	4123.0	7428.0	2890.0	3471.0	2058.0	890.0	2362.0	3419.0	2707.0	557.0	3895.0	2495.0	5877.0	507.0	4889.0	1599.0	1643.0	1144.0	1732.0	3857.0	841.0	1474.0	2519.0	2307.0	1531.0	4259.0	3085.0	2536.0	747.0	1834.0	2223.0	14814.0	578.0
7170/	3001.0	3829.0	3463.0	3566.0	2087.0	5626.0	3397.0	3171.0	1976.0	911.0	2953.0	4598.0	1119.0	3986.0	14618.0	21903.0	1477.0	2174.0	5983.0	3415.0	5263.0	5393.0	3114.0	7391.0	7337.0	8952.0	6546.0	3847.0	7213.0	6778.0	2938.0	1048.0	1475.0	7306.0	2422.0	2339.0	11151.0	11370.0	560.0	610.0	2374.0	3337.0	4761.0	3460.0	3585.0	2168.0	1405.0	2834.0	2931.0	2329.0	655.0	3792.0	3210.0	6519.0	590.0	4619.0	2156.0	1954.0	1279.0	2385.0	3635.0	643.0	1173.0	2861.0	2916.0	1612.0	3328.0	3172.0	2428.0	1433.0	2368.0	2582.0	11630.0	625.0
7206/	2086.0	2902.0	2560.0	3587.0	2062.0	4838.0	2326.0	2400.0	1335.0	493.0	2663.0	3405.0	882.0	2452.0	10361.0	17296.0	1132.0	2006.0	4335.0	2104.0	5818.0	5092.0	4306.0	6749.0	5609.0	8304.0	6160.0	3252.0	6155.0	5123.0	2590.0	502.0	1169.0	7815.0	1980.0	2270.0	8758.0	8257.0	561.0	255.0	1552.0	2602.0	6291.0	2903.0	2991.0	1600.0	745.0	2107.0	2380.0	2131.0	508.0	3055.0	2797.0	4371.0	483.0	4551.0	1004.0	1651.0	1045.0	1599.0	3249.0	582.0	1568.0	2118.0	2380.0	1465.0	3608.0	2511.0	1509.0	1066.0	1644.0	1873.0	9129.0	820.0
7207/	2352.0	3249.0	2559.0	2701.0	1562.0	4150.0	2479.0	2232.0	1283.0	428.0	2486.0	3823.0	789.0	2561.0	11100.0	17534.0	866.0	2230.0	4494.0	2745.0	5339.0	4352.0	3589.0	7277.0	6274.0	8724.0	6356.0	2724.0	5903.0	6722.0	2920.0	768.0	1224.0	6861.0	1444.0	2605.0	6356.0	8801.0	368.0	360.0	1911.0	2859.0	5580.0	2553.0	2874.0	1781.0	971.0	2576.0	2487.0	1930.0	489.0	2888.0	2166.0	4477.0	796.0	4487.0	1247.0	1622.0	1312.0	1471.0	4259.0	465.0	1281.0	2350.0	2640.0	1600.0	2602.0	2170.0	1436.0	803.0	1536.0	1792.0	8784.0	623.0
7229/	1873.0	2792.0	3100.0	2973.0	1253.0	3894.0	2896.0	2342.0	1589.0	389.0	2140.0	3637.0	783.0	2473.0	8166.0	17271.0	1088.0	1984.0	4856.0	2380.0	4678.0	4458.0	3304.0	5620.0	6937.0	7028.0	5400.0	4187.0	6135.0	5019.0	2659.0	489.0	955.0	7001.0	1402.0	2028.0	6389.0	7426.0	358.0	447.0	1533.0	3099.0	4378.0	2848.0	3194.0	1454.0	957.0	2215.0	2646.0	2155.0	405.0	2748.0	2361.0	4451.0	384.0	3532.0	1129.0	1653.0	1676.0	1835.0	2851.0	284.0	1039.0	1873.0	2752.0	1186.0	4512.0	1732.0	1749.0	906.0	1730.0	1686.0	9529.0	589.0
7230/	1623.0	2122.0	4001.0	3273.0	1531.0	4414.0	2477.0	2152.0	1040.0	883.0	3193.0	4869.0	1146.0	2816.0	10979.0	18792.0	1406.0	2378.0	5153.0	2998.0	4459.0	5634.0	3200.0	5935.0	7697.0	7117.0	6288.0	4454.0	6270.0	5850.0	2498.0	285.0	1724.0	6092.0	1157.0	1344.0	8507.0	8019.0	688.0	441.0	1373.0	2858.0	2988.0	4596.0	4126.0	1438.0	1028.0	2480.0	2798.0	2029.0	400.0	2366.0	1859.0	5259.0	847.0	5067.0	1963.0	2183.0	478.0	1542.0	3232.0	412.0	1109.0	1846.0	2714.0	1568.0	3655.0	2042.0	1994.0	1293.0	1663.0	1776.0	9932.0	577.0
7286/	2767.0	3867.0	3023.0	3984.0	1582.0	5894.0	2295.0	2622.0	1629.0	818.0	2980.0	3423.0	1127.0	3510.0	13811.0	19859.0	1248.0	2467.0	4148.0	3258.0	5614.0	5643.0	4693.0	7377.0	5958.0	10060.0	8746.0	4090.0	7354.0	6958.0	3430.0	717.0	1183.0	8810.0	1865.0	3195.0	9877.0	8077.0	501.0	450.0	2097.0	2905.0	6107.0	3148.0	3438.0	1935.0	1086.0	2800.0	3081.0	2472.0	699.0	2966.0	2331.0	6027.0	411.0	5677.0	1282.0	1818.0	609.0	1533.0	3040.0	486.0	1670.0	2513.0	3492.0	1526.0	4685.0	2410.0	2407.0	1299.0	1343.0	1974.0	8198.0	879.0
7287/	2779.0	4472.0	3164.0	5085.0	1558.0	6369.0	3487.0	3044.0	1732.0	785.0	3242.0	4696.0	880.0	3060.0	13550.0	20704.0	1209.0	2896.0	5544.0	3970.0	5350.0	5005.0	4758.0	8112.0	6645.0	11662.0	8107.0	4669.0	7708.0	7345.0	3048.0	428.0	2300.0	7846.0	1902.0	3070.0	10899.0	8133.0	753.0	727.0	2723.0	4949.0	7119.0	3019.0	3804.0	1647.0	1195.0	3539.0	3574.0	3049.0	654.0	3671.0	3152.0	6566.0	521.0	5375.0	1669.0	2523.0	1499.0	2090.0	3712.0	599.0	1099.0	2722.0	3540.0	2108.0	4856.0	2437.0	2171.0	905.0	2141.0	2897.0	9932.0	806.0
7289/	1760.0	3144.0	2452.0	3887.0	1691.0	5302.0	2788.0	3000.0	1321.0	594.0	2173.0	3368.0	943.0	2652.0	11477.0	17438.0	1347.0	2403.0	4521.0	2955.0	5250.0	5093.0	3908.0	6780.0	5429.0	6954.0	6005.0	4664.0	6658.0	6345.0	2735.0	789.0	1521.0	6526.0	1989.0	2140.0	5967.0	7670.0	413.0	617.0	1942.0	3056.0	6372.0	2661.0	3756.0	1493.0	789.0	2469.0	2694.0	1519.0	546.0	2926.0	1815.0	5176.0	396.0	4238.0	1360.0	2050.0	1017.0	1301.0	3904.0	481.0	1832.0	2291.0	2776.0	1359.0	3635.0	2839.0	1317.0	759.0	1551.0	2940.0	6527.0	641.0
7290/	1770.0	3613.0	2390.0	2705.0	1509.0	3746.0	2041.0	2156.0	1147.0	428.0	2955.0	3698.0	872.0	3161.0	8538.0	15792.0	1426.0	2184.0	3200.0	2434.0	3356.0	3405.0	3710.0	5156.0	5213.0	6217.0	5605.0	3211.0	5253.0	4987.0	2379.0	844.0	773.0	5448.0	1352.0	1948.0	7092.0	5085.0	433.0	355.0	1513.0	3110.0	5786.0	2658.0	2909.0	1364.0	805.0	2260.0	2319.0	1837.0	423.0	2603.0	1822.0	4314.0	650.0	3456.0	892.0	1422.0	1138.0	1317.0	2587.0	562.0	1263.0	1518.0	2048.0	1199.0	3384.0	1598.0	2196.0	959.0	1446.0	1424.0	7118.0	434.0
7293/	2246.0	3165.0	3161.0	3376.0	2079.0	4625.0	2677.0	2672.0	1266.0	551.0	3314.0	3956.0	613.0	3522.0	12846.0	19186.0	1456.0	2265.0	4441.0	3125.0	5479.0	5076.0	3031.0	6988.0	5663.0	8284.0	6477.0	5478.0	7248.0	6877.0	2659.0	272.0	969.0	6376.0	1536.0	1927.0	9443.0	7190.0	590.0	591.0	1767.0	2975.0	4498.0	3302.0	3274.0	1995.0	852.0	2260.0	2888.0	2034.0	442.0	3440.0	2170.0	3670.0	976.0	4162.0	1057.0	1814.0	773.0	1457.0	3055.0	473.0	955.0	2722.0	3196.0	1693.0	5023.0	2417.0	1975.0	1206.0	1447.0	2020.0	9069.0	598.0
7321/	2357.0	2589.0	2859.0	2795.0	1591.0	5542.0	3160.0	2467.0	1230.0	595.0	2749.0	4428.0	1184.0	2845.0	10080.0	19352.0	1190.0	2263.0	4961.0	2342.0	5302.0	5787.0	3873.0	7056.0	6393.0	7400.0	7174.0	4065.0	7253.0	6611.0	2617.0	356.0	938.0	6395.0	1853.0	1371.0	8529.0	9177.0	455.0	599.0	1284.0	3628.0	4848.0	3099.0	3337.0	1564.0	1278.0	2597.0	2530.0	1959.0	583.0	4111.0	2742.0	4880.0	456.0	4260.0	1334.0	1549.0	1272.0	1248.0	3276.0	438.0	581.0	2253.0	2497.0	1354.0	4384.0	2654.0	1748.0	941.0	1819.0	2847.0	9189.0	358.0
7341/	2204.0	3096.0	2992.0	2685.0	1292.0	4568.0	2394.0	1967.0	1234.0	610.0	2222.0	3612.0	803.0	2861.0	9737.0	15700.0	980.0	1968.0	3559.0	2848.0	3640.0	4358.0	3008.0	5221.0	5147.0	6076.0	5037.0	3481.0	4787.0	4685.0	2124.0	278.0	893.0	5391.0	1113.0	1599.0	6169.0	7916.0	465.0	554.0	1363.0	2713.0	5844.0	3252.0	3470.0	1507.0	885.0	2164.0	2496.0	1434.0	603.0	3410.0	2253.0	3838.0	327.0	4160.0	752.0	2167.0	1061.0	1355.0	2917.0	370.0	958.0	2068.0	2281.0	1233.0	3009.0	1972.0	1443.0	1385.0	1472.0	1403.0	9013.0	478.0
7359/	3.0	0.0	11.0	366.0	2.0	0.0	0.0	0.0	0.0	0.0	269.0	420.0	29.0	242.0	1178.0	370.0	0.0	0.0	0.0	15.0	0.0	0.0	0.0	131.0	0.0	798.0	868.0	1168.0	1236.0	4.0	258.0	60.0	0.0	0.0	0.0	0.0	0.0	0.0	13.0	51.0	161.0	0.0	0.0	145.0	1908.0	0.0	2.0	0.0	154.0	0.0	0.0	986.0	210.0	861.0	0.0	576.0	0.0	0.0	0.0	0.0	0.0	10.0	63.0	0.0	31.0	0.0	2878.0	597.0	689.0	8.0	0.0	0.0	0.0	0.0
7366/	2374.0	3669.0	2671.0	3757.0	1320.0	5073.0	2573.0	2428.0	1540.0	553.0	3102.0	3072.0	852.0	3225.0	10364.0	19645.0	1214.0	2087.0	4842.0	3176.0	5946.0	4823.0	4208.0	6812.0	4761.0	6668.0	6978.0	4182.0	6497.0	5331.0	2402.0	575.0	1032.0	6880.0	1456.0	2012.0	7952.0	7388.0	401.0	391.0	2003.0	3096.0	5911.0	3631.0	3599.0	1235.0	943.0	2357.0	2872.0	2340.0	439.0	4071.0	3428.0	4556.0	232.0	4454.0	845.0	1893.0	1511.0	1592.0	3609.0	590.0	1255.0	2251.0	3480.0	1136.0	5219.0	1618.0	2005.0	1146.0	1172.0	987.0	10393.0	419.0
7367/	2516.0	4787.0	3468.0	5071.0	2226.0	6059.0	2742.0	3398.0	2000.0	774.0	3118.0	4757.0	608.0	3204.0	11591.0	24402.0	1597.0	2594.0	6927.0	3298.0	6917.0	6715.0	3475.0	7690.0	7946.0	12830.0	5460.0	5783.0	8827.0	5653.0	3366.0	1424.0	972.0	7918.0	2464.0	2622.0	9007.0	11552.0	499.0	416.0	2207.0	3539.0	6318.0	3627.0	5970.0	1911.0	1187.0	2781.0	3924.0	1581.0	632.0	4335.0	3198.0	5029.0	366.0	3831.0	1711.0	1949.0	1063.0	1851.0	5479.0	538.0	1508.0	2685.0	3381.0	1830.0	4614.0	2946.0	1787.0	817.0	1742.0	2054.0	12641.0	569.0
7368/	1968.0	3117.0	2426.0	3173.0	1483.0	4144.0	2840.0	2324.0	1457.0	484.0	3289.0	3899.0	820.0	2969.0	10467.0	15916.0	1299.0	1998.0	5035.0	3212.0	6122.0	5501.0	3178.0	6133.0	5128.0	8302.0	8138.0	4233.0	7172.0	5851.0	2271.0	666.0	1100.0	6641.0	1907.0	2151.0	8113.0	8821.0	516.0	337.0	1850.0	2721.0	6158.0	3396.0	4228.0	1648.0	799.0	2398.0	2425.0	1131.0	694.0	3470.0	1868.0	4156.0	459.0	4732.0	866.0	2135.0	1306.0	1568.0	3479.0	613.0	1425.0	2279.0	2884.0	1253.0	3801.0	2877.0	1400.0	1160.0	1311.0	1759.0	11388.0	635.0
7515/	247.0	281.0	125.0	667.0	103.0	432.0	411.0	10.0	0.0	0.0	304.0	260.0	29.0	527.0	633.0	2070.0	367.0	552.0	452.0	75.0	97.0	360.0	1865.0	1020.0	810.0	1347.0	257.0	753.0	705.0	10.0	424.0	96.0	184.0	1063.0	576.0	227.0	1598.0	772.0	127.0	0.0	602.0	274.0	1012.0	166.0	1079.0	0.0	264.0	841.0	815.0	208.0	0.0	275.0	246.0	628.0	1.0	872.0	146.0	237.0	154.0	63.0	445.0	58.0	388.0	186.0	164.0	231.0	1041.0	396.0	394.0	29.0	0.0	438.0	1907.0	78.0
7516/	2570.0	3035.0	3489.0	4251.0	1656.0	4355.0	2933.0	2881.0	1265.0	488.0	3272.0	4329.0	764.0	2550.0	8918.0	21609.0	1198.0	2155.0	3732.0	2131.0	4833.0	5331.0	2627.0	5425.0	6785.0	6837.0	5975.0	4582.0	6271.0	5065.0	3203.0	570.0	997.0	5424.0	1516.0	2705.0	7489.0	6834.0	398.0	499.0	1724.0	3843.0	5112.0	3193.0	3412.0	1938.0	735.0	2207.0	2849.0	1942.0	535.0	4252.0	2732.0	4911.0	1311.0	5140.0	1573.0	1225.0	560.0	1605.0	3562.0	619.0	1057.0	2074.0	3360.0	1262.0	3910.0	2409.0	1630.0	971.0	1242.0	1851.0	7539.0	528.0
7576/	206.0	207.0	0.0	328.0	159.0	370.0	391.0	209.0	244.0	289.0	250.0	358.0	125.0	219.0	745.0	879.0	249.0	299.0	863.0	323.0	308.0	372.0	1564.0	469.0	1231.0	702.0	418.0	501.0	471.0	283.0	214.0	82.0	178.0	523.0	52.0	208.0	496.0	779.0	44.0	15.0	412.0	329.0	731.0	409.0	526.0	88.0	162.0	295.0	453.0	141.0	0.0	404.0	52.0	337.0	5.0	764.0	219.0	282.0	130.0	175.0	248.0	0.0	240.0	90.0	201.0	468.0	621.0	353.0	133.0	3.0	136.0	25.0	1266.0	0.0
7581/	1037.0	1439.0	802.0	997.0	729.0	117.0	256.0	449.0	455.0	493.0	754.0	1043.0	457.0	993.0	2879.0	3846.0	301.0	289.0	1128.0	837.0	513.0	2326.0	1406.0	2091.0	1747.0	2884.0	1714.0	1529.0	1939.0	1527.0	1827.0	0.0	190.0	1939.0	711.0	433.0	1724.0	1725.0	169.0	117.0	678.0	1963.0	1432.0	1359.0	1665.0	556.0	363.0	413.0	1216.0	511.0	66.0	1192.0	723.0	1548.0	145.0	1424.0	387.0	504.0	349.0	454.0	1116.0	158.0	332.0	404.0	964.0	707.0	1175.0	701.0	604.0	362.0	517.0	706.0	2513.0	130.0
7620/	557.0	729.0	1359.0	791.0	262.0	617.0	159.0	272.0	87.0	1.0	1022.0	1131.0	155.0	316.0	2379.0	6114.0	320.0	556.0	1363.0	567.0	581.0	1130.0	987.0	1458.0	1838.0	2555.0	2243.0	1984.0	2052.0	1449.0	412.0	241.0	518.0	932.0	180.0	379.0	935.0	1660.0	88.0	32.0	886.0	1002.0	687.0	1288.0	1771.0	444.0	364.0	419.0	552.0	353.0	307.0	783.0	84.0	1619.0	249.0	1044.0	412.0	361.0	435.0	474.0	672.0	227.0	410.0	506.0	770.0	45.0	1277.0	588.0	627.0	95.0	300.0	480.0	2779.0	0.0
7636/	41.0	228.0	219.0	267.0	40.0	37.0	86.0	215.0	7.0	0.0	75.0	151.0	0.0	60.0	240.0	974.0	118.0	54.0	225.0	62.0	182.0	180.0	0.0	32.0	462.0	532.0	731.0	211.0	390.0	484.0	3.0	0.0	0.0	0.0	0.0	111.0	389.0	744.0	13.0	83.0	245.0	444.0	0.0	78.0	275.0	120.0	22.0	45.0	228.0	1.0	0.0	157.0	29.0	365.0	53.0	431.0	39.0	91.0	146.0	37.0	169.0	1.0	0.0	0.0	145.0	0.0	343.0	120.0	135.0	0.0	56.0	41.0	1161.0	0.0
7690/	1794.0	4171.0	2305.0	2816.0	1353.0	3497.0	2114.0	2229.0	1371.0	827.0	2386.0	3127.0	604.0	3113.0	11034.0	16752.0	1277.0	1949.0	4068.0	2796.0	4048.0	4926.0	3924.0	5520.0	3768.0	7667.0	6477.0	3362.0	5406.0	5748.0	3067.0	601.0	1225.0	5419.0	1374.0	2496.0	7407.0	7740.0	386.0	625.0	2121.0	3877.0	5220.0	2939.0	3314.0	1444.0	532.0	2489.0	2160.0	2025.0	484.0	3333.0	1978.0	3994.0	71.0	3301.0	1515.0	1428.0	714.0	1091.0	3481.0	474.0	1284.0	1802.0	2208.0	1099.0	3926.0	2289.0	1261.0	874.0	1696.0	2108.0	7469.0	517.0
7802/	1923.0	2312.0	2728.0	3300.0	1647.0	3935.0	3047.0	2037.0	1279.0	455.0	2296.0	3218.0	701.0	2891.0	11239.0	18002.0	1273.0	2355.0	4441.0	2279.0	4211.0	5721.0	4323.0	6390.0	6135.0	7837.0	7205.0	4720.0	7008.0	5775.0	2633.0	1160.0	1393.0	5882.0	1715.0	2176.0	7578.0	7186.0	472.0	297.0	1956.0	2882.0	5980.0	2463.0	3888.0	1487.0	818.0	2584.0	2825.0	1647.0	579.0	2847.0	2924.0	5321.0	980.0	4599.0	1530.0	1159.0	911.0	1779.0	3503.0	594.0	1473.0	2298.0	2649.0	1174.0	3240.0	2886.0	1814.0	772.0	1721.0	2479.0	6516.0	391.0
7803/	1640.0	3606.0	3221.0	2876.0	1705.0	4532.0	3307.0	2863.0	1530.0	452.0	2411.0	3840.0	1116.0	3504.0	11614.0	17998.0	1295.0	2611.0	5160.0	3201.0	4706.0	5140.0	3033.0	7535.0	4870.0	6862.0	6362.0	4445.0	5414.0	4670.0	2402.0	395.0	1498.0	5693.0	1677.0	2018.0	5988.0	7295.0	444.0	801.0	1939.0	3165.0	6259.0	2752.0	3558.0	1406.0	1282.0	2559.0	2798.0	1414.0	638.0	3415.0	2490.0	5938.0	199.0	4817.0	1291.0	1318.0	1302.0	1398.0	3426.0	412.0	1073.0	2155.0	3032.0	1380.0	3581.0	1699.0	1664.0	896.0	1514.0	1603.0	8269.0	629.0
7831/	393.0	871.0	564.0	819.0	180.0	1046.0	59.0	54.0	0.0	0.0	245.0	507.0	109.0	221.0	1624.0	2601.0	189.0	253.0	1000.0	195.0	881.0	1245.0	1024.0	1240.0	1631.0	1880.0	857.0	1198.0	1698.0	130.0	547.0	252.0	78.0	496.0	394.0	550.0	1042.0	594.0	108.0	46.0	706.0	1974.0	798.0	296.0	1720.0	121.0	257.0	210.0	396.0	480.0	119.0	1084.0	493.0	858.0	226.0	1527.0	412.0	449.0	237.0	268.0	1144.0	73.0	433.0	451.0	93.0	2051.0	1436.0	826.0	476.0	71.0	0.0	190.0	2665.0	97.0
7895/	1845.0	2870.0	1975.0	2720.0	1437.0	2885.0	1770.0	1493.0	902.0	431.0	2376.0	2320.0	737.0	1915.0	6671.0	12331.0	701.0	1708.0	3632.0	2537.0	3949.0	4860.0	3794.0	4428.0	4048.0	5079.0	4932.0	3489.0	4858.0	4852.0	2011.0	8.0	861.0	5749.0	940.0	2164.0	6705.0	5888.0	397.0	295.0	1583.0	2698.0	5066.0	2119.0	3778.0	1071.0	738.0	1896.0	1899.0	1454.0	504.0	2029.0	1785.0	4594.0	635.0	3345.0	1037.0	1086.0	991.0	1106.0	3150.0	309.0	494.0	1313.0	1844.0	752.0	3031.0	1207.0	1693.0	495.0	854.0	1319.0	7485.0	412.0
7904/	1824.0	2224.0	3250.0	3799.0	1717.0	4590.0	3037.0	2147.0	1589.0	870.0	3684.0	3528.0	1423.0	3653.0	11915.0	19138.0	1363.0	1953.0	6262.0	2146.0	5558.0	5538.0	7076.0	6542.0	5762.0	8889.0	7780.0	4012.0	7549.0	7981.0	2167.0	377.0	1043.0	6073.0	973.0	2141.0	6149.0	9282.0	499.0	433.0	1745.0	3419.0	5067.0	3985.0	2864.0	1954.0	1004.0	2032.0	2896.0	1286.0	397.0	3377.0	2304.0	3943.0	592.0	5798.0	1711.0	1392.0	1725.0	1427.0	4568.0	360.0	443.0	1722.0	2586.0	1321.0	3624.0	2031.0	1842.0	588.0	2264.0	739.0	9405.0	685.0
7906/	1415.0	2512.0	2168.0	2655.0	1423.0	3754.0	1877.0	2029.0	1358.0	434.0	2144.0	2904.0	769.0	2414.0	9734.0	15172.0	1163.0	1643.0	4763.0	2464.0	3949.0	4004.0	3154.0	6312.0	5266.0	5474.0	5026.0	4124.0	5262.0	5582.0	2329.0	210.0	1105.0	5553.0	1390.0	1844.0	6574.0	7001.0	279.0	477.0	1405.0	2640.0	4697.0	2589.0	2916.0	1438.0	725.0	1725.0	2501.0	1964.0	453.0	3438.0	1125.0	3276.0	356.0	3843.0	1075.0	1572.0	836.0	1074.0	3259.0	511.0	623.0	1825.0	1563.0	1138.0	3556.0	1956.0	1239.0	937.0	2106.0	1583.0	7417.0	614.0
7953/	1660.0	2924.0	3849.0	3400.0	1505.0	4510.0	2233.0	2288.0	933.0	534.0	2482.0	3610.0	873.0	2534.0	9328.0	15798.0	999.0	2078.0	3324.0	3221.0	3897.0	5075.0	3172.0	5902.0	4340.0	6700.0	5419.0	3792.0	7037.0	4772.0	2201.0	635.0	1391.0	6332.0	1455.0	2109.0	5865.0	6149.0	341.0	437.0	1705.0	3367.0	4892.0	2381.0	4407.0	1428.0	833.0	2281.0	2064.0	1743.0	428.0	3458.0	2973.0	4486.0	381.0	3701.0	1446.0	1115.0	924.0	841.0	2991.0	646.0	736.0	2148.0	2310.0	1297.0	3113.0	3027.0	1423.0	528.0	968.0	2221.0	7949.0	401.0
7954/	3643.0	4221.0	3670.0	4145.0	2019.0	5246.0	2709.0	3083.0	1220.0	863.0	3512.0	4730.0	1013.0	2499.0	15038.0	19763.0	1402.0	2323.0	5714.0	3821.0	4578.0	7369.0	4319.0	7561.0	6438.0	7479.0	7415.0	4756.0	9377.0	6369.0	3425.0	169.0	1254.0	7771.0	1489.0	1859.0	8780.0	9280.0	478.0	396.0	1858.0	3875.0	5523.0	3829.0	4933.0	1712.0	1034.0	2486.0	3183.0	2505.0	670.0	5904.0	2433.0	5139.0	899.0	4349.0	1373.0	2404.0	1722.0	1202.0	3632.0	715.0	972.0	2354.0	3635.0	1431.0	4090.0	3039.0	2532.0	1332.0	1360.0	2185.0	10256.0	721.0
7965/	10.0	254.0	216.0	376.0	36.0	0.0	0.0	0.0	0.0	0.0	244.0	216.0	8.0	322.0	584.0	328.0	34.0	132.0	319.0	317.0	394.0	179.0	563.0	261.0	389.0	1455.0	1445.0	530.0	1090.0	1144.0	0.0	0.0	201.0	634.0	97.0	253.0	694.0	644.0	17.0	0.0	411.0	343.0	284.0	592.0	672.0	92.0	24.0	287.0	473.0	74.0	0.0	207.0	98.0	73.0	69.0	769.0	88.0	461.0	522.0	218.0	301.0	37.0	36.0	158.0	722.0	0.0	1156.0	243.0	419.0	0.0	254.0	10.0	1917.0	146.0
8155/	2503.0	3040.0	2861.0	3360.0	1581.0	5704.0	2408.0	2315.0	1173.0	390.0	3121.0	4167.0	1179.0	3614.0	10858.0	19669.0	1453.0	2367.0	4098.0	2766.0	5483.0	5768.0	3484.0	6675.0	6534.0	7273.0	6215.0	5167.0	6942.0	5397.0	2974.0	214.0	1802.0	6590.0	1590.0	2384.0	7042.0	8911.0	444.0	505.0	1866.0	3201.0	6391.0	2631.0	4431.0	1775.0	873.0	2769.0	2544.0	2293.0	582.0	4162.0	1840.0	4028.0	792.0	4341.0	1280.0	1676.0	761.0	1405.0	3107.0	516.0	825.0	1856.0	3048.0	818.0	4149.0	2144.0	1632.0	1355.0	1772.0	2368.0	8313.0	476.0
8231/	1878.0	3324.0	2500.0	3611.0	1601.0	4810.0	2849.0	2393.0	1765.0	658.0	3017.0	3301.0	852.0	3263.0	11472.0	20859.0	1128.0	2360.0	5370.0	3199.0	5730.0	5598.0	3956.0	6706.0	6644.0	7186.0	5870.0	4412.0	7053.0	5910.0	2740.0	273.0	1310.0	8102.0	1442.0	1769.0	11001.0	10233.0	374.0	501.0	1642.0	3113.0	5473.0	2727.0	3694.0	1649.0	932.0	2833.0	2552.0	2398.0	570.0	3077.0	2348.0	4672.0	20.0	5272.0	1373.0	1775.0	1647.0	1871.0	3654.0	459.0	1535.0	2363.0	2749.0	1294.0	4076.0	2280.0	1705.0	920.0	1912.0	2415.0	10825.0	434.0
8307/	179.0	609.0	336.0	324.0	123.0	663.0	266.0	153.0	0.0	0.0	451.0	161.0	50.0	314.0	646.0	1804.0	147.0	246.0	715.0	564.0	90.0	503.0	1225.0	731.0	688.0	1295.0	1215.0	642.0	581.0	624.0	400.0	101.0	225.0	519.0	216.0	321.0	798.0	1051.0	86.0	33.0	306.0	805.0	294.0	404.0	722.0	53.0	198.0	395.0	377.0	212.0	0.0	406.0	173.0	436.0	40.0	1280.0	282.0	153.0	292.0	35.0	456.0	69.0	158.0	142.0	288.0	22.0	772.0	163.0	102.0	232.0	17.0	212.0	1778.0	82.0
8350/	655.0	631.0	1740.0	800.0	229.0	2217.0	288.0	374.0	14.0	0.0	1106.0	774.0	206.0	559.0	1806.0	4911.0	148.0	309.0	886.0	1170.0	1315.0	3191.0	1031.0	1745.0	3015.0	2582.0	2460.0	1639.0	1568.0	1565.0	517.0	288.0	737.0	1339.0	261.0	536.0	1704.0	1810.0	142.0	76.0	778.0	831.0	812.0	707.0	1649.0	657.0	216.0	397.0	823.0	447.0	95.0	1192.0	574.0	1293.0	166.0	1251.0	438.0	515.0	204.0	843.0	1288.0	224.0	273.0	647.0	821.0	1214.0	1425.0	538.0	566.0	150.0	277.0	744.0	2834.0	74.0
