rh.aparc.a2009s.area	rh_G_and_S_frontomargin_area	rh_G_and_S_occipital_inf_area	rh_G_and_S_paracentral_area	rh_G_and_S_subcentral_area	rh_G_and_S_transv_frontopol_area	rh_G_and_S_cingul-Ant_area	rh_G_and_S_cingul-Mid-Ant_area	rh_G_and_S_cingul-Mid-Post_area	rh_G_cingul-Post-dorsal_area	rh_G_cingul-Post-ventral_area	rh_G_cuneus_area	rh_G_front_inf-Opercular_area	rh_G_front_inf-Orbital_area	rh_G_front_inf-Triangul_area	rh_G_front_middle_area	rh_G_front_sup_area	rh_G_Ins_lg_and_S_cent_ins_area	rh_G_insular_short_area	rh_G_occipital_middle_area	rh_G_occipital_sup_area	rh_G_oc-temp_lat-fusifor_area	rh_G_oc-temp_med-Lingual_area	rh_G_oc-temp_med-Parahip_area	rh_G_orbital_area	rh_G_pariet_inf-Angular_area	rh_G_pariet_inf-Supramar_area	rh_G_parietal_sup_area	rh_G_postcentral_area	rh_G_precentral_area	rh_G_precuneus_area	rh_G_rectus_area	rh_G_subcallosal_area	rh_G_temp_sup-G_T_transv_area	rh_G_temp_sup-Lateral_area	rh_G_temp_sup-Plan_polar_area	rh_G_temp_sup-Plan_tempo_area	rh_G_temporal_inf_area	rh_G_temporal_middle_area	rh_Lat_Fis-ant-Horizont_area	rh_Lat_Fis-ant-Vertical_area	rh_Lat_Fis-post_area	rh_Pole_occipital_area	rh_Pole_temporal_area	rh_S_calcarine_area	rh_S_central_area	rh_S_cingul-Marginalis_area	rh_S_circular_insula_ant_area	rh_S_circular_insula_inf_area	rh_S_circular_insula_sup_area	rh_S_collat_transv_ant_area	rh_S_collat_transv_post_area	rh_S_front_inf_area	rh_S_front_middle_area	rh_S_front_sup_area	rh_S_interm_prim-Jensen_area	rh_S_intrapariet_and_P_trans_area	rh_S_oc_middle_and_Lunatus_area	rh_S_oc_sup_and_transversal_area	rh_S_occipital_ant_area	rh_S_oc-temp_lat_area	rh_S_oc-temp_med_and_Lingual_area	rh_S_orbital_lateral_area	rh_S_orbital_med-olfact_area	rh_S_orbital-H_Shaped_area	rh_S_parieto_occipital_area	rh_S_pericallosal_area	rh_S_postcentral_area	rh_S_precentral-inf-part_area	rh_S_precentral-sup-part_area	rh_S_suborbital_area	rh_S_subparietal_area	rh_S_temporal_inf_area	rh_S_temporal_sup_area	rh_S_temporal_transverse_area	rh_WhiteSurfArea_area
10398/	618.0	962.0	835.0	780.0	610.0	1875.0	1034.0	840.0	340.0	180.0	1422.0	833.0	178.0	902.0	2022.0	4166.0	271.0	358.0	1097.0	1273.0	1240.0	1482.0	803.0	1638.0	1800.0	1568.0	1672.0	1071.0	1586.0	1990.0	466.0	134.0	150.0	933.0	395.0	447.0	1488.0	1821.0	233.0	165.0	1013.0	2605.0	1127.0	1605.0	1737.0	900.0	341.0	815.0	951.0	483.0	343.0	1502.0	1003.0	1406.0	276.0	2289.0	617.0	848.0	599.0	550.0	1301.0	391.0	476.0	786.0	1018.0	743.0	1292.0	1193.0	671.0	133.0	731.0	757.0	3467.0	174.0	75821.7
10423/	610.0	856.0	996.0	783.0	769.0	2073.0	1052.0	870.0	351.0	174.0	1725.0	1182.0	344.0	761.0	3451.0	4285.0	351.0	560.0	1693.0	1417.0	1792.0	2086.0	764.0	1694.0	1921.0	1595.0	1871.0	1368.0	1680.0	1608.0	456.0	244.0	328.0	1154.0	410.0	526.0	1611.0	2096.0	238.0	116.0	949.0	2152.0	1270.0	1848.0	2074.0	998.0	535.0	937.0	925.0	470.0	393.0	1733.0	1342.0	2083.0	349.0	2044.0	833.0	928.0	639.0	895.0	1931.0	365.0	343.0	817.0	1973.0	1075.0	1637.0	1031.0	897.0	140.0	800.0	576.0	4888.0	245.0	87973.9
10524/	778.0	1076.0	889.0	1015.0	855.0	2426.0	1505.0	1142.0	406.0	199.0	1824.0	1247.0	235.0	996.0	2979.0	5174.0	385.0	477.0	1821.0	1335.0	1602.0	2192.0	1010.0	1777.0	2422.0	1785.0	1787.0	1525.0	1866.0	1840.0	527.0	273.0	310.0	1461.0	526.0	660.0	1725.0	2436.0	296.0	186.0	923.0	2666.0	1045.0	2185.0	2224.0	906.0	335.0	865.0	943.0	778.0	447.0	1900.0	1320.0	2146.0	547.0	2490.0	851.0	1344.0	426.0	629.0	1517.0	225.0	475.0	969.0	1833.0	1325.0	2122.0	1494.0	931.0	197.0	881.0	991.0	4519.0	236.0	95658.9
10536/	547.0	1008.0	810.0	955.0	660.0	1924.0	1084.0	988.0	370.0	179.0	1464.0	973.0	192.0	730.0	2488.0	4461.0	345.0	449.0	1689.0	1409.0	1668.0	2435.0	853.0	1654.0	2059.0	1575.0	1769.0	1275.0	1721.0	2092.0	538.0	155.0	215.0	1198.0	381.0	467.0	1315.0	2109.0	297.0	161.0	862.0	2476.0	1164.0	1744.0	2056.0	753.0	340.0	826.0	826.0	538.0	422.0	1720.0	1258.0	1875.0	640.0	2274.0	954.0	1217.0	515.0	798.0	1954.0	442.0	611.0	1073.0	1686.0	1050.0	1290.0	1335.0	785.0	322.0	802.0	656.0	4322.0	128.0	86374.7
10547/	762.0	1118.0	783.0	823.0	887.0	2408.0	1277.0	1274.0	511.0	226.0	1415.0	983.0	341.0	957.0	3594.0	5003.0	380.0	417.0	2306.0	1489.0	1183.0	2222.0	1159.0	2297.0	2540.0	2579.0	2181.0	1543.0	1994.0	2054.0	733.0	440.0	271.0	1410.0	515.0	827.0	2170.0	2626.0	330.0	157.0	1227.0	2510.0	1154.0	1722.0	2369.0	1086.0	392.0	939.0	1051.0	841.0	397.0	1957.0	2275.0	1932.0	130.0	3021.0	994.0	1467.0	455.0	1006.0	1435.0	490.0	682.0	1364.0	1792.0	1288.0	1946.0	1246.0	1151.0	281.0	1071.0	1191.0	5159.0	198.0	102406.0
10563/	661.0	850.0	864.0	844.0	614.0	1582.0	857.0	883.0	238.0	133.0	1063.0	761.0	235.0	654.0	2045.0	4691.0	322.0	370.0	1151.0	1000.0	1313.0	1840.0	720.0	1594.0	1898.0	1823.0	1148.0	1141.0	1791.0	1882.0	418.0	221.0	328.0	1001.0	460.0	535.0	1716.0	2099.0	239.0	137.0	1008.0	1411.0	1110.0	1254.0	2070.0	897.0	436.0	832.0	1062.0	593.0	180.0	1117.0	1296.0	1461.0	327.0	2156.0	460.0	700.0	400.0	651.0	1411.0	282.0	547.0	848.0	1451.0	942.0	1486.0	922.0	903.0	86.0	545.0	739.0	3500.0	221.0	75426.2
10566/	492.0	951.0	902.0	869.0	665.0	1772.0	1006.0	1014.0	354.0	127.0	1160.0	955.0	298.0	873.0	2134.0	4597.0	295.0	370.0	1372.0	877.0	1145.0	1575.0	736.0	1552.0	1987.0	1683.0	1245.0	1250.0	1654.0	1651.0	557.0	211.0	239.0	1185.0	418.0	559.0	1321.0	2073.0	368.0	220.0	897.0	1477.0	1120.0	1555.0	2290.0	853.0	443.0	693.0	1049.0	466.0	421.0	1232.0	1368.0	1613.0	140.0	2001.0	386.0	1037.0	389.0	604.0	1256.0	310.0	569.0	673.0	1502.0	1016.0	1464.0	875.0	1136.0	235.0	710.0	624.0	4207.0	211.0	77536.7
10606/	803.0	661.0	985.0	902.0	753.0	1896.0	1275.0	1038.0	273.0	184.0	1498.0	1027.0	374.0	1046.0	3005.0	4814.0	317.0	368.0	1854.0	1076.0	1347.0	1872.0	1006.0	1764.0	1820.0	2344.0	1644.0	1592.0	2098.0	1816.0	552.0	248.0	382.0	1271.0	334.0	689.0	1571.0	2125.0	390.0	176.0	1109.0	2213.0	1142.0	1390.0	2186.0	1019.0	327.0	782.0	935.0	653.0	354.0	1487.0	1244.0	2041.0	195.0	1985.0	760.0	1197.0	612.0	513.0	1480.0	288.0	506.0	973.0	1367.0	942.0	1966.0	1069.0	1456.0	263.0	1083.0	949.0	4448.0	222.0	88347.4
10620/	906.0	1100.0	1040.0	1042.0	1089.0	2071.0	1049.0	1327.0	513.0	212.0	1645.0	983.0	231.0	974.0	3306.0	6045.0	303.0	493.0	1544.0	1377.0	1073.0	1942.0	739.0	2426.0	2596.0	2180.0	1687.0	1844.0	2435.0	2351.0	525.0	419.0	268.0	1595.0	569.0	610.0	1618.0	2333.0	400.0	177.0	1070.0	2213.0	1159.0	1857.0	2600.0	1122.0	489.0	928.0	1203.0	627.0	510.0	1922.0	1794.0	3099.0	571.0	2270.0	713.0	1362.0	414.0	584.0	1778.0	372.0	708.0	1296.0	1771.0	1424.0	1924.0	1569.0	1350.0	314.0	950.0	1013.0	5088.0	215.0	101315.0
10621/	697.0	931.0	858.0	933.0	729.0	2200.0	1251.0	1107.0	562.0	248.0	1658.0	1011.0	391.0	1127.0	3353.0	5510.0	300.0	444.0	2082.0	1260.0	1307.0	1689.0	826.0	2030.0	1984.0	2211.0	2185.0	1447.0	2089.0	1740.0	573.0	249.0	353.0	1471.0	445.0	594.0	1377.0	2383.0	295.0	182.0	1004.0	2757.0	1273.0	1928.0	2356.0	910.0	389.0	926.0	1034.0	435.0	321.0	1887.0	1945.0	2211.0	223.0	2444.0	1132.0	980.0	620.0	656.0	1468.0	544.0	456.0	987.0	1747.0	1504.0	1580.0	1322.0	1413.0	306.0	917.0	1012.0	4102.0	212.0	95080.9
10667/	727.0	733.0	646.0	836.0	745.0	1710.0	1074.0	975.0	330.0	136.0	1453.0	942.0	156.0	692.0	2360.0	3756.0	275.0	384.0	1466.0	1096.0	1248.0	1962.0	796.0	2007.0	1766.0	1949.0	1647.0	1152.0	1368.0	1820.0	504.0	334.0	196.0	1172.0	343.0	574.0	1623.0	2067.0	316.0	217.0	929.0	2047.0	1199.0	1490.0	1730.0	623.0	300.0	709.0	947.0	652.0	482.0	1627.0	1625.0	1387.0	569.0	1943.0	649.0	1074.0	575.0	760.0	1545.0	271.0	633.0	1068.0	1732.0	969.0	1656.0	1086.0	816.0	276.0	779.0	690.0	4467.0	221.0	81084.5
10813/	775.0	698.0	771.0	1023.0	748.0	1899.0	1000.0	960.0	252.0	200.0	1318.0	1061.0	203.0	928.0	2882.0	4515.0	326.0	366.0	1936.0	1062.0	1501.0	2129.0	941.0	1758.0	2181.0	1909.0	1905.0	1335.0	1743.0	1647.0	463.0	214.0	211.0	1038.0	323.0	541.0	1688.0	1613.0	254.0	106.0	1006.0	1992.0	1046.0	1912.0	2038.0	788.0	317.0	724.0	926.0	792.0	362.0	1919.0	1724.0	1570.0	513.0	1969.0	1061.0	953.0	574.0	844.0	1255.0	370.0	474.0	933.0	1252.0	1017.0	1592.0	1058.0	1130.0	235.0	982.0	1021.0	3648.0	187.0	84606.7
10903/	855.0	1071.0	791.0	1106.0	898.0	2458.0	1079.0	1276.0	383.0	248.0	1428.0	938.0	266.0	611.0	3519.0	5028.0	316.0	443.0	1780.0	1343.0	1843.0	2045.0	1146.0	2138.0	2759.0	2624.0	1864.0	1617.0	1975.0	2305.0	570.0	147.0	361.0	1263.0	465.0	714.0	2071.0	2288.0	261.0	132.0	1103.0	2080.0	1442.0	1760.0	2203.0	1002.0	521.0	1002.0	1043.0	945.0	338.0	1583.0	1732.0	2060.0	374.0	2707.0	566.0	1437.0	416.0	825.0	1521.0	309.0	448.0	1173.0	2013.0	906.0	2209.0	1256.0	948.0	273.0	1021.0	1128.0	5117.0	231.0	98118.8
10943/	627.0	1037.0	793.0	798.0	629.0	1558.0	950.0	812.0	277.0	140.0	1532.0	749.0	200.0	722.0	2582.0	4470.0	270.0	339.0	1048.0	1184.0	1448.0	1955.0	825.0	1550.0	1876.0	2031.0	1634.0	1179.0	1602.0	1866.0	475.0	151.0	290.0	1131.0	368.0	655.0	1374.0	1689.0	235.0	118.0	991.0	2047.0	1123.0	1364.0	2007.0	862.0	316.0	683.0	861.0	684.0	327.0	1581.0	1214.0	1632.0	268.0	2345.0	615.0	1111.0	505.0	675.0	1317.0	299.0	408.0	872.0	1282.0	951.0	1432.0	1189.0	850.0	120.0	846.0	661.0	3517.0	193.0	78314.6
5202/	617.0	1093.0	859.0	694.0	582.0	1711.0	1027.0	799.0	252.0	208.0	1396.0	922.0	181.0	806.0	1960.0	4415.0	307.0	387.0	1050.0	1112.0	1338.0	1637.0	821.0	1625.0	1834.0	1797.0	1686.0	1068.0	1602.0	1976.0	530.0	219.0	215.0	983.0	460.0	480.0	1329.0	1783.0	254.0	196.0	926.0	2582.0	1205.0	1538.0	1857.0	892.0	367.0	792.0	889.0	434.0	351.0	1588.0	1124.0	1567.0	314.0	2271.0	671.0	897.0	567.0	537.0	1345.0	370.0	489.0	836.0	1093.0	809.0	1368.0	1235.0	839.0	192.0	935.0	770.0	3550.0	182.0	77592.8
5302/	820.0	852.0	956.0	1017.0	719.0	1780.0	973.0	1030.0	397.0	181.0	1394.0	749.0	228.0	711.0	2878.0	3725.0	311.0	353.0	1426.0	965.0	1303.0	1739.0	927.0	1519.0	2307.0	1699.0	1767.0	1261.0	1753.0	1970.0	520.0	267.0	237.0	1064.0	463.0	457.0	1400.0	1732.0	210.0	87.0	1053.0	2182.0	1100.0	1707.0	1932.0	791.0	456.0	632.0	971.0	641.0	245.0	1615.0	1410.0	1364.0	233.0	2119.0	748.0	909.0	308.0	522.0	1405.0	278.0	493.0	880.0	1403.0	1100.0	1811.0	1085.0	991.0	328.0	936.0	795.0	3479.0	196.0	80263.5
5305/	559.0	944.0	785.0	963.0	808.0	1931.0	1047.0	914.0	263.0	190.0	1186.0	881.0	253.0	892.0	2120.0	3852.0	252.0	365.0	1466.0	861.0	1315.0	2003.0	810.0	1526.0	1968.0	1650.0	1488.0	1211.0	1478.0	1572.0	449.0	219.0	317.0	1276.0	357.0	594.0	1319.0	1988.0	311.0	119.0	973.0	1787.0	1009.0	1870.0	2016.0	767.0	399.0	797.0	956.0	639.0	276.0	1542.0	1070.0	1378.0	258.0	1816.0	590.0	887.0	481.0	656.0	1327.0	274.0	533.0	749.0	1412.0	1205.0	1366.0	1076.0	559.0	208.0	668.0	575.0	3882.0	207.0	76710.3
5306/	555.0	832.0	840.0	775.0	764.0	1510.0	1044.0	970.0	262.0	127.0	994.0	1182.0	257.0	1006.0	2332.0	3641.0	319.0	317.0	1363.0	928.0	884.0	1898.0	485.0	1449.0	1771.0	1555.0	1260.0	1279.0	1504.0	1282.0	409.0	228.0	202.0	1041.0	364.0	431.0	1211.0	1769.0	283.0	232.0	897.0	2125.0	944.0	1326.0	1924.0	898.0	308.0	624.0	930.0	406.0	473.0	1939.0	1132.0	1573.0	308.0	1720.0	402.0	986.0	317.0	375.0	1389.0	250.0	423.0	735.0	1376.0	781.0	1434.0	1296.0	780.0	167.0	615.0	232.0	3757.0	185.0	72580.9
5464/	758.0	1094.0	858.0	851.0	767.0	1614.0	1110.0	828.0	408.0	198.0	1357.0	906.0	189.0	567.0	2597.0	4387.0	352.0	435.0	1534.0	1179.0	1252.0	1681.0	781.0	1499.0	1816.0	1607.0	1357.0	1112.0	1750.0	1721.0	383.0	192.0	222.0	967.0	337.0	729.0	1523.0	1690.0	251.0	109.0	1131.0	2489.0	1108.0	1557.0	1948.0	781.0	353.0	788.0	777.0	714.0	268.0	1352.0	1153.0	1764.0	311.0	1800.0	835.0	984.0	327.0	605.0	1406.0	223.0	445.0	892.0	1190.0	935.0	1534.0	1230.0	961.0	221.0	766.0	532.0	3804.0	152.0	78310.8
5505/	795.0	958.0	760.0	957.0	960.0	1690.0	1013.0	890.0	320.0	149.0	1428.0	932.0	238.0	763.0	2573.0	4029.0	366.0	431.0	1840.0	1265.0	1506.0	2053.0	1008.0	1810.0	1823.0	2077.0	1391.0	1316.0	1629.0	1958.0	423.0	285.0	259.0	1163.0	438.0	717.0	1338.0	2084.0	323.0	102.0	1074.0	2219.0	1105.0	1578.0	2076.0	625.0	465.0	856.0	953.0	868.0	423.0	1331.0	1648.0	1952.0	508.0	2037.0	751.0	1057.0	666.0	561.0	1532.0	336.0	480.0	858.0	1393.0	1022.0	1674.0	1276.0	896.0	234.0	812.0	644.0	3638.0	209.0	83817.5
5506/	673.0	614.0	788.0	833.0	517.0	1467.0	708.0	732.0	273.0	176.0	1168.0	892.0	202.0	689.0	2179.0	3402.0	253.0	256.0	1139.0	959.0	839.0	1820.0	621.0	1446.0	1683.0	1323.0	1364.0	1001.0	1465.0	1597.0	342.0	156.0	206.0	868.0	356.0	440.0	1305.0	1473.0	229.0	115.0	866.0	1709.0	1036.0	1558.0	1674.0	737.0	242.0	740.0	862.0	736.0	313.0	1356.0	1142.0	1197.0	229.0	1789.0	555.0	1014.0	375.0	417.0	1018.0	350.0	335.0	758.0	785.0	960.0	1581.0	1001.0	828.0	134.0	448.0	417.0	3007.0	195.0	66930.0
5514/	842.0	1089.0	890.0	903.0	814.0	1598.0	948.0	808.0	259.0	222.0	1520.0	844.0	236.0	1017.0	3116.0	4194.0	267.0	362.0	1981.0	1035.0	1345.0	1932.0	987.0	1971.0	2162.0	1606.0	1403.0	1456.0	1679.0	1821.0	460.0	281.0	260.0	1271.0	451.0	433.0	1686.0	1930.0	287.0	252.0	940.0	2094.0	1167.0	1738.0	1838.0	915.0	518.0	943.0	1079.0	706.0	524.0	1843.0	1395.0	2023.0	189.0	1898.0	1061.0	1083.0	819.0	535.0	1473.0	286.0	583.0	1204.0	1516.0	1123.0	1655.0	974.0	759.0	106.0	1008.0	885.0	4137.0	227.0	85859.4
5515/	747.0	910.0	863.0	896.0	1070.0	2157.0	1063.0	922.0	274.0	182.0	1466.0	905.0	258.0	1059.0	2954.0	5141.0	286.0	426.0	1695.0	1471.0	1318.0	2533.0	907.0	1673.0	2759.0	1928.0	1768.0	1387.0	2175.0	1878.0	549.0	300.0	320.0	1370.0	511.0	423.0	1532.0	2250.0	328.0	226.0	1033.0	2275.0	1229.0	2047.0	2454.0	1092.0	399.0	832.0	1111.0	393.0	420.0	1522.0	1950.0	1840.0	389.0	2412.0	784.0	1204.0	300.0	834.0	1545.0	328.0	711.0	1071.0	1933.0	992.0	1355.0	1274.0	1059.0	242.0	640.0	1170.0	4567.0	303.0	92586.0
5516/	681.0	812.0	794.0	906.0	701.0	1460.0	844.0	838.0	292.0	154.0	1134.0	734.0	177.0	607.0	2323.0	4428.0	277.0	400.0	1303.0	1197.0	1089.0	1943.0	707.0	1827.0	1936.0	1618.0	1543.0	1268.0	1855.0	2166.0	541.0	246.0	296.0	1244.0	419.0	628.0	1518.0	2110.0	232.0	120.0	1006.0	1823.0	1033.0	1434.0	2210.0	705.0	417.0	783.0	872.0	453.0	401.0	1103.0	1077.0	1589.0	97.0	2348.0	692.0	836.0	396.0	614.0	1115.0	280.0	449.0	1112.0	1333.0	918.0	1333.0	1002.0	1240.0	174.0	996.0	567.0	3870.0	245.0	77891.2
5518/	686.0	874.0	838.0	790.0	842.0	1645.0	943.0	1044.0	292.0	129.0	1154.0	744.0	196.0	857.0	2155.0	4513.0	284.0	386.0	1568.0	932.0	1292.0	1704.0	727.0	1648.0	1683.0	1622.0	1309.0	1429.0	1867.0	2057.0	442.0	209.0	277.0	1016.0	468.0	565.0	1238.0	2053.0	317.0	183.0	944.0	1870.0	1191.0	1412.0	2150.0	875.0	439.0	755.0	963.0	520.0	457.0	1606.0	1519.0	1650.0	185.0	1854.0	736.0	1001.0	490.0	554.0	1377.0	193.0	455.0	951.0	1604.0	902.0	1429.0	1020.0	929.0	220.0	630.0	811.0	3798.0	222.0	78685.8
5640/	647.0	886.0	1004.0	812.0	866.0	1956.0	931.0	959.0	403.0	222.0	1326.0	732.0	252.0	560.0	3056.0	5047.0	402.0	567.0	1631.0	1230.0	1525.0	1869.0	800.0	2029.0	2163.0	1700.0	1308.0	1655.0	2023.0	1558.0	525.0	278.0	266.0	1083.0	575.0	590.0	1497.0	1947.0	318.0	148.0	961.0	1934.0	1268.0	1388.0	2454.0	753.0	526.0	869.0	981.0	457.0	427.0	1312.0	1648.0	2623.0	223.0	2211.0	934.0	987.0	469.0	717.0	1544.0	350.0	747.0	1076.0	1182.0	1141.0	1343.0	1238.0	974.0	291.0	788.0	642.0	4362.0	225.0	86387.6
5649/	763.0	926.0	933.0	1121.0	1114.0	2202.0	1201.0	907.0	460.0	171.0	1072.0	865.0	196.0	760.0	3182.0	5292.0	373.0	491.0	1626.0	1026.0	1421.0	1592.0	1047.0	1928.0	2703.0	2228.0	1948.0	1686.0	2085.0	2206.0	469.0	352.0	283.0	1212.0	508.0	579.0	1761.0	2255.0	247.0	73.0	1020.0	2445.0	1164.0	1104.0	2651.0	704.0	521.0	873.0	1104.0	677.0	298.0	2021.0	1593.0	2259.0	333.0	2675.0	1109.0	1169.0	653.0	622.0	1591.0	370.0	603.0	1021.0	1547.0	1177.0	2166.0	1577.0	1107.0	217.0	1041.0	810.0	4689.0	249.0	94424.4
5754/	792.0	780.0	914.0	919.0	952.0	2296.0	1137.0	1014.0	352.0	159.0	1579.0	840.0	179.0	844.0	3281.0	5222.0	307.0	476.0	1683.0	1292.0	1248.0	2150.0	734.0	1819.0	2375.0	1754.0	1598.0	1581.0	1895.0	1570.0	454.0	195.0	257.0	1313.0	328.0	476.0	2276.0	1819.0	271.0	163.0	949.0	2408.0	1216.0	1695.0	2082.0	936.0	356.0	927.0	919.0	710.0	407.0	1368.0	1620.0	2278.0	266.0	2646.0	591.0	1192.0	624.0	763.0	1388.0	354.0	433.0	966.0	1678.0	1137.0	1990.0	1174.0	1248.0	250.0	709.0	1124.0	3846.0	182.0	89728.2
5755/	496.0	835.0	550.0	659.0	575.0	1375.0	689.0	667.0	235.0	94.0	993.0	598.0	184.0	707.0	1845.0	3610.0	252.0	313.0	887.0	1264.0	997.0	1547.0	676.0	1225.0	1395.0	1187.0	1521.0	1070.0	1328.0	1676.0	386.0	164.0	253.0	951.0	239.0	366.0	1030.0	1592.0	259.0	134.0	715.0	1788.0	1090.0	1243.0	1846.0	598.0	251.0	668.0	789.0	311.0	396.0	1012.0	1035.0	1285.0	192.0	1682.0	195.0	713.0	485.0	393.0	1141.0	228.0	339.0	585.0	818.0	744.0	1147.0	809.0	672.0	50.0	461.0	280.0	3284.0	162.0	62234.4
5771/	796.0	1101.0	1006.0	858.0	1000.0	1862.0	912.0	904.0	345.0	183.0	1496.0	869.0	254.0	812.0	2808.0	4937.0	328.0	467.0	968.0	1255.0	1468.0	2080.0	997.0	1734.0	2227.0	1927.0	1878.0	1466.0	1663.0	2089.0	545.0	279.0	297.0	1210.0	663.0	524.0	1652.0	1989.0	438.0	182.0	986.0	2174.0	1012.0	1557.0	2236.0	833.0	403.0	774.0	974.0	672.0	349.0	1363.0	1662.0	1712.0	198.0	2170.0	793.0	800.0	449.0	643.0	1453.0	288.0	593.0	792.0	1515.0	1033.0	2037.0	1050.0	841.0	290.0	827.0	750.0	4160.0	241.0	86100.2
5798/	48.0	77.0	142.0	91.0	348.0	195.0	143.0	71.0	0.0	0.0	187.0	56.0	159.0	41.0	409.0	1186.0	13.0	29.0	282.0	87.0	0.0	40.0	18.0	322.0	358.0	380.0	303.0	619.0	259.0	9.0	96.0	0.0	20.0	121.0	50.0	3.0	374.0	482.0	0.0	0.0	174.0	27.0	203.0	30.0	407.0	16.0	8.0	80.0	190.0	0.0	0.0	108.0	131.0	188.0	36.0	720.0	0.0	72.0	50.0	12.0	0.0	33.0	108.0	199.0	7.0	6.0	828.0	110.0	139.0	1.0	0.0	0.0	776.0	6.0	11682.3
5825/	671.0	684.0	857.0	922.0	737.0	1657.0	984.0	1044.0	381.0	165.0	914.0	871.0	225.0	719.0	2592.0	4197.0	287.0	355.0	1573.0	1030.0	944.0	1597.0	1000.0	1723.0	1525.0	1961.0	1735.0	1426.0	1908.0	1719.0	495.0	229.0	310.0	1174.0	312.0	516.0	1984.0	1569.0	283.0	119.0	1029.0	1769.0	1005.0	991.0	2087.0	883.0	308.0	796.0	829.0	917.0	247.0	1360.0	1386.0	1939.0	207.0	2141.0	861.0	913.0	662.0	389.0	1198.0	216.0	419.0	985.0	983.0	1245.0	2006.0	1274.0	1060.0	228.0	990.0	556.0	3641.0	268.0	79182.0
5843/	635.0	885.0	677.0	670.0	607.0	1378.0	799.0	653.0	184.0	109.0	943.0	630.0	160.0	772.0	1660.0	3018.0	224.0	286.0	1164.0	1031.0	1185.0	1527.0	577.0	1373.0	1583.0	1287.0	1303.0	978.0	1402.0	1525.0	373.0	33.0	178.0	1015.0	322.0	314.0	897.0	1450.0	210.0	111.0	784.0	1663.0	1043.0	1268.0	1869.0	612.0	294.0	651.0	714.0	316.0	155.0	1069.0	755.0	1071.0	149.0	1616.0	531.0	575.0	512.0	445.0	1066.0	162.0	301.0	631.0	1036.0	642.0	1146.0	949.0	771.0	108.0	481.0	390.0	3057.0	241.0	61196.0
5844/	567.0	809.0	678.0	706.0	662.0	1908.0	958.0	826.0	245.0	164.0	1441.0	662.0	192.0	559.0	2141.0	4265.0	277.0	343.0	1239.0	1111.0	1092.0	1803.0	776.0	1479.0	2033.0	1463.0	1600.0	1090.0	1749.0	1386.0	396.0	260.0	261.0	1178.0	415.0	329.0	1496.0	1686.0	303.0	128.0	825.0	1719.0	1242.0	1354.0	2163.0	856.0	350.0	752.0	888.0	788.0	323.0	970.0	1175.0	1677.0	348.0	1784.0	601.0	666.0	586.0	589.0	1060.0	253.0	367.0	887.0	1454.0	700.0	988.0	853.0	1385.0	223.0	783.0	656.0	3441.0	138.0	73520.7
5899/	608.0	794.0	833.0	927.0	797.0	1886.0	1071.0	1079.0	284.0	127.0	1292.0	759.0	200.0	475.0	2277.0	4127.0	204.0	332.0	1591.0	1141.0	1036.0	1814.0	751.0	1603.0	1519.0	1856.0	1699.0	1395.0	1458.0	1385.0	525.0	213.0	244.0	1158.0	422.0	589.0	1388.0	1975.0	216.0	102.0	944.0	1826.0	1209.0	1539.0	1989.0	1093.0	372.0	817.0	787.0	553.0	306.0	1220.0	1166.0	2072.0	664.0	1993.0	486.0	908.0	424.0	577.0	1081.0	137.0	471.0	883.0	1570.0	880.0	1608.0	1092.0	810.0	237.0	737.0	841.0	3625.0	174.0	77239.5
5900/	646.0	723.0	923.0	938.0	1121.0	2077.0	1265.0	1130.0	380.0	279.0	967.0	920.0	256.0	596.0	3172.0	4827.0	343.0	444.0	1997.0	1660.0	1120.0	1683.0	857.0	1879.0	1643.0	2119.0	1568.0	1590.0	1738.0	1648.0	640.0	321.0	278.0	1286.0	487.0	688.0	2035.0	1870.0	225.0	128.0	1174.0	2903.0	1345.0	1314.0	2430.0	889.0	586.0	901.0	925.0	855.0	100.0	1684.0	1760.0	2326.0	298.0	2372.0	568.0	1636.0	453.0	646.0	1097.0	333.0	372.0	700.0	1357.0	1057.0	1870.0	1313.0	1155.0	135.0	844.0	644.0	3398.0	238.0	88146.1
5902/	686.0	1112.0	858.0	1003.0	793.0	2190.0	1446.0	1271.0	415.0	174.0	1682.0	900.0	263.0	635.0	2977.0	4499.0	285.0	389.0	1653.0	1196.0	1370.0	2043.0	815.0	2183.0	2038.0	1897.0	1997.0	1544.0	2058.0	1705.0	505.0	281.0	305.0	1287.0	335.0	482.0	1570.0	2280.0	310.0	156.0	846.0	2544.0	1191.0	1753.0	2360.0	967.0	474.0	786.0	1011.0	504.0	424.0	1698.0	1983.0	1488.0	366.0	2323.0	740.0	1071.0	742.0	604.0	1271.0	300.0	485.0	1094.0	1596.0	1337.0	1847.0	1383.0	1054.0	162.0	1028.0	832.0	3650.0	183.0	89684.8
5953/	588.0	700.0	759.0	829.0	772.0	1406.0	921.0	916.0	295.0	150.0	1309.0	716.0	206.0	660.0	2842.0	3700.0	274.0	342.0	1616.0	1059.0	1393.0	1793.0	661.0	1897.0	1433.0	1742.0	1635.0	1130.0	1778.0	1680.0	369.0	198.0	249.0	1117.0	263.0	451.0	1138.0	1796.0	173.0	109.0	899.0	1906.0	1125.0	1592.0	2109.0	847.0	486.0	841.0	920.0	492.0	511.0	1361.0	1626.0	1458.0	467.0	2204.0	598.0	1170.0	601.0	622.0	1343.0	352.0	395.0	1045.0	1354.0	1025.0	1336.0	1043.0	690.0	297.0	696.0	738.0	3316.0	145.0	76677.5
5955/	751.0	1094.0	656.0	924.0	723.0	1537.0	1051.0	985.0	299.0	176.0	1296.0	746.0	200.0	472.0	2353.0	3900.0	297.0	370.0	1343.0	1255.0	1050.0	2028.0	827.0	1571.0	1676.0	1773.0	1489.0	1169.0	1674.0	1775.0	440.0	192.0	206.0	901.0	389.0	449.0	1515.0	1802.0	183.0	92.0	807.0	1896.0	920.0	1554.0	1829.0	780.0	413.0	688.0	811.0	694.0	405.0	1501.0	1320.0	1613.0	367.0	2100.0	715.0	1060.0	395.0	370.0	1277.0	338.0	446.0	872.0	1406.0	1157.0	1688.0	1043.0	1030.0	211.0	997.0	650.0	3225.0	162.0	76370.2
5977/	703.0	801.0	957.0	1310.0	826.0	1854.0	1319.0	974.0	378.0	188.0	1419.0	701.0	198.0	558.0	2754.0	4435.0	385.0	425.0	1493.0	1196.0	1349.0	1845.0	787.0	1909.0	1937.0	1968.0	1442.0	1404.0	1742.0	1847.0	504.0	224.0	293.0	1309.0	541.0	582.0	1938.0	1856.0	215.0	113.0	1072.0	2218.0	1212.0	1713.0	2086.0	792.0	392.0	808.0	863.0	524.0	352.0	1501.0	1432.0	1715.0	331.0	1982.0	737.0	1045.0	481.0	847.0	1507.0	386.0	445.0	1207.0	1518.0	994.0	1904.0	1271.0	785.0	290.0	557.0	978.0	4594.0	184.0	85402.4
6010/	585.0	1121.0	1097.0	879.0	704.0	1503.0	947.0	872.0	368.0	220.0	1319.0	747.0	306.0	1082.0	2641.0	3931.0	224.0	341.0	1398.0	1215.0	1206.0	1908.0	721.0	1391.0	1890.0	1664.0	1407.0	1279.0	1605.0	1693.0	475.0	267.0	209.0	1283.0	254.0	652.0	1335.0	1708.0	318.0	133.0	1108.0	2153.0	1133.0	1305.0	1845.0	858.0	336.0	672.0	905.0	581.0	351.0	1257.0	1185.0	1651.0	82.0	1915.0	689.0	1120.0	588.0	695.0	1182.0	393.0	330.0	515.0	1317.0	885.0	1222.0	1203.0	978.0	181.0	911.0	416.0	3665.0	242.0	76764.5
6026/	751.0	945.0	694.0	1125.0	976.0	2153.0	1025.0	1052.0	496.0	151.0	1445.0	811.0	275.0	885.0	2497.0	4626.0	306.0	433.0	1810.0	1091.0	1402.0	1832.0	923.0	1822.0	1715.0	2071.0	1864.0	1282.0	1683.0	1808.0	584.0	252.0	242.0	1307.0	589.0	516.0	1939.0	2565.0	346.0	114.0	1058.0	2307.0	1171.0	1633.0	2194.0	942.0	434.0	936.0	1011.0	930.0	294.0	1313.0	1694.0	2048.0	458.0	2491.0	1152.0	1108.0	862.0	741.0	1508.0	228.0	651.0	949.0	1528.0	1163.0	2078.0	1163.0	869.0	309.0	1056.0	1046.0	4497.0	294.0	90520.9
6028/	706.0	852.0	651.0	971.0	748.0	1685.0	903.0	835.0	372.0	164.0	1249.0	911.0	201.0	618.0	2558.0	4182.0	335.0	432.0	1357.0	925.0	1114.0	1681.0	765.0	1665.0	1745.0	1647.0	1218.0	1236.0	1483.0	1675.0	473.0	237.0	229.0	1028.0	501.0	516.0	1693.0	1912.0	206.0	156.0	880.0	2191.0	1274.0	1632.0	1541.0	680.0	323.0	653.0	775.0	648.0	428.0	1194.0	1112.0	1529.0	228.0	1373.0	519.0	833.0	361.0	813.0	1269.0	245.0	489.0	773.0	1286.0	733.0	1955.0	899.0	702.0	210.0	712.0	1037.0	3916.0	158.0	75207.4
6033/	591.0	1190.0	1004.0	754.0	861.0	1726.0	776.0	843.0	235.0	167.0	1507.0	833.0	225.0	777.0	2077.0	4515.0	296.0	376.0	1365.0	1205.0	999.0	1888.0	670.0	1639.0	1805.0	1698.0	1684.0	1137.0	1626.0	1524.0	463.0	185.0	211.0	991.0	543.0	536.0	1374.0	1765.0	267.0	159.0	885.0	2056.0	1158.0	1480.0	1828.0	788.0	404.0	657.0	898.0	561.0	265.0	1167.0	1235.0	1566.0	98.0	2301.0	721.0	894.0	569.0	642.0	1453.0	188.0	478.0	760.0	1337.0	691.0	1344.0	1047.0	1065.0	191.0	518.0	599.0	4304.0	156.0	76793.5
6034/	741.0	816.0	845.0	1095.0	847.0	1867.0	1031.0	893.0	370.0	196.0	1721.0	1055.0	312.0	1124.0	2951.0	5589.0	401.0	404.0	1740.0	1360.0	1199.0	2257.0	888.0	2109.0	2418.0	1482.0	1907.0	1507.0	1916.0	2092.0	504.0	217.0	291.0	1390.0	583.0	488.0	1717.0	2236.0	368.0	136.0	959.0	2750.0	1336.0	2105.0	2050.0	866.0	392.0	844.0	1101.0	654.0	386.0	1927.0	1509.0	1840.0	207.0	2259.0	913.0	1588.0	653.0	795.0	1657.0	408.0	593.0	935.0	1670.0	1236.0	1855.0	1444.0	923.0	224.0	687.0	880.0	4623.0	155.0	93484.0
6035/	607.0	918.0	946.0	1187.0	873.0	2371.0	1105.0	1005.0	324.0	255.0	1703.0	1142.0	314.0	990.0	3810.0	5752.0	350.0	591.0	1867.0	1311.0	1041.0	2229.0	1002.0	2061.0	2985.0	1743.0	1767.0	1574.0	2272.0	2212.0	537.0	303.0	326.0	1497.0	490.0	709.0	2291.0	2472.0	292.0	149.0	1155.0	2119.0	1200.0	1985.0	2427.0	1086.0	465.0	937.0	1239.0	864.0	515.0	1748.0	1847.0	2201.0	283.0	2407.0	819.0	1257.0	784.0	912.0	1294.0	284.0	546.0	1132.0	1655.0	1261.0	1521.0	1372.0	1379.0	271.0	688.0	1089.0	5168.0	167.0	99448.0
6040/	727.0	873.0	696.0	743.0	846.0	2279.0	1019.0	916.0	322.0	177.0	1760.0	1057.0	307.0	1075.0	3518.0	5337.0	357.0	553.0	1795.0	1739.0	1808.0	2590.0	1133.0	2086.0	2391.0	1895.0	2226.0	1694.0	2107.0	2092.0	468.0	365.0	321.0	1373.0	494.0	660.0	1526.0	2212.0	275.0	201.0	1011.0	2765.0	1225.0	2124.0	2251.0	703.0	402.0	790.0	1022.0	554.0	435.0	1921.0	1800.0	2038.0	417.0	2368.0	764.0	1628.0	617.0	928.0	1657.0	390.0	538.0	1021.0	1672.0	1122.0	1767.0	1137.0	1228.0	174.0	961.0	683.0	5058.0	190.0	97372.4
6044/	752.0	916.0	815.0	802.0	645.0	1673.0	893.0	1010.0	298.0	214.0	1490.0	853.0	176.0	798.0	2590.0	4285.0	369.0	388.0	1732.0	991.0	1091.0	2191.0	847.0	1715.0	1794.0	1471.0	1217.0	1409.0	1682.0	1348.0	515.0	186.0	266.0	1249.0	443.0	373.0	1316.0	1716.0	324.0	166.0	854.0	2277.0	931.0	1766.0	2413.0	903.0	358.0	836.0	1073.0	520.0	413.0	1571.0	1524.0	2077.0	149.0	1670.0	1094.0	856.0	511.0	611.0	1079.0	210.0	447.0	997.0	1296.0	972.0	1541.0	943.0	842.0	198.0	634.0	660.0	4355.0	185.0	79777.8
6045/	812.0	1318.0	871.0	798.0	1149.0	1933.0	1140.0	1101.0	389.0	153.0	1322.0	899.0	264.0	750.0	3319.0	4672.0	275.0	379.0	1541.0	1085.0	1374.0	1756.0	1186.0	1754.0	2498.0	1719.0	1432.0	1528.0	2020.0	1797.0	495.0	220.0	253.0	1153.0	449.0	645.0	1618.0	1928.0	289.0	132.0	945.0	2471.0	989.0	1525.0	2486.0	936.0	459.0	743.0	879.0	552.0	459.0	1775.0	1986.0	1741.0	333.0	1657.0	850.0	837.0	713.0	700.0	1553.0	290.0	423.0	1124.0	1390.0	1026.0	1605.0	1414.0	907.0	259.0	1017.0	713.0	4349.0	169.0	87691.7
6050/	249.0	247.0	547.0	236.0	268.0	694.0	381.0	442.0	83.0	10.0	312.0	229.0	122.0	346.0	932.0	2216.0	342.0	163.0	507.0	628.0	402.0	462.0	717.0	968.0	891.0	703.0	766.0	825.0	1111.0	1217.0	343.0	58.0	111.0	798.0	224.0	184.0	472.0	550.0	91.0	17.0	644.0	861.0	486.0	324.0	683.0	766.0	118.0	299.0	377.0	212.0	48.0	369.0	489.0	647.0	84.0	835.0	287.0	350.0	123.0	117.0	342.0	76.0	272.0	427.0	549.0	137.0	863.0	380.0	494.0	32.0	717.0	344.0	1404.0	57.0	34075.8
6057/	701.0	833.0	811.0	691.0	858.0	1478.0	952.0	742.0	241.0	146.0	1145.0	775.0	165.0	631.0	2167.0	4222.0	245.0	342.0	1297.0	1114.0	1075.0	1699.0	671.0	1555.0	1985.0	1436.0	1675.0	1244.0	1559.0	1628.0	395.0	176.0	229.0	1159.0	382.0	397.0	1360.0	1544.0	232.0	186.0	887.0	1744.0	1006.0	1089.0	1863.0	804.0	321.0	704.0	794.0	609.0	334.0	1364.0	1567.0	1817.0	470.0	1898.0	702.0	719.0	392.0	664.0	1202.0	258.0	376.0	848.0	1218.0	778.0	1189.0	1196.0	606.0	231.0	562.0	830.0	3676.0	172.0	73031.7
6058/	470.0	725.0	902.0	704.0	594.0	1717.0	1005.0	888.0	268.0	194.0	1413.0	1030.0	213.0	880.0	2155.0	4367.0	243.0	386.0	1821.0	1079.0	882.0	2145.0	950.0	1644.0	1478.0	1874.0	1506.0	1111.0	1486.0	1844.0	413.0	193.0	206.0	1066.0	278.0	349.0	1576.0	1928.0	237.0	143.0	745.0	1950.0	1000.0	1448.0	2215.0	911.0	396.0	867.0	914.0	598.0	408.0	1387.0	1225.0	1765.0	436.0	2010.0	848.0	1156.0	378.0	501.0	1244.0	323.0	467.0	842.0	1479.0	942.0	1535.0	970.0	795.0	289.0	721.0	815.0	3994.0	205.0	78142.6
6060/	643.0	779.0	888.0	791.0	843.0	1572.0	1083.0	1048.0	397.0	158.0	1391.0	1055.0	190.0	698.0	2608.0	4412.0	299.0	409.0	1001.0	1180.0	1266.0	2004.0	942.0	1820.0	2311.0	1965.0	1298.0	1177.0	1715.0	1654.0	474.0	229.0	212.0	1064.0	311.0	689.0	1508.0	1766.0	281.0	163.0	1078.0	2073.0	1438.0	1685.0	1884.0	821.0	308.0	647.0	935.0	569.0	240.0	1641.0	1237.0	1849.0	566.0	1719.0	753.0	774.0	226.0	714.0	1355.0	134.0	462.0	1001.0	1373.0	1091.0	1417.0	1677.0	898.0	263.0	670.0	524.0	3616.0	184.0	80115.9
6102/	554.0	732.0	899.0	962.0	755.0	2032.0	1328.0	1214.0	356.0	148.0	1326.0	895.0	157.0	840.0	3552.0	4285.0	312.0	441.0	1631.0	1213.0	1152.0	2051.0	985.0	1832.0	1712.0	1303.0	1756.0	1277.0	1938.0	1582.0	524.0	272.0	229.0	1176.0	400.0	551.0	1665.0	2059.0	346.0	170.0	1032.0	1905.0	924.0	1638.0	2357.0	1106.0	432.0	991.0	1009.0	507.0	354.0	1639.0	1548.0	1918.0	274.0	1870.0	718.0	786.0	798.0	542.0	1473.0	291.0	538.0	1005.0	1656.0	1152.0	1381.0	1566.0	1144.0	191.0	519.0	776.0	4177.0	193.0	85025.8
6103/	753.0	962.0	822.0	983.0	974.0	2306.0	1439.0	1314.0	344.0	180.0	1614.0	792.0	228.0	728.0	3087.0	4953.0	351.0	421.0	1560.0	1280.0	1345.0	2167.0	1107.0	1995.0	1853.0	1879.0	2213.0	1424.0	1989.0	1888.0	534.0	190.0	275.0	1210.0	569.0	536.0	1882.0	2142.0	333.0	200.0	1004.0	2240.0	1185.0	1879.0	2382.0	984.0	375.0	930.0	931.0	655.0	459.0	1484.0	1769.0	1931.0	157.0	3296.0	586.0	1155.0	608.0	578.0	1565.0	278.0	642.0	1075.0	1634.0	1116.0	2006.0	1143.0	954.0	268.0	687.0	1389.0	4723.0	239.0	93131.2
6105/	806.0	793.0	828.0	1044.0	731.0	2498.0	1328.0	1228.0	279.0	185.0	1502.0	996.0	257.0	725.0	3073.0	4858.0	296.0	480.0	1916.0	1249.0	1162.0	2007.0	889.0	2182.0	2201.0	1724.0	1568.0	1526.0	1604.0	1764.0	451.0	288.0	339.0	1472.0	425.0	586.0	1580.0	2393.0	283.0	64.0	1083.0	2146.0	1195.0	1802.0	2190.0	997.0	580.0	1046.0	1082.0	530.0	408.0	1615.0	2003.0	2031.0	232.0	2328.0	831.0	1119.0	575.0	502.0	1767.0	284.0	448.0	1045.0	1505.0	838.0	1670.0	1234.0	877.0	231.0	732.0	984.0	5089.0	253.0	90828.2
6138/	567.0	688.0	1017.0	706.0	653.0	1754.0	884.0	718.0	221.0	139.0	1267.0	685.0	208.0	499.0	2107.0	3709.0	237.0	303.0	1185.0	975.0	1472.0	1951.0	703.0	1431.0	1718.0	1630.0	1283.0	1300.0	1541.0	1471.0	485.0	191.0	209.0	964.0	328.0	450.0	1272.0	1652.0	213.0	122.0	854.0	1850.0	1101.0	1129.0	1893.0	755.0	303.0	687.0	683.0	450.0	226.0	1196.0	1321.0	1411.0	258.0	2102.0	561.0	758.0	568.0	603.0	1077.0	342.0	487.0	868.0	1263.0	758.0	1440.0	966.0	1162.0	321.0	867.0	615.0	3324.0	157.0	71267.5
6149/	722.0	849.0	928.0	1042.0	747.0	1872.0	1289.0	1059.0	424.0	181.0	1673.0	886.0	225.0	833.0	2959.0	4377.0	312.0	426.0	1586.0	1584.0	1388.0	1907.0	989.0	1975.0	2961.0	1994.0	1650.0	1598.0	2126.0	1723.0	575.0	263.0	287.0	1469.0	654.0	602.0	1858.0	2515.0	357.0	137.0	1056.0	2052.0	1195.0	1636.0	2155.0	822.0	490.0	809.0	1069.0	841.0	484.0	1431.0	1784.0	1568.0	203.0	2274.0	459.0	1210.0	404.0	689.0	1676.0	277.0	499.0	1123.0	1713.0	1293.0	1773.0	1335.0	915.0	294.0	762.0	723.0	5585.0	265.0	91869.1
6162/	436.0	750.0	657.0	782.0	479.0	1361.0	772.0	752.0	215.0	157.0	1233.0	670.0	124.0	644.0	2438.0	3607.0	326.0	358.0	1333.0	1007.0	997.0	1724.0	723.0	1185.0	1521.0	1432.0	1156.0	1195.0	1338.0	1363.0	420.0	249.0	202.0	939.0	449.0	321.0	1224.0	1520.0	237.0	163.0	868.0	1716.0	890.0	1818.0	1975.0	880.0	312.0	677.0	847.0	469.0	325.0	1348.0	894.0	1831.0	121.0	1909.0	587.0	910.0	507.0	342.0	1068.0	248.0	391.0	614.0	1275.0	834.0	1361.0	1396.0	662.0	192.0	554.0	512.0	3089.0	155.0	68038.1
6163/	649.0	780.0	804.0	928.0	986.0	1941.0	847.0	855.0	417.0	113.0	1227.0	983.0	206.0	769.0	2793.0	4665.0	280.0	371.0	1675.0	1079.0	1511.0	1913.0	855.0	1532.0	1990.0	2322.0	1709.0	1413.0	1597.0	2000.0	490.0	205.0	270.0	1196.0	439.0	485.0	1699.0	2027.0	305.0	171.0	957.0	1689.0	998.0	1419.0	2050.0	690.0	404.0	801.0	947.0	683.0	372.0	1384.0	2033.0	2053.0	257.0	2206.0	771.0	846.0	631.0	746.0	1615.0	264.0	672.0	736.0	1570.0	1110.0	1549.0	1660.0	858.0	130.0	849.0	1127.0	4356.0	247.0	85180.5
6165/	813.0	968.0	1095.0	905.0	1190.0	2500.0	1213.0	1263.0	405.0	218.0	1478.0	951.0	245.0	880.0	4366.0	5424.0	497.0	499.0	2183.0	1152.0	1914.0	2462.0	1094.0	2079.0	2569.0	2022.0	1962.0	1458.0	2101.0	1781.0	528.0	331.0	297.0	1237.0	477.0	662.0	1857.0	2144.0	402.0	237.0	1079.0	2370.0	1280.0	1726.0	2405.0	1224.0	381.0	810.0	1171.0	667.0	414.0	1835.0	2176.0	2322.0	306.0	2314.0	863.0	1275.0	773.0	850.0	1478.0	420.0	559.0	981.0	1969.0	1164.0	1499.0	1538.0	1183.0	196.0	824.0	916.0	5116.0	217.0	100163.0
6167/	562.0	860.0	843.0	811.0	796.0	1601.0	863.0	836.0	303.0	128.0	1143.0	1067.0	216.0	613.0	2109.0	4584.0	252.0	354.0	1899.0	1010.0	1062.0	1837.0	693.0	1678.0	1453.0	1995.0	1944.0	1065.0	1745.0	1906.0	478.0	89.0	215.0	1027.0	398.0	492.0	1663.0	2050.0	158.0	97.0	1028.0	2069.0	1272.0	1346.0	1875.0	866.0	301.0	754.0	891.0	918.0	309.0	1303.0	1678.0	1474.0	300.0	2217.0	846.0	1045.0	775.0	377.0	1122.0	212.0	410.0	868.0	1562.0	783.0	1493.0	1218.0	899.0	210.0	537.0	936.0	3522.0	189.0	78499.6
6199/	640.0	650.0	1003.0	855.0	809.0	1768.0	757.0	818.0	272.0	209.0	1428.0	975.0	239.0	1022.0	2452.0	4666.0	304.0	332.0	1701.0	1289.0	1615.0	1650.0	868.0	1657.0	1789.0	1672.0	1651.0	1380.0	1681.0	1602.0	571.0	263.0	297.0	1209.0	337.0	632.0	1450.0	1569.0	238.0	183.0	1189.0	2109.0	1170.0	1434.0	2081.0	784.0	395.0	719.0	973.0	758.0	93.0	1237.0	1121.0	1600.0	125.0	2479.0	891.0	1212.0	436.0	642.0	1237.0	394.0	452.0	486.0	1294.0	980.0	1407.0	1087.0	755.0	96.0	633.0	379.0	4204.0	275.0	79627.3
6226/	721.0	819.0	974.0	979.0	641.0	1706.0	1073.0	1019.0	326.0	143.0	1100.0	898.0	195.0	551.0	2751.0	4383.0	336.0	414.0	1401.0	1266.0	1586.0	1460.0	853.0	1797.0	2102.0	2145.0	1584.0	1223.0	1814.0	1777.0	429.0	292.0	267.0	1273.0	366.0	516.0	1852.0	2233.0	229.0	98.0	1098.0	2043.0	1042.0	1149.0	1792.0	863.0	426.0	832.0	1116.0	507.0	211.0	1595.0	1325.0	2179.0	498.0	2742.0	317.0	1281.0	422.0	738.0	1434.0	325.0	460.0	894.0	1203.0	1347.0	1645.0	1079.0	1030.0	239.0	1133.0	376.0	3700.0	253.0	82886.3
6227/	658.0	756.0	1040.0	969.0	1041.0	2030.0	989.0	1200.0	393.0	128.0	1625.0	896.0	278.0	809.0	3226.0	5301.0	454.0	435.0	1450.0	1359.0	1600.0	2111.0	773.0	1755.0	1944.0	2229.0	2102.0	1439.0	1834.0	2072.0	506.0	309.0	329.0	1357.0	361.0	441.0	1924.0	2052.0	320.0	228.0	942.0	2476.0	1288.0	1756.0	2221.0	1071.0	322.0	873.0	1069.0	515.0	295.0	1434.0	1300.0	2109.0	390.0	2459.0	539.0	1105.0	663.0	978.0	1625.0	338.0	574.0	849.0	1295.0	1140.0	1984.0	1191.0	1148.0	261.0	917.0	815.0	3457.0	259.0	90378.5
6228/	686.0	969.0	1080.0	915.0	749.0	1812.0	1184.0	1177.0	465.0	261.0	1609.0	709.0	231.0	793.0	3358.0	5250.0	317.0	555.0	1499.0	1081.0	1506.0	2506.0	1007.0	1687.0	2195.0	2032.0	1453.0	1579.0	1766.0	1980.0	548.0	187.0	265.0	1190.0	338.0	530.0	2081.0	2397.0	297.0	255.0	990.0	2476.0	1065.0	2295.0	2556.0	1356.0	385.0	840.0	857.0	725.0	341.0	1454.0	1809.0	2016.0	460.0	1979.0	730.0	1296.0	463.0	741.0	1456.0	340.0	547.0	1047.0	1472.0	1317.0	2169.0	1088.0	1000.0	270.0	845.0	1272.0	4422.0	205.0	92784.3
6229/	736.0	1100.0	922.0	1126.0	1194.0	2286.0	1663.0	1322.0	555.0	264.0	1567.0	1029.0	234.0	958.0	3956.0	5182.0	388.0	543.0	2022.0	1481.0	1730.0	2121.0	1269.0	2223.0	2377.0	2037.0	2005.0	1442.0	2040.0	2363.0	539.0	294.0	339.0	1624.0	314.0	817.0	1476.0	2154.0	302.0	163.0	1180.0	2471.0	1200.0	2015.0	2324.0	939.0	445.0	979.0	1291.0	486.0	375.0	2060.0	1794.0	2119.0	738.0	2948.0	989.0	1469.0	398.0	899.0	1535.0	352.0	576.0	1109.0	1526.0	1529.0	2021.0	1392.0	1325.0	246.0	1417.0	437.0	4039.0	217.0	100992.0
6291/	504.0	584.0	575.0	788.0	422.0	1282.0	771.0	825.0	256.0	140.0	1048.0	1016.0	135.0	897.0	1656.0	3582.0	235.0	320.0	1290.0	895.0	966.0	1466.0	764.0	1228.0	1307.0	1735.0	928.0	1131.0	1174.0	1404.0	407.0	186.0	248.0	1046.0	341.0	508.0	1254.0	1415.0	227.0	116.0	1060.0	1521.0	854.0	1105.0	1575.0	634.0	290.0	625.0	896.0	444.0	415.0	1079.0	831.0	1459.0	538.0	1832.0	511.0	755.0	292.0	530.0	982.0	178.0	230.0	551.0	1273.0	887.0	1243.0	952.0	604.0	149.0	730.0	619.0	2746.0	190.0	63650.3
6347/	705.0	997.0	890.0	896.0	718.0	1799.0	970.0	873.0	322.0	194.0	1335.0	892.0	186.0	695.0	2900.0	5107.0	319.0	432.0	1585.0	1346.0	1257.0	2067.0	1044.0	1775.0	1948.0	2071.0	1663.0	1530.0	1843.0	1587.0	515.0	285.0	368.0	1226.0	451.0	592.0	1735.0	1864.0	215.0	179.0	1154.0	1998.0	1263.0	1689.0	2302.0	966.0	446.0	930.0	1060.0	772.0	322.0	1421.0	1140.0	1769.0	546.0	2031.0	921.0	890.0	634.0	615.0	1095.0	357.0	480.0	915.0	1567.0	946.0	1873.0	1027.0	1043.0	186.0	648.0	1030.0	3360.0	212.0	84981.8
6348/	739.0	829.0	863.0	802.0	551.0	1919.0	1057.0	951.0	303.0	145.0	1512.0	745.0	210.0	886.0	2185.0	3987.0	265.0	396.0	1298.0	1272.0	1526.0	1807.0	914.0	1547.0	1854.0	1617.0	1707.0	1338.0	1921.0	1831.0	480.0	219.0	223.0	1044.0	347.0	448.0	1728.0	1777.0	289.0	216.0	907.0	2109.0	1165.0	1434.0	2410.0	835.0	414.0	813.0	858.0	724.0	350.0	1346.0	986.0	1616.0	327.0	1994.0	856.0	903.0	236.0	599.0	1303.0	391.0	499.0	869.0	1721.0	837.0	1466.0	784.0	1274.0	201.0	616.0	959.0	3875.0	226.0	79653.0
6503/	631.0	1233.0	1102.0	1164.0	898.0	2219.0	1319.0	941.0	329.0	182.0	1717.0	1082.0	269.0	804.0	2964.0	4951.0	366.0	501.0	2321.0	1380.0	1772.0	2017.0	1120.0	1847.0	1924.0	2357.0	1847.0	1423.0	1690.0	1979.0	480.0	238.0	382.0	1255.0	447.0	760.0	1814.0	1985.0	299.0	131.0	1425.0	2756.0	1395.0	1570.0	2009.0	955.0	417.0	983.0	980.0	753.0	389.0	1589.0	1506.0	1934.0	171.0	2406.0	1035.0	1402.0	495.0	905.0	1713.0	260.0	613.0	874.0	1898.0	574.0	2609.0	1276.0	1109.0	324.0	694.0	768.0	4268.0	232.0	94427.3
6512/	623.0	892.0	829.0	932.0	787.0	1594.0	1008.0	833.0	380.0	211.0	1365.0	853.0	197.0	763.0	2413.0	4495.0	244.0	387.0	1143.0	1175.0	1395.0	1870.0	902.0	1491.0	2127.0	1472.0	2207.0	1195.0	1638.0	1546.0	498.0	189.0	314.0	1341.0	411.0	521.0	1534.0	1767.0	280.0	125.0	1092.0	1847.0	1088.0	1508.0	2026.0	1017.0	388.0	889.0	925.0	697.0	307.0	1549.0	1432.0	1648.0	228.0	2379.0	556.0	745.0	536.0	483.0	1560.0	337.0	426.0	787.0	745.0	1051.0	1508.0	1009.0	884.0	217.0	994.0	535.0	3321.0	205.0	78867.6
6613/	863.0	1310.0	1130.0	1154.0	880.0	2138.0	1392.0	1146.0	430.0	163.0	1491.0	934.0	288.0	804.0	3159.0	5118.0	363.0	455.0	1539.0	1213.0	1507.0	1864.0	863.0	1872.0	2526.0	2008.0	1925.0	1342.0	2165.0	2173.0	527.0	240.0	226.0	1144.0	487.0	653.0	1992.0	2246.0	290.0	60.0	992.0	2382.0	1075.0	1567.0	2334.0	1075.0	436.0	996.0	1058.0	681.0	368.0	1550.0	1944.0	2171.0	305.0	3050.0	844.0	1020.0	628.0	1027.0	1553.0	247.0	496.0	1091.0	1734.0	1295.0	1142.0	1366.0	1401.0	363.0	1153.0	1174.0	4197.0	166.0	94957.9
6636/	272.0	377.0	526.0	477.0	131.0	258.0	285.0	368.0	233.0	85.0	413.0	527.0	197.0	421.0	1165.0	2228.0	200.0	190.0	492.0	485.0	557.0	696.0	673.0	935.0	1344.0	1056.0	1066.0	787.0	800.0	1057.0	117.0	0.0	100.0	388.0	124.0	276.0	575.0	892.0	122.0	0.0	747.0	777.0	316.0	599.0	1044.0	611.0	250.0	273.0	354.0	190.0	74.0	657.0	567.0	889.0	75.0	1076.0	160.0	545.0	167.0	243.0	314.0	56.0	129.0	331.0	621.0	535.0	660.0	708.0	392.0	0.0	545.0	194.0	1961.0	31.0	36987.7
6685/	151.0	198.0	179.0	290.0	211.0	71.0	0.0	0.0	38.0	76.0	366.0	239.0	72.0	223.0	683.0	297.0	80.0	79.0	440.0	355.0	463.0	377.0	867.0	604.0	468.0	424.0	768.0	380.0	366.0	667.0	132.0	120.0	28.0	360.0	118.0	160.0	405.0	551.0	63.0	15.0	193.0	590.0	163.0	460.0	423.0	40.0	119.0	240.0	267.0	92.0	55.0	397.0	341.0	337.0	51.0	738.0	147.0	330.0	169.0	138.0	77.0	0.0	216.0	135.0	537.0	79.0	503.0	339.0	271.0	15.0	212.0	91.0	1225.0	35.0	20403.0
6712/	625.0	841.0	859.0	658.0	526.0	1700.0	924.0	925.0	267.0	145.0	1100.0	610.0	193.0	519.0	2528.0	3473.0	270.0	242.0	1193.0	1052.0	1078.0	1776.0	996.0	1408.0	2218.0	1557.0	1314.0	1338.0	1481.0	1725.0	470.0	162.0	179.0	914.0	296.0	421.0	1195.0	1650.0	198.0	86.0	907.0	1667.0	1127.0	1874.0	1687.0	982.0	281.0	590.0	733.0	685.0	323.0	1160.0	1294.0	1437.0	103.0	1981.0	472.0	643.0	414.0	315.0	977.0	261.0	397.0	585.0	1147.0	852.0	1355.0	859.0	771.0	221.0	670.0	547.0	3632.0	196.0	70255.7
6730/	659.0	902.0	946.0	864.0	648.0	1710.0	896.0	935.0	336.0	147.0	1225.0	1055.0	202.0	761.0	2764.0	4477.0	280.0	428.0	1516.0	852.0	997.0	1438.0	795.0	1813.0	1979.0	1785.0	1686.0	1412.0	1588.0	1550.0	503.0	262.0	286.0	1364.0	375.0	627.0	1704.0	2069.0	276.0	184.0	1104.0	1897.0	1127.0	1098.0	1930.0	926.0	401.0	753.0	889.0	566.0	288.0	1499.0	1096.0	1761.0	610.0	2290.0	697.0	698.0	385.0	615.0	1415.0	294.0	622.0	795.0	1341.0	1014.0	1691.0	1317.0	641.0	265.0	1005.0	850.0	4261.0	204.0	80640.1
6731/	602.0	838.0	782.0	973.0	657.0	2018.0	1074.0	1033.0	329.0	159.0	1500.0	1022.0	333.0	943.0	3468.0	4585.0	324.0	382.0	1397.0	1198.0	1270.0	1931.0	1017.0	1622.0	2090.0	2074.0	1839.0	1462.0	1867.0	2190.0	529.0	385.0	239.0	1368.0	434.0	674.0	1578.0	2192.0	303.0	129.0	937.0	2377.0	1291.0	1194.0	1905.0	768.0	370.0	724.0	1011.0	497.0	451.0	1901.0	1268.0	2027.0	378.0	2490.0	459.0	1019.0	505.0	886.0	1566.0	284.0	586.0	847.0	1594.0	1100.0	1723.0	1283.0	805.0	300.0	1161.0	689.0	4431.0	223.0	87862.7
6732/	674.0	876.0	1044.0	688.0	659.0	2108.0	1352.0	1039.0	419.0	160.0	1368.0	826.0	258.0	753.0	2977.0	4319.0	334.0	445.0	1657.0	1296.0	629.0	1999.0	575.0	1503.0	2102.0	1511.0	1410.0	1319.0	1808.0	1580.0	462.0	317.0	256.0	1094.0	540.0	553.0	1855.0	1999.0	228.0	66.0	905.0	2210.0	1030.0	1517.0	1956.0	1029.0	517.0	755.0	763.0	360.0	462.0	1203.0	1512.0	2296.0	477.0	2034.0	545.0	1136.0	532.0	277.0	1271.0	267.0	515.0	852.0	1668.0	1215.0	1602.0	1162.0	1011.0	81.0	803.0	586.0	3667.0	194.0	81467.7
6738/	750.0	940.0	869.0	1203.0	925.0	2387.0	1237.0	1321.0	512.0	311.0	1653.0	1108.0	337.0	748.0	3908.0	5989.0	337.0	516.0	1821.0	1534.0	1686.0	2334.0	1067.0	2147.0	2558.0	2122.0	1998.0	1550.0	2363.0	1947.0	589.0	277.0	341.0	1615.0	585.0	846.0	2056.0	2420.0	302.0	173.0	1252.0	2952.0	1075.0	2415.0	2607.0	961.0	464.0	964.0	1063.0	819.0	562.0	1907.0	2062.0	2433.0	528.0	2749.0	1115.0	1142.0	506.0	682.0	1648.0	305.0	757.0	1109.0	1765.0	1343.0	1970.0	1588.0	1290.0	292.0	773.0	776.0	4995.0	271.0	104524.0
6741/	657.0	969.0	990.0	892.0	691.0	2110.0	975.0	1045.0	403.0	248.0	1582.0	820.0	249.0	930.0	2435.0	5207.0	341.0	431.0	1423.0	923.0	1303.0	1894.0	931.0	1822.0	1726.0	2293.0	1815.0	1425.0	2025.0	1661.0	608.0	225.0	405.0	1160.0	493.0	503.0	1597.0	2054.0	460.0	193.0	1026.0	2375.0	1175.0	1877.0	2061.0	1023.0	412.0	789.0	1125.0	828.0	313.0	1245.0	1438.0	2025.0	315.0	1834.0	657.0	1056.0	545.0	378.0	1127.0	357.0	764.0	1054.0	1509.0	1213.0	1680.0	1268.0	1331.0	263.0	883.0	764.0	4020.0	218.0	86857.9
6752/	144.0	497.0	402.0	336.0	187.0	366.0	196.0	213.0	36.0	0.0	316.0	377.0	98.0	217.0	761.0	1238.0	54.0	53.0	1020.0	1032.0	521.0	87.0	0.0	474.0	760.0	490.0	478.0	582.0	587.0	428.0	86.0	83.0	34.0	299.0	83.0	108.0	693.0	955.0	49.0	0.0	173.0	923.0	73.0	158.0	795.0	372.0	84.0	167.0	260.0	78.0	46.0	471.0	355.0	594.0	294.0	942.0	90.0	356.0	193.0	180.0	101.0	79.0	51.0	155.0	289.0	43.0	414.0	429.0	262.0	1.0	169.0	160.0	1612.0	3.0	24708.6
6802/	687.0	911.0	911.0	1016.0	790.0	2173.0	1454.0	1292.0	378.0	248.0	1758.0	969.0	271.0	954.0	3100.0	4269.0	312.0	351.0	1493.0	1241.0	1518.0	2052.0	995.0	1800.0	1868.0	1742.0	1855.0	1515.0	1836.0	1698.0	513.0	254.0	239.0	1089.0	420.0	413.0	1294.0	1891.0	399.0	195.0	997.0	2350.0	1112.0	2155.0	2169.0	974.0	523.0	805.0	1015.0	558.0	482.0	1789.0	1407.0	1745.0	223.0	2356.0	625.0	1209.0	388.0	786.0	1215.0	505.0	521.0	943.0	1618.0	965.0	1551.0	1698.0	834.0	127.0	664.0	665.0	4028.0	184.0	87349.7
6863/	708.0	1111.0	1039.0	1003.0	959.0	1691.0	1062.0	829.0	294.0	152.0	1496.0	809.0	307.0	594.0	3386.0	4541.0	272.0	497.0	1903.0	1345.0	2049.0	1768.0	935.0	1930.0	2095.0	2461.0	2248.0	1679.0	1899.0	1922.0	522.0	387.0	268.0	1434.0	299.0	640.0	1357.0	2101.0	249.0	97.0	1094.0	2128.0	1115.0	1393.0	2097.0	977.0	387.0	753.0	1038.0	646.0	268.0	1624.0	2128.0	2106.0	492.0	2596.0	930.0	1158.0	536.0	745.0	1351.0	232.0	539.0	1110.0	1779.0	1108.0	1522.0	1487.0	662.0	304.0	1017.0	698.0	3824.0	191.0	90373.0
6888/	759.0	918.0	1077.0	1188.0	1116.0	2095.0	1141.0	1306.0	245.0	188.0	1557.0	885.0	269.0	688.0	3030.0	4996.0	391.0	399.0	1779.0	1248.0	1171.0	1948.0	827.0	1988.0	2142.0	1789.0	2050.0	1518.0	1976.0	1981.0	535.0	232.0	281.0	1500.0	375.0	515.0	1958.0	2020.0	222.0	96.0	892.0	2152.0	1234.0	1579.0	2407.0	1187.0	412.0	890.0	1155.0	543.0	399.0	1591.0	1626.0	1562.0	250.0	2105.0	898.0	1313.0	550.0	746.0	1596.0	317.0	556.0	1110.0	1643.0	757.0	1913.0	1296.0	975.0	244.0	745.0	795.0	4380.0	236.0	90446.4
6908/	703.0	772.0	1174.0	989.0	813.0	1957.0	1022.0	1188.0	415.0	118.0	1326.0	1090.0	217.0	748.0	3366.0	4620.0	365.0	614.0	1747.0	1136.0	1091.0	1909.0	866.0	1697.0	2215.0	1803.0	1749.0	1424.0	1869.0	1515.0	511.0	298.0	257.0	1352.0	332.0	431.0	1812.0	2274.0	329.0	138.0	848.0	1806.0	988.0	1522.0	2236.0	892.0	355.0	808.0	1035.0	659.0	375.0	1674.0	1613.0	2153.0	354.0	2600.0	640.0	863.0	707.0	373.0	1183.0	295.0	535.0	902.0	1508.0	971.0	1517.0	1239.0	961.0	358.0	624.0	572.0	3554.0	222.0	85187.4
6909/	512.0	778.0	770.0	888.0	444.0	1897.0	1185.0	1038.0	425.0	184.0	1234.0	930.0	270.0	831.0	2396.0	4226.0	308.0	442.0	1460.0	1017.0	1085.0	1907.0	869.0	1972.0	1552.0	1804.0	1326.0	1204.0	1671.0	1689.0	446.0	267.0	361.0	1136.0	435.0	677.0	1453.0	1790.0	334.0	159.0	1246.0	1968.0	1097.0	1271.0	1802.0	751.0	417.0	745.0	1093.0	507.0	460.0	1674.0	1396.0	1973.0	218.0	1723.0	565.0	932.0	449.0	637.0	1506.0	525.0	457.0	1059.0	1420.0	1003.0	1557.0	1200.0	1244.0	211.0	915.0	601.0	3784.0	194.0	79969.9
6955/	731.0	1244.0	936.0	1042.0	1125.0	2047.0	1149.0	1017.0	292.0	205.0	1070.0	881.0	238.0	1086.0	2930.0	5357.0	380.0	474.0	2033.0	1529.0	1328.0	2528.0	1371.0	1780.0	2286.0	1873.0	1726.0	1451.0	1787.0	1839.0	494.0	235.0	201.0	1311.0	327.0	479.0	1759.0	2279.0	282.0	193.0	867.0	2682.0	1241.0	1911.0	2240.0	1230.0	391.0	923.0	938.0	868.0	307.0	1647.0	1324.0	1769.0	120.0	2511.0	957.0	1202.0	632.0	846.0	1394.0	310.0	410.0	1002.0	1272.0	1214.0	1547.0	1234.0	956.0	301.0	1028.0	1003.0	4736.0	166.0	92467.2
6957/	572.0	664.0	723.0	899.0	518.0	1603.0	867.0	797.0	246.0	146.0	1013.0	723.0	200.0	554.0	2168.0	4014.0	266.0	318.0	1149.0	1192.0	1130.0	1888.0	996.0	1648.0	1600.0	1878.0	1341.0	1139.0	1613.0	1449.0	464.0	225.0	242.0	1346.0	344.0	397.0	1316.0	1809.0	213.0	123.0	811.0	1717.0	1059.0	1330.0	1981.0	666.0	427.0	887.0	763.0	686.0	369.0	1149.0	992.0	1696.0	417.0	1962.0	621.0	1097.0	436.0	591.0	1167.0	342.0	404.0	858.0	1188.0	942.0	1625.0	1030.0	703.0	270.0	932.0	841.0	4155.0	230.0	74136.5
6958/	578.0	1028.0	830.0	684.0	781.0	1905.0	887.0	873.0	312.0	189.0	1337.0	831.0	354.0	777.0	2625.0	5099.0	333.0	358.0	1575.0	1137.0	1270.0	1938.0	962.0	1590.0	2101.0	1881.0	1291.0	1179.0	1730.0	1438.0	497.0	216.0	230.0	1350.0	532.0	529.0	1541.0	1892.0	288.0	131.0	930.0	2243.0	1075.0	1707.0	1974.0	948.0	320.0	908.0	906.0	858.0	317.0	1357.0	1492.0	1908.0	596.0	2148.0	813.0	862.0	536.0	584.0	1226.0	250.0	572.0	799.0	1156.0	973.0	1274.0	1010.0	821.0	54.0	845.0	891.0	4222.0	217.0	81865.9
6964/	668.0	812.0	685.0	868.0	626.0	1583.0	972.0	730.0	245.0	180.0	995.0	1052.0	177.0	548.0	2548.0	4241.0	369.0	413.0	1593.0	1062.0	963.0	1745.0	947.0	1930.0	1816.0	1871.0	1213.0	1278.0	1376.0	1402.0	573.0	273.0	236.0	1022.0	432.0	488.0	1517.0	2114.0	276.0	110.0	877.0	1621.0	1000.0	1265.0	1708.0	715.0	421.0	855.0	985.0	507.0	344.0	1027.0	1075.0	2024.0	473.0	1696.0	644.0	907.0	537.0	469.0	1315.0	151.0	530.0	1024.0	1212.0	1060.0	1423.0	1105.0	649.0	123.0	921.0	514.0	4200.0	176.0	75501.3
6965/	675.0	908.0	925.0	1079.0	1024.0	2331.0	1245.0	1441.0	468.0	254.0	1406.0	1035.0	251.0	860.0	2942.0	5349.0	395.0	601.0	2236.0	1305.0	1648.0	1936.0	1007.0	2037.0	2534.0	2168.0	1841.0	1285.0	2106.0	1972.0	545.0	49.0	372.0	1324.0	518.0	500.0	2120.0	2266.0	331.0	126.0	1005.0	1887.0	1190.0	1419.0	2177.0	946.0	426.0	851.0	1125.0	859.0	292.0	1503.0	1362.0	2067.0	429.0	2569.0	786.0	1329.0	504.0	812.0	1645.0	272.0	546.0	1218.0	1812.0	1293.0	1806.0	847.0	1442.0	196.0	1089.0	1058.0	4679.0	211.0	95069.4
6983/	770.0	824.0	833.0	755.0	1093.0	1871.0	1033.0	1045.0	360.0	263.0	1692.0	877.0	295.0	821.0	2487.0	4147.0	312.0	428.0	1289.0	1502.0	1405.0	2406.0	949.0	1997.0	2067.0	1565.0	1876.0	1683.0	1858.0	1995.0	518.0	255.0	302.0	1242.0	368.0	569.0	1746.0	2408.0	337.0	173.0	1039.0	2286.0	1148.0	2162.0	2572.0	1027.0	429.0	965.0	936.0	794.0	379.0	1319.0	2290.0	2067.0	476.0	2477.0	514.0	1284.0	604.0	872.0	1380.0	299.0	521.0	1146.0	1599.0	1074.0	1650.0	876.0	1145.0	310.0	772.0	796.0	4559.0	215.0	90398.7
6985/	556.0	770.0	774.0	801.0	706.0	1600.0	1188.0	909.0	280.0	191.0	1216.0	799.0	329.0	672.0	2466.0	4493.0	288.0	485.0	1347.0	821.0	902.0	1948.0	994.0	1726.0	2096.0	1563.0	1703.0	1088.0	1650.0	1969.0	501.0	211.0	201.0	1094.0	443.0	592.0	1630.0	2052.0	212.0	167.0	931.0	1879.0	1007.0	1757.0	2205.0	818.0	426.0	767.0	907.0	726.0	369.0	1373.0	1276.0	1659.0	603.0	2164.0	645.0	894.0	318.0	496.0	1209.0	276.0	622.0	934.0	1067.0	935.0	1215.0	1094.0	776.0	233.0	879.0	894.0	4196.0	162.0	79144.9
7041/	44.0	18.0	209.0	171.0	62.0	178.0	96.0	78.0	0.0	0.0	0.0	108.0	34.0	37.0	237.0	583.0	49.0	55.0	493.0	95.0	0.0	0.0	61.0	281.0	274.0	246.0	220.0	197.0	169.0	86.0	79.0	60.0	11.0	102.0	21.0	46.0	2.0	167.0	30.0	9.0	130.0	67.0	0.0	0.0	231.0	105.0	41.0	83.0	136.0	0.0	0.0	137.0	113.0	148.0	37.0	270.0	68.0	130.0	134.0	0.0	0.0	22.0	41.0	90.0	0.0	67.0	206.0	125.0	93.0	0.0	33.0	7.0	490.0	9.0	7616.9
7055/	78.0	141.0	45.0	145.0	111.0	89.0	0.0	0.0	0.0	0.0	0.0	143.0	35.0	105.0	554.0	539.0	12.0	68.0	311.0	195.0	67.0	55.0	0.0	219.0	461.0	369.0	391.0	327.0	481.0	44.0	0.0	0.0	27.0	244.0	29.0	190.0	82.0	189.0	24.0	15.0	209.0	292.0	24.0	0.0	531.0	0.0	73.0	185.0	321.0	0.0	2.0	377.0	274.0	535.0	38.0	322.0	138.0	163.0	125.0	31.0	6.0	28.0	11.0	111.0	0.0	0.0	320.0	355.0	475.0	0.0	0.0	99.0	912.0	7.0	11750.6
7105/	561.0	931.0	795.0	1050.0	495.0	1713.0	1004.0	963.0	300.0	203.0	1400.0	868.0	303.0	515.0	2502.0	3821.0	320.0	305.0	1147.0	1223.0	1206.0	1889.0	715.0	1523.0	1822.0	1254.0	1423.0	1227.0	1798.0	1387.0	420.0	254.0	214.0	1217.0	352.0	400.0	1316.0	1775.0	268.0	127.0	854.0	2032.0	1069.0	1788.0	2163.0	709.0	328.0	775.0	858.0	306.0	366.0	1295.0	1130.0	1522.0	153.0	1872.0	606.0	849.0	350.0	523.0	767.0	243.0	439.0	842.0	1248.0	969.0	1370.0	1156.0	900.0	170.0	547.0	631.0	3479.0	144.0	73451.6
7106/	521.0	733.0	853.0	802.0	643.0	1893.0	1032.0	796.0	324.0	151.0	1164.0	739.0	352.0	940.0	2184.0	4854.0	247.0	409.0	1152.0	1036.0	1016.0	1598.0	724.0	1576.0	1915.0	1727.0	1504.0	1198.0	1776.0	1520.0	478.0	230.0	225.0	1160.0	354.0	464.0	1717.0	2137.0	366.0	175.0	941.0	1788.0	1079.0	1491.0	2200.0	752.0	367.0	794.0	973.0	428.0	382.0	1148.0	1306.0	1433.0	287.0	1948.0	214.0	858.0	508.0	497.0	1233.0	313.0	421.0	843.0	1207.0	1042.0	1334.0	954.0	1065.0	172.0	492.0	714.0	3498.0	217.0	75577.6
7108/	622.0	839.0	751.0	769.0	864.0	1834.0	945.0	914.0	431.0	200.0	871.0	719.0	156.0	546.0	2278.0	4015.0	293.0	374.0	1247.0	862.0	1429.0	2209.0	718.0	1642.0	2423.0	1525.0	2036.0	1356.0	1808.0	2283.0	434.0	92.0	272.0	1311.0	446.0	405.0	1133.0	1936.0	305.0	141.0	933.0	1944.0	1260.0	1494.0	2330.0	768.0	367.0	707.0	926.0	448.0	354.0	1202.0	1309.0	1437.0	204.0	2528.0	534.0	986.0	583.0	652.0	1402.0	153.0	288.0	952.0	754.0	1066.0	1526.0	1130.0	722.0	260.0	1302.0	637.0	4000.0	230.0	78819.6
7118/	162.0	0.0	0.0	126.0	250.0	25.0	143.0	106.0	0.0	0.0	0.0	208.0	24.0	183.0	776.0	944.0	93.0	90.0	0.0	0.0	82.0	0.0	211.0	435.0	442.0	609.0	27.0	422.0	320.0	0.0	0.0	0.0	31.0	300.0	82.0	146.0	180.0	480.0	78.0	88.0	273.0	0.0	186.0	0.0	377.0	0.0	76.0	485.0	802.0	83.0	0.0	469.0	322.0	590.0	94.0	493.0	0.0	0.0	25.0	40.0	63.0	63.0	5.0	331.0	0.0	12.0	569.0	371.0	401.0	0.0	0.0	141.0	1270.0	89.0	14693.6
7148/	229.0	171.0	278.0	184.0	200.0	466.0	181.0	226.0	1.0	0.0	119.0	229.0	32.0	239.0	362.0	1064.0	123.0	99.0	372.0	195.0	166.0	29.0	595.0	446.0	398.0	477.0	490.0	436.0	508.0	249.0	310.0	224.0	65.0	289.0	94.0	144.0	333.0	411.0	49.0	25.0	263.0	508.0	223.0	0.0	525.0	192.0	165.0	155.0	201.0	68.0	58.0	155.0	212.0	302.0	83.0	562.0	106.0	140.0	134.0	68.0	63.0	5.0	138.0	91.0	102.0	30.0	427.0	355.0	282.0	64.0	79.0	39.0	944.0	37.0	17282.5
7151/	733.0	1017.0	788.0	982.0	580.0	1922.0	1082.0	958.0	363.0	218.0	1488.0	1161.0	267.0	808.0	2521.0	5675.0	277.0	499.0	1521.0	1531.0	1655.0	2142.0	815.0	1911.0	1783.0	1944.0	1874.0	1329.0	1950.0	1960.0	670.0	266.0	303.0	1460.0	378.0	641.0	1577.0	2201.0	355.0	182.0	1007.0	2319.0	1163.0	1833.0	2286.0	898.0	314.0	898.0	1001.0	431.0	585.0	1324.0	1317.0	1700.0	394.0	2070.0	897.0	1100.0	574.0	935.0	1409.0	270.0	697.0	1002.0	1561.0	1169.0	1749.0	1378.0	874.0	311.0	829.0	872.0	4985.0	280.0	90221.8
7152/	566.0	786.0	842.0	756.0	779.0	1615.0	880.0	874.0	336.0	202.0	1207.0	718.0	215.0	678.0	2035.0	4160.0	340.0	381.0	1412.0	937.0	1270.0	1707.0	801.0	1760.0	1707.0	1635.0	1389.0	1115.0	1380.0	1444.0	532.0	231.0	226.0	1053.0	289.0	347.0	1538.0	1670.0	228.0	142.0	974.0	2058.0	1029.0	1789.0	2086.0	875.0	412.0	838.0	1012.0	350.0	211.0	1042.0	1108.0	1853.0	357.0	1963.0	780.0	945.0	353.0	457.0	1122.0	315.0	599.0	791.0	1408.0	823.0	1305.0	690.0	773.0	317.0	510.0	682.0	3141.0	208.0	73359.8
7163/	716.0	1330.0	908.0	767.0	926.0	2124.0	1381.0	1281.0	508.0	204.0	1636.0	957.0	299.0	895.0	3075.0	4538.0	300.0	490.0	1756.0	1702.0	1398.0	2082.0	829.0	1701.0	2392.0	1891.0	1404.0	1604.0	1883.0	1860.0	476.0	257.0	306.0	1432.0	415.0	488.0	1554.0	2461.0	297.0	90.0	912.0	2420.0	1259.0	1702.0	2238.0	859.0	414.0	939.0	884.0	697.0	369.0	2468.0	1741.0	1958.0	506.0	2087.0	738.0	1160.0	428.0	736.0	1498.0	358.0	401.0	1009.0	1311.0	792.0	1691.0	1185.0	845.0	222.0	740.0	886.0	5091.0	246.0	91401.9
7168/	908.0	847.0	1000.0	1211.0	1342.0	2020.0	1313.0	1257.0	389.0	175.0	1512.0	977.0	255.0	581.0	3450.0	6265.0	333.0	393.0	2212.0	1402.0	971.0	2293.0	904.0	2277.0	3128.0	2088.0	1961.0	1488.0	1880.0	1680.0	620.0	235.0	300.0	1599.0	663.0	607.0	2062.0	2610.0	294.0	189.0	1045.0	2702.0	1387.0	1627.0	2156.0	1117.0	467.0	869.0	1185.0	674.0	586.0	1615.0	1782.0	2688.0	410.0	2383.0	819.0	1352.0	650.0	595.0	1762.0	211.0	475.0	1270.0	1418.0	1383.0	2107.0	1289.0	1104.0	267.0	700.0	932.0	5057.0	214.0	99985.7
7170/	780.0	1168.0	1160.0	1133.0	901.0	2306.0	1264.0	1172.0	424.0	167.0	1281.0	1020.0	361.0	835.0	3361.0	4938.0	335.0	473.0	1777.0	1352.0	1343.0	1542.0	952.0	2044.0	2068.0	1909.0	1475.0	1602.0	1820.0	2012.0	508.0	345.0	365.0	1310.0	566.0	610.0	1782.0	2326.0	323.0	207.0	1151.0	2840.0	1187.0	1526.0	2179.0	955.0	471.0	766.0	1297.0	880.0	420.0	1479.0	2375.0	2293.0	256.0	2085.0	921.0	1254.0	618.0	983.0	1386.0	334.0	472.0	1025.0	1594.0	1645.0	1534.0	965.0	1314.0	218.0	1010.0	980.0	5346.0	333.0	95412.9
7206/	711.0	585.0	751.0	983.0	576.0	1797.0	1052.0	900.0	396.0	153.0	1097.0	827.0	356.0	555.0	2287.0	3998.0	305.0	315.0	1466.0	1141.0	1397.0	1797.0	929.0	1843.0	1978.0	1951.0	1783.0	1023.0	1490.0	1424.0	499.0	230.0	287.0	1205.0	466.0	719.0	1444.0	1812.0	194.0	207.0	1048.0	1689.0	1071.0	1426.0	1842.0	906.0	441.0	772.0	860.0	763.0	211.0	1350.0	1429.0	1591.0	527.0	2089.0	624.0	1346.0	350.0	706.0	1377.0	310.0	554.0	1004.0	1293.0	896.0	1760.0	909.0	867.0	240.0	614.0	664.0	3987.0	157.0	78599.0
7207/	580.0	820.0	794.0	885.0	890.0	1823.0	781.0	938.0	369.0	161.0	1334.0	825.0	273.0	835.0	2504.0	4603.0	244.0	251.0	1552.0	1102.0	1141.0	2133.0	825.0	1988.0	2084.0	1787.0	1557.0	1233.0	1402.0	2007.0	549.0	263.0	289.0	1218.0	585.0	644.0	1577.0	1882.0	281.0	140.0	1034.0	1773.0	1043.0	1500.0	1707.0	868.0	408.0	712.0	825.0	659.0	315.0	1482.0	1350.0	1626.0	188.0	1902.0	660.0	1045.0	438.0	417.0	1414.0	334.0	500.0	1067.0	1341.0	896.0	1504.0	1348.0	671.0	238.0	767.0	611.0	4148.0	207.0	80147.2
7229/	677.0	662.0	848.0	986.0	722.0	2343.0	1129.0	1013.0	262.0	130.0	1299.0	942.0	375.0	878.0	2748.0	5184.0	289.0	316.0	1566.0	1117.0	996.0	2318.0	739.0	1764.0	1969.0	1640.0	1513.0	1472.0	1667.0	2034.0	494.0	247.0	254.0	1395.0	436.0	488.0	1856.0	2152.0	304.0	75.0	993.0	1940.0	1279.0	1654.0	2110.0	934.0	332.0	673.0	958.0	768.0	283.0	1503.0	862.0	1881.0	397.0	2073.0	511.0	920.0	458.0	650.0	1076.0	291.0	518.0	905.0	1195.0	925.0	1883.0	1140.0	731.0	164.0	687.0	841.0	4460.0	194.0	83489.5
7230/	758.0	1002.0	1315.0	1151.0	712.0	2243.0	1040.0	1115.0	338.0	252.0	1697.0	1031.0	220.0	875.0	3002.0	5264.0	321.0	405.0	1526.0	1587.0	1319.0	2436.0	925.0	1826.0	2484.0	2524.0	1829.0	1927.0	2219.0	1720.0	527.0	140.0	361.0	1623.0	481.0	525.0	1603.0	2315.0	425.0	237.0	1009.0	2291.0	1007.0	2256.0	2341.0	916.0	468.0	769.0	968.0	807.0	251.0	1401.0	1263.0	1795.0	529.0	2235.0	813.0	1260.0	368.0	596.0	1285.0	212.0	499.0	993.0	1300.0	893.0	1678.0	1664.0	872.0	180.0	581.0	578.0	4619.0	257.0	92255.4
7286/	631.0	1251.0	701.0	874.0	883.0	1896.0	909.0	759.0	445.0	210.0	1334.0	932.0	179.0	754.0	2984.0	4891.0	311.0	522.0	1300.0	1208.0	1216.0	1861.0	1069.0	1945.0	1659.0	2872.0	1756.0	1480.0	1796.0	1743.0	588.0	207.0	329.0	1398.0	618.0	655.0	1548.0	1955.0	299.0	162.0	1167.0	2200.0	1175.0	1540.0	1848.0	848.0	527.0	862.0	1151.0	860.0	302.0	1770.0	1392.0	1783.0	176.0	2497.0	246.0	1330.0	771.0	625.0	1132.0	301.0	539.0	887.0	1296.0	933.0	1722.0	1345.0	1050.0	207.0	937.0	657.0	4115.0	170.0	86490.3
7287/	630.0	1137.0	888.0	1189.0	792.0	2176.0	1001.0	1060.0	351.0	151.0	1348.0	1026.0	278.0	967.0	3794.0	5240.0	397.0	491.0	1370.0	1235.0	1076.0	1871.0	1077.0	2078.0	1795.0	2589.0	1997.0	1461.0	1997.0	2445.0	536.0	282.0	391.0	1440.0	574.0	839.0	1851.0	2451.0	408.0	294.0	1249.0	2002.0	1212.0	1756.0	2103.0	1254.0	527.0	999.0	1225.0	960.0	691.0	1507.0	1909.0	2380.0	373.0	2343.0	701.0	908.0	582.0	566.0	1244.0	404.0	616.0	1049.0	1551.0	838.0	1604.0	1185.0	1345.0	241.0	1056.0	948.0	4637.0	225.0	95161.4
7289/	658.0	645.0	907.0	975.0	836.0	2181.0	1032.0	1035.0	355.0	190.0	1454.0	1042.0	234.0	1049.0	2594.0	4666.0	320.0	502.0	1359.0	1233.0	1270.0	2205.0	867.0	2046.0	1945.0	2120.0	1807.0	1577.0	1636.0	1858.0	588.0	269.0	296.0	1297.0	529.0	654.0	1625.0	2248.0	297.0	248.0	1178.0	2327.0	1320.0	1611.0	2116.0	931.0	456.0	839.0	1047.0	683.0	376.0	1594.0	1861.0	2066.0	313.0	2425.0	351.0	1091.0	321.0	677.0	1318.0	322.0	626.0	1089.0	1577.0	995.0	1802.0	1112.0	787.0	165.0	972.0	790.0	4020.0	267.0	88069.6
7290/	633.0	809.0	636.0	774.0	852.0	1729.0	958.0	940.0	234.0	177.0	1191.0	861.0	298.0	647.0	1840.0	5012.0	238.0	414.0	1223.0	940.0	886.0	1402.0	963.0	1511.0	1381.0	1698.0	1434.0	1122.0	1564.0	1491.0	539.0	204.0	211.0	1246.0	399.0	645.0	1352.0	1599.0	262.0	87.0	957.0	1875.0	1087.0	1448.0	1772.0	821.0	488.0	788.0	981.0	640.0	326.0	1146.0	1461.0	1711.0	244.0	1922.0	245.0	944.0	377.0	389.0	821.0	304.0	449.0	755.0	1154.0	622.0	1501.0	909.0	1310.0	194.0	812.0	395.0	3485.0	189.0	72923.7
7293/	653.0	1121.0	806.0	896.0	817.0	1523.0	839.0	790.0	354.0	202.0	1286.0	870.0	259.0	828.0	2871.0	4249.0	354.0	441.0	1419.0	1180.0	1104.0	1650.0	750.0	1603.0	1600.0	2126.0	1869.0	1562.0	1501.0	1754.0	523.0	183.0	254.0	1052.0	461.0	598.0	1831.0	1620.0	347.0	197.0	920.0	1955.0	1206.0	1448.0	1908.0	870.0	308.0	794.0	1039.0	728.0	450.0	1384.0	1344.0	2039.0	250.0	2153.0	646.0	857.0	572.0	461.0	1101.0	165.0	427.0	753.0	1491.0	782.0	1797.0	1245.0	954.0	105.0	704.0	758.0	3367.0	192.0	79513.3
7321/	857.0	515.0	857.0	845.0	846.0	2199.0	1274.0	1098.0	414.0	212.0	1311.0	625.0	301.0	651.0	3295.0	3867.0	299.0	528.0	1357.0	1019.0	1007.0	2007.0	1026.0	1936.0	2308.0	1482.0	1874.0	1303.0	1753.0	1921.0	403.0	278.0	207.0	1071.0	459.0	367.0	1833.0	2102.0	223.0	122.0	896.0	2395.0	1104.0	1586.0	1903.0	918.0	509.0	739.0	915.0	813.0	437.0	1681.0	1833.0	1547.0	183.0	2149.0	810.0	555.0	398.0	504.0	1198.0	236.0	486.0	1053.0	1257.0	1291.0	1777.0	1156.0	1093.0	163.0	756.0	1039.0	4251.0	194.0	83876.9
7341/	684.0	1012.0	1080.0	791.0	653.0	2219.0	1288.0	1176.0	290.0	138.0	1600.0	1085.0	253.0	799.0	2634.0	4265.0	289.0	457.0	1457.0	1199.0	1281.0	2033.0	828.0	1560.0	2073.0	1794.0	1745.0	1241.0	1625.0	1625.0	502.0	272.0	245.0	1219.0	500.0	359.0	1475.0	2167.0	336.0	131.0	872.0	1846.0	1174.0	1979.0	1991.0	991.0	403.0	706.0	968.0	771.0	386.0	1227.0	1498.0	1747.0	275.0	2216.0	496.0	942.0	351.0	483.0	1019.0	279.0	558.0	786.0	1416.0	896.0	1162.0	1170.0	922.0	248.0	484.0	604.0	4149.0	239.0	81637.4
7359/	32.0	0.0	134.0	218.0	227.0	171.0	0.0	0.0	0.0	0.0	190.0	169.0	8.0	138.0	706.0	737.0	15.0	63.0	28.0	55.0	0.0	68.0	669.0	184.0	484.0	805.0	609.0	568.0	576.0	248.0	139.0	59.0	38.0	29.0	22.0	89.0	0.0	0.0	36.0	0.0	237.0	54.0	0.0	105.0	942.0	64.0	18.0	50.0	231.0	0.0	0.0	428.0	504.0	561.0	167.0	758.0	0.0	50.0	0.0	0.0	0.0	30.0	131.0	9.0	188.0	0.0	734.0	753.0	311.0	61.0	164.0	0.0	126.0	35.0	14223.7
7366/	862.0	942.0	1137.0	1261.0	875.0	2209.0	979.0	959.0	317.0	154.0	1346.0	927.0	223.0	762.0	3021.0	5172.0	377.0	451.0	1364.0	1050.0	1653.0	1642.0	1193.0	1850.0	2107.0	2190.0	1116.0	1811.0	2144.0	1452.0	543.0	267.0	279.0	1474.0	570.0	726.0	1827.0	2197.0	331.0	182.0	1131.0	2009.0	1243.0	1815.0	2779.0	894.0	386.0	809.0	980.0	842.0	387.0	1492.0	1740.0	1619.0	94.0	2262.0	730.0	944.0	395.0	678.0	1465.0	345.0	401.0	909.0	1403.0	903.0	1459.0	1238.0	439.0	257.0	489.0	758.0	4755.0	233.0	88226.7
7367/	815.0	758.0	876.0	1054.0	917.0	2328.0	1022.0	1093.0	474.0	230.0	1494.0	1203.0	187.0	981.0	3539.0	5337.0	490.0	557.0	2216.0	1280.0	1653.0	2161.0	1181.0	2302.0	2438.0	2639.0	2619.0	1758.0	1826.0	1966.0	541.0	231.0	295.0	1152.0	642.0	463.0	2602.0	2654.0	345.0	237.0	970.0	2318.0	1252.0	1919.0	2171.0	1074.0	439.0	855.0	1342.0	857.0	355.0	1789.0	1532.0	2079.0	496.0	3052.0	993.0	1473.0	438.0	980.0	1991.0	404.0	700.0	1117.0	1549.0	1473.0	2208.0	1252.0	932.0	327.0	1430.0	1265.0	5206.0	204.0	103000.0
7368/	747.0	875.0	1024.0	1000.0	843.0	1928.0	959.0	1109.0	407.0	240.0	1603.0	750.0	291.0	687.0	3478.0	4781.0	345.0	416.0	1791.0	1330.0	1297.0	1931.0	848.0	2033.0	2540.0	2124.0	1807.0	1581.0	1977.0	1753.0	523.0	202.0	247.0	1492.0	450.0	687.0	2125.0	2713.0	366.0	147.0	1085.0	2159.0	1386.0	1747.0	2522.0	990.0	327.0	990.0	939.0	514.0	324.0	1509.0	1979.0	1638.0	255.0	2591.0	620.0	1423.0	586.0	872.0	1660.0	364.0	604.0	1198.0	1420.0	994.0	1629.0	1296.0	716.0	311.0	621.0	1060.0	4653.0	151.0	92579.1
7515/	149.0	319.0	216.0	183.0	106.0	483.0	0.0	30.0	0.0	77.0	287.0	422.0	58.0	125.0	581.0	783.0	184.0	71.0	995.0	292.0	283.0	271.0	977.0	567.0	935.0	826.0	726.0	573.0	688.0	75.0	246.0	336.0	82.0	454.0	95.0	202.0	243.0	561.0	10.0	0.0	275.0	530.0	249.0	78.0	589.0	5.0	101.0	250.0	269.0	151.0	83.0	339.0	201.0	530.0	172.0	854.0	282.0	356.0	150.0	150.0	284.0	46.0	116.0	253.0	160.0	134.0	491.0	451.0	173.0	3.0	0.0	141.0	1444.0	22.0	22844.1
7516/	787.0	842.0	1167.0	948.0	862.0	2076.0	1314.0	1173.0	317.0	235.0	1623.0	809.0	272.0	796.0	3059.0	4815.0	379.0	507.0	1853.0	1308.0	1091.0	2070.0	851.0	1792.0	1800.0	2253.0	1790.0	1588.0	1701.0	2068.0	634.0	291.0	359.0	1220.0	443.0	493.0	1547.0	1864.0	360.0	158.0	1111.0	2028.0	1304.0	2269.0	2316.0	899.0	329.0	796.0	1000.0	631.0	486.0	1810.0	1288.0	1738.0	399.0	1568.0	861.0	1330.0	445.0	701.0	1392.0	278.0	663.0	821.0	1570.0	985.0	1832.0	1059.0	643.0	197.0	604.0	664.0	3734.0	164.0	87426.4
7576/	56.0	124.0	141.0	161.0	84.0	226.0	79.0	39.0	0.0	0.0	120.0	129.0	36.0	96.0	378.0	748.0	2.0	88.0	234.0	139.0	136.0	61.0	641.0	327.0	381.0	451.0	305.0	264.0	294.0	244.0	154.0	110.0	28.0	165.0	81.0	13.0	301.0	266.0	37.0	12.0	211.0	297.0	167.0	68.0	329.0	57.0	71.0	108.0	133.0	44.0	64.0	176.0	102.0	212.0	4.0	441.0	70.0	86.0	43.0	33.0	56.0	11.0	101.0	74.0	159.0	145.0	287.0	167.0	109.0	12.0	29.0	31.0	734.0	0.0	11779.4
7581/	264.0	352.0	332.0	526.0	341.0	765.0	192.0	228.0	111.0	57.0	515.0	539.0	130.0	244.0	1769.0	1430.0	71.0	123.0	630.0	488.0	603.0	511.0	147.0	808.0	885.0	893.0	856.0	673.0	620.0	1050.0	601.0	82.0	69.0	524.0	103.0	187.0	545.0	665.0	745.0	48.0	333.0	980.0	450.0	524.0	820.0	451.0	229.0	361.0	799.0	157.0	67.0	668.0	502.0	671.0	229.0	1197.0	166.0	345.0	233.0	269.0	364.0	21.0	214.0	383.0	530.0	214.0	802.0	341.0	520.0	123.0	482.0	343.0	1409.0	100.0	35019.9
7620/	338.0	297.0	556.0	329.0	479.0	679.0	369.0	252.0	40.0	152.0	369.0	375.0	162.0	271.0	1215.0	2743.0	189.0	411.0	786.0	651.0	611.0	630.0	633.0	643.0	1128.0	908.0	964.0	748.0	644.0	907.0	129.0	61.0	48.0	519.0	223.0	133.0	848.0	989.0	81.0	51.0	540.0	919.0	473.0	529.0	848.0	301.0	152.0	292.0	321.0	187.0	111.0	456.0	50.0	733.0	210.0	1024.0	171.0	410.0	272.0	227.0	428.0	120.0	90.0	409.0	544.0	63.0	634.0	292.0	324.0	0.0	320.0	138.0	1660.0	36.0	34846.9
7636/	51.0	137.0	225.0	131.0	103.0	99.0	4.0	14.0	1.0	21.0	131.0	199.0	53.0	148.0	305.0	865.0	57.0	67.0	262.0	235.0	25.0	256.0	28.0	322.0	339.0	369.0	232.0	321.0	545.0	188.0	40.0	14.0	67.0	62.0	36.0	150.0	99.0	84.0	25.0	38.0	135.0	607.0	0.0	202.0	530.0	112.0	68.0	150.0	220.0	0.0	55.0	215.0	279.0	330.0	16.0	463.0	38.0	196.0	102.0	12.0	54.0	24.0	65.0	110.0	141.0	6.0	439.0	137.0	159.0	4.0	136.0	18.0	351.0	0.0	11721.5
7690/	621.0	1044.0	829.0	909.0	448.0	1563.0	1170.0	995.0	422.0	169.0	1536.0	973.0	160.0	976.0	3240.0	4419.0	323.0	457.0	1689.0	1164.0	1246.0	1974.0	841.0	1755.0	1330.0	2266.0	1402.0	1225.0	1708.0	1828.0	516.0	336.0	363.0	1129.0	429.0	564.0	1853.0	1779.0	285.0	133.0	1062.0	2296.0	1202.0	1931.0	2328.0	908.0	449.0	792.0	1095.0	731.0	208.0	1622.0	1193.0	1586.0	201.0	1784.0	897.0	1171.0	742.0	453.0	1224.0	357.0	575.0	944.0	1487.0	1010.0	1676.0	997.0	1162.0	295.0	926.0	944.0	3701.0	189.0	84209.7
7802/	663.0	730.0	1105.0	1135.0	716.0	1931.0	1006.0	1094.0	310.0	212.0	1388.0	961.0	214.0	887.0	2763.0	4346.0	315.0	533.0	1335.0	1177.0	1117.0	1833.0	953.0	1858.0	1902.0	2263.0	2264.0	1515.0	2052.0	2062.0	588.0	411.0	380.0	1356.0	545.0	664.0	2031.0	2167.0	309.0	207.0	1357.0	2242.0	1260.0	1649.0	2247.0	778.0	461.0	964.0	1144.0	873.0	307.0	1514.0	1826.0	2284.0	218.0	2169.0	762.0	1051.0	629.0	660.0	1195.0	350.0	610.0	954.0	1604.0	1318.0	1809.0	1489.0	888.0	256.0	792.0	791.0	3402.0	331.0	89484.4
7803/	646.0	840.0	817.0	1116.0	859.0	1856.0	994.0	1073.0	415.0	198.0	1410.0	1224.0	230.0	813.0	3219.0	5785.0	350.0	503.0	1783.0	1286.0	1396.0	1709.0	906.0	2123.0	1489.0	1824.0	1833.0	1449.0	1609.0	1535.0	587.0	241.0	350.0	1455.0	499.0	560.0	1818.0	1818.0	289.0	123.0	1177.0	2284.0	1248.0	1661.0	1832.0	846.0	461.0	961.0	1234.0	462.0	517.0	1536.0	1611.0	2294.0	238.0	2147.0	863.0	1173.0	839.0	738.0	1289.0	334.0	518.0	1036.0	1569.0	1118.0	1739.0	1229.0	911.0	238.0	798.0	715.0	3888.0	230.0	88761.2
7831/	125.0	75.0	252.0	222.0	110.0	351.0	280.0	258.0	82.0	62.0	167.0	178.0	41.0	107.0	416.0	766.0	109.0	86.0	253.0	210.0	0.0	183.0	51.0	452.0	822.0	482.0	378.0	334.0	365.0	302.0	133.0	341.0	13.0	142.0	118.0	105.0	9.0	68.0	41.0	20.0	216.0	298.0	287.0	281.0	442.0	222.0	101.0	203.0	277.0	4.0	49.0	259.0	212.0	370.0	38.0	506.0	52.0	141.0	182.0	0.0	1.0	52.0	149.0	104.0	227.0	1343.0	378.0	264.0	196.0	19.0	231.0	13.0	591.0	31.0	16253.1
7895/	504.0	677.0	699.0	680.0	617.0	1222.0	728.0	690.0	209.0	115.0	941.0	657.0	246.0	542.0	2234.0	3288.0	216.0	315.0	1243.0	1129.0	1118.0	1600.0	849.0	1326.0	1724.0	1360.0	1125.0	1201.0	1554.0	1739.0	392.0	187.0	207.0	1061.0	304.0	413.0	1149.0	1596.0	247.0	140.0	844.0	1674.0	1066.0	1074.0	2098.0	644.0	291.0	678.0	744.0	577.0	486.0	992.0	1276.0	1330.0	266.0	1685.0	493.0	873.0	364.0	442.0	1110.0	263.0	436.0	657.0	961.0	855.0	1219.0	732.0	1150.0	136.0	570.0	520.0	3314.0	216.0	66277.1
7904/	641.0	857.0	1123.0	981.0	693.0	1731.0	916.0	808.0	394.0	110.0	1297.0	779.0	211.0	562.0	2353.0	3990.0	289.0	363.0	1507.0	962.0	1409.0	1784.0	784.0	1619.0	1870.0	1836.0	1701.0	1333.0	1793.0	1903.0	460.0	45.0	221.0	1086.0	295.0	624.0	1360.0	2161.0	233.0	91.0	1099.0	2611.0	1131.0	1788.0	1839.0	874.0	335.0	811.0	979.0	852.0	284.0	1158.0	1513.0	1951.0	323.0	1825.0	853.0	807.0	666.0	881.0	1196.0	313.0	323.0	813.0	1349.0	881.0	1707.0	1000.0	1111.0	222.0	655.0	554.0	3746.0	232.0	79859.2
7906/	553.0	891.0	875.0	794.0	577.0	1782.0	896.0	873.0	302.0	161.0	1114.0	731.0	149.0	710.0	2803.0	4207.0	297.0	271.0	1499.0	935.0	1052.0	1519.0	520.0	1777.0	1872.0	1731.0	1432.0	1261.0	1537.0	1728.0	445.0	191.0	201.0	1145.0	375.0	473.0	1491.0	1961.0	245.0	82.0	874.0	1956.0	1221.0	1320.0	1968.0	892.0	307.0	644.0	907.0	428.0	503.0	1263.0	1201.0	1480.0	473.0	1906.0	681.0	926.0	348.0	414.0	1297.0	475.0	331.0	865.0	1196.0	804.0	1230.0	999.0	746.0	230.0	719.0	705.0	3510.0	150.0	74432.7
7953/	754.0	670.0	941.0	779.0	659.0	1912.0	1035.0	937.0	255.0	180.0	1234.0	867.0	172.0	813.0	2519.0	4810.0	307.0	304.0	1432.0	1441.0	1089.0	1620.0	821.0	1848.0	1873.0	1366.0	1482.0	1162.0	1680.0	1545.0	459.0	266.0	236.0	1154.0	459.0	564.0	1425.0	1645.0	318.0	224.0	998.0	2076.0	1113.0	1467.0	2292.0	900.0	379.0	727.0	849.0	587.0	447.0	1564.0	1418.0	1970.0	255.0	1840.0	750.0	844.0	375.0	441.0	1116.0	310.0	461.0	992.0	1383.0	995.0	1361.0	1451.0	800.0	286.0	615.0	577.0	3852.0	168.0	78913.6
7954/	927.0	1169.0	1059.0	891.0	1173.0	2143.0	969.0	1153.0	340.0	178.0	1611.0	873.0	179.0	652.0	2710.0	4388.0	264.0	360.0	1918.0	1331.0	1042.0	2016.0	948.0	1817.0	2071.0	1867.0	1781.0	1486.0	2119.0	1667.0	439.0	259.0	291.0	1299.0	624.0	628.0	1800.0	2113.0	254.0	133.0	1022.0	2021.0	1031.0	1845.0	2657.0	1060.0	388.0	747.0	938.0	761.0	369.0	1395.0	2157.0	2519.0	645.0	2454.0	990.0	1178.0	363.0	708.0	1288.0	401.0	466.0	1087.0	1354.0	1270.0	1535.0	1393.0	1078.0	228.0	690.0	1001.0	4714.0	176.0	90867.0
7965/	40.0	87.0	103.0	252.0	55.0	320.0	21.0	0.0	0.0	0.0	0.0	328.0	22.0	79.0	599.0	1289.0	5.0	75.0	1530.0	92.0	9.0	0.0	24.0	174.0	2108.0	2662.0	293.0	1319.0	868.0	18.0	144.0	197.0	23.0	415.0	22.0	58.0	268.0	210.0	29.0	12.0	144.0	43.0	33.0	0.0	823.0	0.0	39.0	122.0	178.0	0.0	15.0	271.0	474.0	671.0	354.0	1282.0	284.0	174.0	59.0	27.0	0.0	0.0	42.0	56.0	0.0	45.0	899.0	249.0	276.0	2.0	0.0	94.0	1947.0	20.0	22372.6
8155/	765.0	1016.0	928.0	910.0	724.0	2125.0	1039.0	1020.0	285.0	148.0	1254.0	896.0	184.0	877.0	3081.0	4455.0	334.0	377.0	1311.0	1274.0	1173.0	1961.0	1059.0	1687.0	1905.0	1716.0	1774.0	1360.0	1548.0	1873.0	467.0	287.0	289.0	1135.0	354.0	683.0	1354.0	1887.0	327.0	165.0	965.0	2147.0	1305.0	1271.0	2221.0	826.0	335.0	951.0	972.0	936.0	433.0	1792.0	1547.0	1999.0	554.0	2155.0	602.0	972.0	340.0	454.0	1244.0	213.0	450.0	867.0	1396.0	634.0	1337.0	1025.0	671.0	101.0	797.0	862.0	3635.0	193.0	82208.3
8231/	624.0	886.0	1028.0	777.0	687.0	2027.0	1000.0	1213.0	349.0	184.0	1430.0	1022.0	356.0	651.0	2972.0	5478.0	317.0	407.0	1667.0	1140.0	1514.0	1787.0	966.0	2035.0	2704.0	1776.0	1288.0	1473.0	1771.0	1543.0	511.0	217.0	324.0	1544.0	552.0	447.0	1870.0	2327.0	264.0	94.0	1020.0	1757.0	1072.0	1419.0	2025.0	1076.0	498.0	851.0	892.0	810.0	207.0	1428.0	1438.0	2056.0	451.0	2287.0	465.0	1209.0	761.0	595.0	1644.0	297.0	493.0	901.0	1440.0	1137.0	1690.0	926.0	1298.0	261.0	846.0	820.0	4953.0	147.0	88393.8
8307/	175.0	258.0	290.0	267.0	417.0	609.0	92.0	154.0	0.0	119.0	291.0	350.0	77.0	265.0	1475.0	2779.0	99.0	66.0	377.0	244.0	361.0	321.0	106.0	499.0	473.0	610.0	371.0	466.0	527.0	355.0	73.0	169.0	94.0	331.0	116.0	132.0	716.0	768.0	101.0	16.0	386.0	641.0	333.0	264.0	519.0	250.0	33.0	235.0	247.0	170.0	47.0	476.0	464.0	698.0	58.0	568.0	252.0	326.0	155.0	109.0	430.0	23.0	193.0	183.0	183.0	97.0	472.0	339.0	218.0	3.0	128.0	52.0	1303.0	56.0	24921.8
8350/	174.0	447.0	581.0	552.0	260.0	322.0	197.0	191.0	0.0	0.0	405.0	601.0	103.0	221.0	603.0	1607.0	162.0	250.0	495.0	383.0	341.0	423.0	345.0	606.0	1258.0	1125.0	893.0	871.0	640.0	1081.0	237.0	0.0	62.0	415.0	116.0	254.0	629.0	586.0	9.0	44.0	687.0	645.0	364.0	346.0	584.0	342.0	100.0	358.0	275.0	255.0	60.0	352.0	269.0	436.0	53.0	740.0	222.0	294.0	112.0	117.0	341.0	21.0	63.0	288.0	440.0	0.0	583.0	421.0	324.0	57.0	233.0	69.0	1314.0	51.0	28303.4
