subject,hippo_lh_fa_1,hippo_lh_fa_2,hippo_lh_fa_3,hippo_lh_fa_4,hippo_lh_fa_5,hippo_lh_fa_6,hippo_lh_fa_7,hippo_lh_fa_8,hippo_lh_fa_9,hippo_lh_fa_10,hippo_lh_fa_11,hippo_lh_fa_12,hippo_rh_fa_1,hippo_rh_fa_2,hippo_rh_fa_3,hippo_rh_fa_4,hippo_rh_fa_5,hippo_rh_fa_6,hippo_rh_fa_7,hippo_rh_fa_8,hippo_rh_fa_9,hippo_rh_fa_10,hippo_rh_fa_11,hippo_rh_fa_12
10004362,0.17354,0.175545,0.164977,0.13903,0.202002,0.222775,0.145591,0.149293,0.164473,0.144932,0.328371,0.216497,0.180121,0.195732,0.172902,0.126683,0.194981,0.240367,0.15202,0.155122,0.171925,0.153641,0.32663,0.211692
10005426,0.171384,0.160539,0.126833,0.118028,0.186848,0.179135,0.123841,0.130989,0.149191,0.132602,0.215288,0.120211,0.174557,0.159983,0.129052,0.12105,0.166262,0.215518,0.119424,0.127274,0.146352,0.12872,0.209297,0.130186
10011000,0.183962,0.145871,0.140052,0.113976,0.176184,0.160767,0.127103,0.124808,0.144813,0.12658,0.22226,0.093029,0.19068,0.151068,0.153122,0.135727,0.198471,0.151575,0.131568,0.136216,0.158059,0.142492,0.217649,0.139759
10014793,0.176142,0.153348,0.137544,0.132362,0.20089,0.20651,0.134195,0.147341,0.17252,0.15702,0.228661,0.118568,0.167273,0.203466,0.165671,0.144265,0.243496,0.22175,0.169034,0.164902,0.168579,0.171709,0.2037,0.14633
10015858,0.188154,0.177913,0.174041,0.176219,0.217528,0.276916,0.17268,0.170351,0.174264,0.162899,0.322907,0.152939,0.173531,0.186809,0.15922,0.141657,0.224478,0.252993,0.157296,0.171639,0.186543,0.166941,0.399747,0.188787
10016158,0.253343,0.188919,0.167807,0.146904,0.270316,0.232852,0.172695,0.19485,0.216984,0.202686,0.358544,0.271847,0.196384,0.211112,0.158953,0.144651,0.29098,0.20705,0.148701,0.162624,0.184862,0.157961,0.344221,0.282304
10021984,0.179545,0.185017,0.151124,0.133584,0.221824,0.285125,0.13594,0.149453,0.161348,0.142639,0.281803,0.161607,0.196926,0.180396,0.166177,0.132184,0.203813,0.234175,0.150549,0.15396,0.178648,0.156763,0.299189,0.190467
10029184,0.193442,0.209915,0.137451,0.168355,0.209846,0.211475,0.162565,0.172391,0.159453,0.174623,0.184557,0.143107,0.16861,0.17527,0.149005,0.145815,0.187686,0.250728,0.151884,0.165416,0.152771,0.174308,0.193695,0.202107
10031650,0.172673,0.138202,0.133957,0.122948,0.170628,0.181269,0.126212,0.135229,0.157759,0.135528,0.334364,0.088878,0.179049,0.152731,0.147122,0.127983,0.170982,0.198618,0.133665,0.127067,0.169362,0.130661,0.328189,0.150556
10038992,0.181274,0.16391,0.112772,0.128756,0.207761,0.184759,0.130907,0.135252,0.136853,0.133932,0.181527,0.131439,0.176477,0.20081,0.139602,0.14798,0.2169,0.234346,0.15078,0.152954,0.159493,0.159343,0.197781,0.123718
10040504,0.213336,0.205561,0.176682,0.147088,0.212328,0.192971,0.155293,0.173792,0.189044,0.163825,0.37164,0.227636,0.218272,0.207166,0.180245,0.128426,0.197729,0.185808,0.163061,0.162949,0.184674,0.160412,0.313027,0.230407
10049700,0.156179,0.15712,0.142092,0.140081,0.177985,0.230223,0.146496,0.157311,0.162212,0.149054,0.216963,0.120665,0.176333,0.200985,0.13829,0.129007,0.202751,0.190751,0.153665,0.165903,0.181767,0.172097,0.222208,0.115534
10059651,0.238247,0.230221,0.150273,0.131597,0.258592,0.215959,0.14186,0.130443,0.148863,0.136384,0.271107,0.146848,0.188933,0.222854,0.159982,0.13006,0.235793,0.186101,0.141972,0.15091,0.149013,0.148896,0.247095,0.160467
10061549,0.170205,0.155491,0.121257,0.110705,0.19522,0.164937,0.123046,0.111693,0.162344,0.109692,0.267578,0.097612,0.16853,0.191335,0.154012,0.134822,0.219225,0.249964,0.147213,0.135368,0.150994,0.131859,0.246559,0.166546
10088406,0.161632,0.181795,0.153865,0.130333,0.201235,0.179721,0.140855,0.128827,0.158775,0.129384,0.326965,0.152138,0.180839,0.20279,0.167904,0.133302,0.210076,0.230787,0.14785,0.139112,0.151088,0.136297,0.312789,0.175254
10090214,0.15469,0.155288,0.134613,0.11494,0.159338,0.170408,0.124516,0.11994,0.171633,0.11474,0.202926,0.137752,0.187384,0.170032,0.177453,0.12006,0.211158,0.206186,0.149583,0.146543,0.157986,0.145754,0.253853,0.133027
10094549,0.181239,0.187348,0.142386,0.121245,0.224709,0.187424,0.139468,0.15129,0.189603,0.150275,0.369047,0.178596,0.19715,0.200955,0.181977,0.149778,0.212291,0.256063,0.158458,0.174099,0.173136,0.169875,0.340937,0.15618
10095070,0.203474,0.223558,0.167779,0.156867,0.278585,0.211762,0.162343,0.150694,0.176318,0.164929,0.270801,0.167967,0.18764,0.172094,0.152158,0.122762,0.224785,0.219453,0.135997,0.129509,0.142666,0.14824,0.259357,0.195757
10120000,0.278979,0.267207,0.216454,0.191859,0.32888,0.328445,0.233897,0.230727,0.267499,0.239609,0.381023,0.278164,0.244965,0.222734,0.222942,0.186248,0.278218,0.347607,0.207555,0.230501,0.244708,0.26166,0.309823,0.20574
10123696,0.192145,0.137577,0.12099,0.137943,0.188415,0.187452,0.132675,0.135864,0.170169,0.148212,0.272076,0.101019,0.188692,0.160661,0.135722,0.134215,0.190312,0.207681,0.133491,0.134619,0.152078,0.124294,0.214754,0.098918
10126425,0.189824,0.13977,0.128312,0.113376,0.172922,0.156598,0.123067,0.130535,0.163053,0.131403,0.192201,0.102012,0.196176,0.204404,0.141116,0.123361,0.204157,0.257518,0.136863,0.137986,0.126865,0.144275,0.175457,0.166425
10146748,0.165073,0.186874,0.168224,0.142207,0.231696,0.184616,0.169676,0.165411,0.209534,0.164697,0.339736,0.18709,0.196009,0.208302,0.176437,0.130051,0.262937,0.203863,0.170912,0.173472,0.197412,0.165654,0.330486,0.217823
10161620,0.155087,0.178526,0.137606,0.130343,0.21447,0.216155,0.135315,0.131582,0.179463,0.133204,0.275998,0.104563,0.151816,0.168927,0.153162,0.139526,0.228388,0.193942,0.136872,0.137174,0.16276,0.127373,0.295713,0.172671
10164891,0.23086,0.167921,0.157428,0.152244,0.182539,0.162268,0.154036,0.163727,0.195192,0.157114,0.309803,0.147748,0.217857,0.234979,0.168416,0.131784,0.254701,0.171263,0.161509,0.163558,0.169503,0.158144,0.333167,0.151659
10170612,0.157661,0.143291,0.107478,0.112029,0.159373,0.189027,0.1226,0.123824,0.133302,0.126168,0.208456,0.087073,0.163737,0.142926,0.108571,0.136389,0.168783,0.172757,0.120265,0.130102,0.118223,0.131049,0.193934,0.097236
10180319,0.175211,0.162839,0.158116,0.153961,0.181387,0.242516,0.154319,0.154565,0.168154,0.156229,0.29841,0.106177,0.180041,0.165905,0.168207,0.134394,0.200787,0.281891,0.143446,0.152179,0.154043,0.147195,0.346049,0.158785
10186209,0.180179,0.172077,0.112654,0.118735,0.240895,0.235132,0.128983,0.117843,0.10555,0.115696,0.151719,0.107776,0.170692,0.1734,0.127612,0.131665,0.182641,0.151656,0.127971,0.136016,0.142484,0.137521,0.186735,0.093943
10193631,0.233656,0.187883,0.173141,0.131347,0.220248,0.189945,0.156874,0.174009,0.18515,0.161243,0.411309,0.188146,0.216784,0.185991,0.182093,0.137911,0.201349,0.255453,0.169034,0.186878,0.214225,0.16628,0.386577,0.182356
10197798,0.181042,0.155684,0.151301,0.100416,0.207483,0.195478,0.131097,0.146395,0.159313,0.138063,0.290076,0.178476,0.170913,0.137733,0.148328,0.108331,0.176191,0.230106,0.120392,0.142415,0.140769,0.139239,0.307196,0.184175
10208089,0.228085,0.181874,0.144279,0.12304,0.223614,0.21001,0.132894,0.135158,0.155716,0.137255,0.25156,0.104185,0.201035,0.208271,0.164805,0.13719,0.275367,0.223257,0.133411,0.13749,0.144847,0.152211,0.202281,0.10925
10214134,0.192961,0.169772,0.135215,0.127584,0.205563,0.158107,0.141302,0.153778,0.177543,0.155268,0.216135,0.13156,0.191542,0.197859,0.141806,0.122227,0.223444,0.212063,0.129261,0.137685,0.138604,0.146673,0.251484,0.117508
10218787,0.17037,0.17033,0.152966,0.151204,0.207104,0.197975,0.156156,0.16776,0.188643,0.176882,0.25702,0.118139,0.209751,0.187623,0.171544,0.13384,0.184162,0.216635,0.150066,0.156669,0.161069,0.154644,0.186953,0.171703
10225337,0.220584,0.196435,0.148777,0.12213,0.197815,0.188737,0.144531,0.143989,0.168646,0.149426,0.271079,0.103985,0.16893,0.191055,0.162513,0.134798,0.206897,0.201163,0.147037,0.147246,0.159802,0.153306,0.274902,0.136085
10226155,0.189907,0.137003,0.126811,0.112876,0.174021,0.180358,0.127127,0.14262,0.166534,0.143947,0.271364,0.082096,0.176163,0.165293,0.131492,0.128225,0.223515,0.196737,0.132395,0.13214,0.155531,0.134896,0.225107,0.113997
10229248,0.165685,0.179553,0.155479,0.137078,0.217214,0.182644,0.143366,0.159802,0.152204,0.142835,0.261142,0.202727,0.173571,0.160961,0.148692,0.139038,0.192223,0.171007,0.135598,0.140811,0.141984,0.146329,0.242704,0.15828
10241029,0.191412,0.153054,0.151409,0.120794,0.172558,0.205679,0.138826,0.125668,0.141744,0.133405,0.210569,0.134841,0.179197,0.178273,0.147171,0.121834,0.192768,0.215177,0.142736,0.141834,0.199905,0.147261,0.205316,0.232804
10245243,0.190305,0.162077,0.126367,0.134424,0.246564,0.217458,0.137315,0.136611,0.170822,0.137912,0.303199,0.14199,0.160915,0.172053,0.151934,0.12338,0.196011,0.19629,0.135192,0.136399,0.144542,0.130224,0.17705,0.177861
10253341,0.18326,0.138065,0.12802,0.110405,0.183796,0.164937,0.132593,0.145366,0.183073,0.154467,0.371721,0.106965,0.189401,0.190302,0.153663,0.141879,0.192981,0.161002,0.155038,0.171115,0.178402,0.177652,0.387784,0.174721
10272266,0.217371,0.174192,0.155285,0.136799,0.195831,0.202442,0.141749,0.155201,0.176214,0.167234,0.333676,0.104476,0.199764,0.175135,0.151865,0.153843,0.203854,0.251313,0.14026,0.159056,0.194046,0.162005,0.383006,0.123296
10273288,0.212044,0.174988,0.129518,0.130188,0.230591,0.205382,0.129485,0.129458,0.138924,0.133483,nan,0.134576,0.165515,0.180253,0.153672,0.120641,0.215947,0.166119,0.130839,0.133148,0.140864,0.133809,0.201959,0.168833
10274593,0.240779,0.204012,0.147168,0.141928,0.214064,0.232106,0.152238,0.160928,0.178965,0.159305,0.317614,0.182797,0.215367,0.213359,0.162665,0.135491,0.208195,0.147688,0.156933,0.167697,0.159877,0.188401,0.297428,0.20645
10275991,0.212418,0.166217,0.165593,0.140579,0.231321,0.19216,0.149006,0.153473,0.183325,0.149143,0.260691,0.147666,0.213085,0.22272,0.165282,0.153164,0.280629,0.197308,0.169374,0.163834,0.159483,0.15929,0.280292,0.119833
10287475,0.166572,0.150512,0.141505,0.116989,0.219812,0.19145,0.130877,0.128996,0.139562,0.132614,0.252994,0.110675,0.185271,0.149614,0.148684,0.132341,0.226106,0.205888,0.134549,0.134002,0.169742,0.139312,0.284839,0.141927
10305685,0.205862,0.135745,0.128584,0.126867,0.156405,0.147009,0.123823,0.129286,0.167517,0.140237,0.263627,0.111621,0.213523,0.170739,0.13553,0.12755,0.205718,0.20473,0.131338,0.140926,0.152612,0.129124,0.271342,0.112685
10310401,0.17482,0.157252,0.119375,0.116133,0.185928,0.224903,0.122908,0.122268,0.134792,0.119912,0.17861,0.130441,0.177321,0.18338,0.138249,0.142795,0.196831,0.205161,0.135196,0.136386,0.138833,0.136954,0.152539,0.107416
10310439,0.235583,0.169851,0.141963,0.137695,0.200804,0.215239,0.145835,0.158949,0.15617,0.163881,0.241013,0.14754,0.204936,0.167527,0.150133,0.109512,0.209814,0.202361,0.137111,0.134302,0.148427,0.128829,0.187009,0.176523
10313245,0.193856,0.158864,0.13146,0.145128,0.222037,0.227679,0.144397,0.163552,0.150558,0.17004,0.247867,0.102638,0.215238,0.160791,0.127843,0.146515,0.215343,0.224622,0.130319,0.140115,0.145105,0.147503,0.194863,0.111139
10313567,0.17038,0.155141,0.120463,0.121457,0.176327,0.163393,0.121427,0.137278,0.141704,0.145674,0.248451,0.108507,0.182818,0.218868,0.133618,0.130214,0.218486,0.234048,0.133263,0.140918,0.132246,0.141733,0.187022,0.104815
10325172,0.193039,0.160169,0.127575,0.122866,0.174459,0.156118,0.127124,0.127191,0.15133,0.119418,0.191615,0.163389,0.187146,0.155913,0.144755,0.140798,0.176314,0.209088,0.139566,0.156397,0.158871,0.163092,0.209889,0.122013
10325657,0.17815,0.142966,0.137097,0.144758,0.192495,0.222869,0.130587,0.125284,0.171068,0.125435,0.2327,0.142956,0.195346,0.216708,0.165293,0.147064,0.238661,0.213929,0.162147,0.172908,0.19476,0.188458,0.272095,0.191613
10334438,0.150771,0.172439,0.146179,0.125037,0.182681,0.22133,0.136054,0.133911,0.158432,0.133389,0.243588,0.142954,0.185425,0.198129,0.162108,0.123988,0.211798,0.256057,0.139288,0.131425,0.15434,0.136834,0.192042,0.198946
10341559,0.193967,0.161886,0.145773,0.12179,0.222645,0.180065,0.133794,0.146147,0.197748,0.142666,0.348284,0.132038,0.172721,0.192594,0.148994,0.130993,0.253603,0.175715,0.145862,0.16256,0.206034,0.171822,0.354399,0.157564
10349311,0.220972,0.17961,0.139815,0.115626,0.203202,0.197146,0.13049,0.125151,0.140153,0.127395,0.256552,0.121698,0.207067,0.182456,0.131649,0.14043,0.20598,0.215336,0.13,0.141751,0.145489,0.152551,0.200466,0.126421
10355472,0.189156,0.165589,0.130287,0.10022,0.192563,0.207982,0.131783,0.12896,0.161299,0.12683,0.229725,0.123207,0.146175,0.160713,0.13618,0.11255,0.222644,0.169155,0.139491,0.129059,0.140515,0.130309,0.182683,0.130432
10358496,0.231017,0.158542,0.112834,0.140511,0.249558,0.17987,0.12371,0.139744,0.149323,0.150501,0.279473,0.138866,0.206367,0.182775,0.146164,0.127314,0.280214,0.170524,0.136237,0.142852,0.137069,0.140509,0.268835,0.128099
10370669,0.178989,0.147255,0.120184,0.126636,0.186944,0.171128,0.129996,0.131415,0.136784,0.133222,0.208522,0.113949,0.162524,0.158639,0.143614,0.129282,0.177614,0.203645,0.134394,0.142579,0.157847,0.139852,0.208203,0.138555
10371546,0.192258,0.156227,0.130671,0.138892,0.20559,0.18665,0.13845,0.154667,0.1846,0.146108,0.309979,0.212658,0.189284,0.150382,0.138948,0.119973,0.203886,0.146628,0.133231,0.140501,0.146719,0.142153,0.243826,0.135815
10380157,0.184585,0.118659,0.123458,0.137937,0.15073,0.188965,0.112056,0.118775,0.148024,0.123589,0.225105,0.109966,0.172063,0.148702,0.120716,0.108261,0.172582,0.232585,0.111822,0.118976,0.126001,0.124358,0.204712,0.129852
10382345,0.192477,0.159957,0.146245,0.113585,0.245158,0.198247,0.1347,0.135545,0.183875,0.135046,0.250833,0.128443,0.197923,0.168518,0.134593,0.141489,0.191436,0.181779,0.13658,0.162464,0.158727,0.156391,0.24377,0.120694
10382563,0.231811,0.18225,0.185379,0.149183,0.23239,0.227434,0.173216,0.18794,0.211899,0.16973,0.417784,0.210865,0.217786,0.198271,0.189173,0.140845,0.193833,0.175217,0.16456,0.183696,0.182668,0.170099,0.374829,0.219239
10386459,0.197524,0.155156,0.132064,0.140987,0.243372,0.168821,0.120035,0.12387,0.152712,0.133284,0.30873,0.101377,0.198359,0.20371,0.143065,0.146198,0.313161,0.247283,0.138147,0.135914,0.158809,0.145137,0.246428,0.116824
10386849,0.207293,0.219051,0.143148,0.164526,0.268223,0.146002,0.150984,0.161102,0.161261,0.155253,0.243855,0.135846,0.203283,0.18216,0.13605,0.162978,0.225851,0.186051,0.154241,0.170047,0.144519,0.16823,0.233778,0.128779
10396168,0.1906,0.158317,0.156599,0.114545,0.189248,0.251972,0.12875,0.14594,0.169068,0.125824,0.332087,0.129768,0.190349,0.214747,0.157523,0.126517,0.268092,0.17531,0.143279,0.144322,0.159106,0.133981,0.272624,0.21649
10403801,0.180129,0.144918,0.154845,0.148511,0.177597,0.205878,0.142212,0.137933,0.173026,0.141584,0.260151,0.175554,0.1766,0.206473,0.173506,0.166913,0.213002,0.22958,0.167689,0.173863,0.170025,0.176551,0.26826,0.174363
10403880,0.176203,0.161485,0.15759,0.139505,0.200628,0.163972,0.141957,0.149553,0.170397,0.14278,0.342856,0.185312,0.193354,0.210996,0.18008,0.135157,0.210445,0.207677,0.159315,0.156462,0.171769,0.152049,0.326412,0.175851
10413959,0.175414,0.15435,0.138595,0.12142,0.186943,0.191615,0.136055,0.141689,0.175138,0.16443,0.311855,0.20012,0.188408,0.176421,0.152985,0.123883,0.205438,0.198845,0.140957,0.162869,0.159624,0.178803,0.327041,0.178286
10423358,0.191703,0.182161,0.160229,0.144747,0.230383,0.188607,0.142105,0.143996,0.144754,0.144811,0.242866,0.144213,0.2032,0.173624,0.155123,0.139689,0.223327,0.195482,0.138907,0.155558,0.135082,0.155006,0.209021,0.177596
10423878,0.189851,0.140275,0.11441,0.121956,0.210305,0.195442,0.135691,0.151836,0.163934,0.1605,0.241683,0.140315,0.187104,0.139913,0.126782,0.134655,0.207584,0.208063,0.13681,0.147187,0.184477,0.152373,0.244608,0.096009
10425689,0.212013,0.165498,0.167587,0.130379,0.210098,0.17229,0.156595,0.160449,0.189492,0.148315,0.336986,0.182113,0.211152,0.213762,0.182034,0.144232,0.223218,0.211614,0.16623,0.177585,0.186521,0.163685,0.394688,0.17459
10428296,0.220505,0.16083,0.143397,0.110798,0.229625,0.22864,0.128076,0.135222,0.159431,0.14156,0.227654,0.104337,0.190248,0.160952,0.135468,0.113651,0.226128,0.164317,0.117576,0.124671,0.135914,0.116787,0.256829,0.10031
10441591,0.167434,0.170087,0.136695,0.152207,0.227824,0.19464,0.147503,0.149294,0.154587,0.158458,0.189887,0.11114,0.174567,0.187744,0.132589,0.130013,0.212134,0.113655,0.133043,0.134231,0.134089,0.134141,0.101834,0.110367
10444861,0.159124,0.139472,0.122359,0.119045,0.177624,0.170444,0.116151,0.113352,0.131913,0.110119,0.311082,0.098014,0.177179,0.165263,0.132368,0.138729,0.1775,0.164484,0.153405,0.17026,0.170694,0.167536,0.393021,0.117144
10450904,0.198464,0.190291,0.186225,0.154177,0.237324,0.204092,0.173747,0.172615,0.206175,0.164333,0.370257,0.201731,0.227554,0.21685,0.184795,0.15589,0.23389,0.206293,0.166989,0.169199,0.166683,0.164401,0.322281,0.151173
10452877,0.329647,0.240832,0.351404,0.373359,0.374564,0.52538,0.247935,0.227094,0.237132,0.2146,0.138498,0.52674,0.385022,0.16704,0.233991,0.16211,0.153057,0.383916,0.203073,0.212842,0.268674,0.232352,0.352322,0.261556
10458702,0.165528,0.146941,0.184543,0.154137,0.190199,0.295137,0.160472,0.153747,0.181626,0.161439,0.387427,0.219111,0.171883,0.151166,0.185419,0.143695,0.188715,0.241517,0.156877,0.170052,0.193077,0.179998,0.33523,0.18163
10467660,0.229986,0.198463,0.196633,0.155814,0.20614,0.31674,0.187661,0.209153,0.241228,0.2186,0.372572,0.253336,0.256841,0.25545,0.213466,0.16737,0.264951,0.237657,0.219475,0.21197,0.254347,0.201003,0.29924,0.215755
10468780,0.207773,0.19387,0.147843,0.134629,0.242374,0.219586,0.139766,0.138547,0.163724,0.123599,0.266,0.1801,0.206335,0.12897,0.115565,0.148004,0.179849,0.200116,0.121453,0.145505,0.150967,0.13397,0.275014,0.192696
10470187,0.157221,0.13291,0.136495,0.127132,0.168134,0.223681,0.119162,0.143891,0.164602,0.144763,0.286565,0.147604,0.172573,0.151058,0.119968,0.145583,0.230542,0.214239,0.13179,0.148627,0.175885,0.162116,0.245716,0.142423
10477029,0.172928,0.167748,0.168574,0.143916,0.203935,0.181595,0.151376,0.154327,0.173286,0.151293,0.284549,0.165364,0.194965,0.189562,0.19413,0.150716,0.23581,0.252335,0.164219,0.174029,0.172477,0.167755,0.210462,0.197824
10484182,0.182228,0.154316,0.109733,0.104172,0.175937,0.152234,0.124282,0.123239,0.137552,0.129094,0.177607,0.109099,0.191557,0.177858,0.140922,0.13803,0.184969,0.21432,0.146359,0.158876,0.158273,0.175659,0.211093,0.125543
10493085,0.167524,0.153567,0.139139,0.113551,0.193175,0.204539,0.130227,0.137689,0.166292,0.124595,0.273584,0.155517,0.178412,0.164219,0.138042,0.102115,0.173419,0.183266,0.12262,0.133592,0.1468,0.139466,0.20329,0.159232
10493936,0.146752,0.11389,0.119481,0.132373,0.166306,0.207387,0.113058,0.126274,0.125582,0.131147,0.226045,0.131649,0.184521,0.183333,0.143346,0.150112,0.236089,0.241266,0.142872,0.158255,0.157162,0.157228,0.329477,0.176965
10499620,0.178514,0.158715,0.139911,0.121981,0.183688,0.235011,0.119918,0.113656,0.143309,0.11224,0.197955,0.10053,0.179441,0.189534,0.167214,0.128885,0.203105,0.227423,0.142816,0.138693,0.154968,0.148616,0.292049,0.155674
10528646,0.167424,0.173432,0.166579,0.130985,0.193792,0.215545,0.154611,0.141739,0.18177,0.131698,0.235055,0.195235,0.174823,0.159373,0.15176,0.14225,0.199969,0.186443,0.145738,0.140249,0.163029,0.137649,0.209373,0.146892
10539025,0.183434,0.141596,0.17431,0.15814,0.187617,0.244461,0.153284,0.1434,0.184028,0.148505,0.293134,0.149885,0.186735,0.188904,0.152646,0.145233,0.168741,0.148518,0.142815,0.151944,0.155122,0.148326,0.291193,0.160593
10540323,0.168081,0.162991,0.144485,0.122027,0.204824,0.151791,0.133043,0.136355,0.164814,0.135248,0.366898,0.133373,0.177801,0.17843,0.169278,0.138091,0.181495,0.152477,0.149101,0.164683,0.186144,0.162754,0.352113,0.194939
10542368,0.181663,0.140094,0.125489,0.117722,0.166841,0.193126,0.127511,0.130015,0.177401,0.141179,0.214434,0.128381,0.175938,0.145901,0.123654,0.119296,0.188315,0.156578,0.11698,0.139267,0.150363,0.132909,0.221648,0.115097
10546435,0.209402,0.075169,0.021684,0.038428,0.127053,nan,0.055662,0.066354,0.046003,0.06212,0.137898,nan,0.170457,0.090667,0.021224,0.04698,0.10486,nan,0.069474,0.063851,0.082321,0.059114,0.297394,nan
10561300,0.172465,0.156975,0.155115,0.125282,0.186653,0.215269,0.140715,0.142229,0.177978,0.145645,0.206945,0.106473,0.155703,0.164402,0.132029,0.132239,0.198744,0.206719,0.131308,0.127674,0.15492,0.134161,0.203191,0.115282
10561784,0.191242,0.218867,0.176988,0.234621,0.198085,0.186221,0.165039,0.159048,0.166987,0.143527,0.276714,0.163525,0.19907,0.1862,0.168013,0.120884,0.185858,0.239997,0.147986,0.158128,0.162621,0.149584,0.257196,0.183985
10591073,0.189256,0.171287,0.156409,0.149452,0.19342,0.190367,0.147253,0.163772,0.168484,0.15765,0.391171,0.171798,0.19468,0.198309,0.174017,0.160861,0.21641,0.258731,0.162128,0.168656,0.156856,0.172114,0.350701,0.177733
10591635,0.172048,0.145531,0.147281,0.151764,0.185014,0.193749,0.136155,0.157944,0.215948,0.160204,0.406883,0.147819,0.188616,0.164408,0.177601,0.145747,0.169117,0.187816,0.154937,0.180384,0.251722,0.184399,0.400076,0.151087
10604270,0.140721,0.131231,0.115922,0.11188,0.147942,0.220787,0.11888,0.132757,0.169833,0.139166,0.204659,0.096582,0.175171,0.146075,0.130888,0.116522,0.160962,0.211986,0.126191,0.14237,0.16462,0.153218,0.238537,0.104489
10607908,0.278292,0.150971,0.121828,0.09881,0.248591,0.280287,0.13883,0.157389,0.1568,0.143434,0.214548,0.124087,0.167273,0.186399,0.143537,0.107781,0.201433,0.18268,0.12954,0.126121,0.136101,0.128592,0.210576,0.096061
10611255,0.17472,0.17483,0.158178,0.132509,0.197976,0.159031,0.146969,0.144723,0.197669,0.137451,0.304362,0.14655,0.180741,0.214313,0.171395,0.137698,0.240848,0.185552,0.150322,0.162179,0.163251,0.159101,0.2724,0.186854
10613919,0.186811,0.182548,0.163153,0.135604,0.206301,0.255896,0.138647,0.132316,0.140702,0.138646,0.211276,0.154958,0.193228,0.207034,0.156722,0.134825,0.217549,0.286785,0.139051,0.13915,0.154558,0.1481,0.250948,0.182667
10614720,0.237545,0.174404,0.136817,0.149378,0.267271,0.207614,0.137982,0.143331,0.168519,0.143879,0.276306,0.122844,0.172264,0.188357,0.149876,0.143076,0.227839,0.165984,0.144636,0.14132,0.1554,0.137718,0.265327,0.155101
10618574,0.153031,0.135093,0.137978,0.110419,0.175242,0.197821,0.126735,0.141677,0.160167,0.135209,0.224218,0.103464,0.155674,0.144284,0.140497,0.124413,0.204091,0.188081,0.129416,0.136846,0.151621,0.143387,0.218308,0.116457
10628623,0.189872,0.146602,0.137375,0.12428,0.202593,0.205029,0.125722,0.135491,0.1554,0.134712,0.239458,0.105761,0.173128,0.142908,0.132579,0.11551,0.166305,0.209021,0.126852,0.137108,0.163048,0.147809,0.169916,0.124699
10631603,0.205001,0.198837,0.146077,0.124477,0.252374,0.261133,0.136408,0.129799,0.164989,0.129109,0.244753,0.130136,0.207919,0.204084,0.166439,0.127488,0.216762,0.180973,0.141775,0.137302,0.137554,0.129741,0.215735,0.144175
10635119,0.219431,0.168235,0.114932,0.124289,0.213036,0.20364,0.115788,0.12581,0.140595,0.133346,0.216967,0.074473,0.19307,0.168669,0.15364,0.130094,0.20836,0.20568,0.118919,0.122071,0.134679,0.112684,0.138047,0.114712
10638779,0.227016,0.184431,0.150272,0.111983,0.221191,0.146838,0.135336,0.134736,0.154238,0.133034,0.335997,0.156629,0.235642,0.166575,0.143336,0.117499,0.184212,0.15265,0.12135,0.117237,0.13723,0.11645,0.299636,0.129304
10648551,0.202164,0.175628,0.146351,0.121556,0.162356,0.155443,0.131013,0.138432,0.145619,0.134209,0.231805,0.130218,0.234501,0.219847,0.157034,0.147681,0.203004,0.268739,0.166046,0.166332,0.15694,0.165648,0.282361,0.193469
10659535,0.243998,0.153328,0.144433,0.148961,0.221502,0.209013,0.129341,0.145842,0.160886,0.145595,0.319244,0.131801,0.19969,0.187229,0.16148,0.142893,0.21637,0.26001,0.14837,0.145976,0.160079,0.146886,0.279078,0.170459
10666355,0.196188,0.147169,0.110298,0.13552,0.193762,0.247337,0.135199,0.147964,0.163256,0.159627,0.205078,0.162171,0.168413,0.177641,0.143465,0.129606,0.183841,0.199132,0.134904,0.141167,0.165243,0.150398,0.193821,0.260763
10670904,0.150944,0.124221,0.103512,0.118263,0.185723,0.173368,0.116044,0.10833,0.115133,0.108969,0.152403,0.111229,0.170654,0.145364,0.11717,0.13355,0.214318,0.229514,0.127534,0.134604,0.172809,0.1467,0.180335,0.105029
10672065,0.239236,0.173325,0.147049,0.14119,0.200734,0.179342,0.140499,0.152857,0.176962,0.152084,0.261584,0.157409,0.220556,0.216034,0.162557,0.153875,0.236014,0.179704,0.164607,0.158673,0.195454,0.163745,0.220923,0.146773
10674665,0.167526,0.16258,0.165408,0.146216,0.181533,0.229138,0.146637,0.138688,0.159274,0.13858,0.291153,0.130057,0.180729,0.169899,0.187703,0.139049,0.20378,0.232576,0.152336,0.154519,0.163952,0.154368,0.238094,0.130384
10677235,0.176154,0.151316,0.171488,0.152788,0.179141,0.250902,0.158402,0.170855,0.18137,0.155795,0.294035,0.135581,0.174584,0.159246,0.191344,0.125855,0.218475,0.244579,0.157315,0.162916,0.178296,0.159604,0.297567,0.21768
10680510,0.282394,0.160871,0.151261,0.19034,0.23167,0.268125,0.148863,0.180401,0.150577,0.159491,0.278514,0.151521,0.175246,0.15681,0.128054,0.148344,0.180223,0.176542,0.135973,0.14801,0.147842,0.147622,0.239558,0.092177
10693404,0.18596,0.171712,0.15387,0.135414,0.207309,0.185779,0.149106,0.145783,0.184008,0.150776,0.34666,0.130627,0.180196,0.172442,0.155172,0.124244,0.207171,0.277209,0.155855,0.153627,0.169734,0.147949,0.228593,0.184298
10697702,0.184073,0.175687,0.143293,0.12438,0.235267,0.228803,0.138903,0.145883,0.168226,0.150602,0.294978,0.109109,0.154569,0.144157,0.119514,0.128452,0.216235,0.143348,0.109719,0.122654,0.136117,0.123103,0.24355,0.121593
10704258,0.170475,0.146772,0.114915,0.129861,0.170307,0.178391,0.114626,0.128456,0.122949,0.124163,0.226643,0.117949,0.1454,0.15599,0.134619,0.115742,0.179978,0.243595,0.126692,0.135806,0.140899,0.135636,0.156595,0.106649
10721439,0.247739,0.167324,0.150654,0.134881,0.219317,0.205971,0.152563,0.17966,0.183365,0.17263,0.441542,0.207366,0.228381,0.189431,0.179658,0.143705,0.19075,0.19537,0.171309,0.194982,0.210746,0.189872,0.445744,0.186908
10727044,0.165085,0.118559,0.121521,0.143598,0.1454,0.163803,0.120949,0.142045,0.172747,0.141471,0.358734,0.082849,0.150232,0.140496,0.116242,0.116462,0.159061,0.182604,0.115367,0.125038,0.154182,0.123909,0.193652,0.086923
10727517,0.174114,0.183325,0.146938,0.122542,0.227434,0.188094,0.132437,0.14565,0.168959,0.138727,0.296724,0.165245,0.195675,0.196453,0.163075,0.129637,0.240749,0.233959,0.144932,0.144847,0.214894,0.141841,0.28207,0.211985
10733166,0.180855,0.132953,0.133204,0.108815,0.178209,0.14579,0.126486,0.147673,0.174965,0.144033,0.360574,0.136379,0.167978,0.132188,0.148333,0.125112,0.15395,0.200522,0.129159,0.16458,0.175263,0.142283,0.391263,0.194349
10736155,0.239053,0.157147,0.12067,0.132365,0.215071,0.172015,0.120896,0.143366,0.146036,0.151049,0.333058,0.17465,0.19994,0.180853,0.143225,0.141015,0.199554,0.196919,0.148381,0.164731,0.144852,0.154271,0.283218,0.212303
10741915,0.239711,0.174241,0.124957,0.128711,0.233215,0.218569,0.13652,0.144569,0.149394,0.150506,0.254962,0.118086,0.215389,0.186757,0.152608,0.132748,0.208731,0.219936,0.15533,0.165022,0.163815,0.160116,0.231692,0.143835
10752986,0.177321,0.172253,0.157923,0.147513,0.175133,0.147435,0.143699,0.164452,0.170679,0.151607,0.363141,0.197795,0.190867,0.161369,0.174787,0.13923,0.194485,0.200072,0.147215,0.173619,0.183219,0.1682,0.372971,0.217275
10774109,0.16539,0.164322,0.144457,0.137279,0.189363,0.186111,0.133491,0.141756,0.168669,0.147248,0.331139,0.109001,0.193402,0.200793,0.168129,0.133887,0.181025,0.174981,0.15459,0.1656,0.165441,0.165703,0.306697,0.164055
10782392,0.181923,0.136666,0.143801,0.138047,0.181181,0.231826,0.132088,0.132136,0.152455,0.13622,0.273581,0.106618,0.192862,0.169854,0.162146,0.12168,0.196217,0.214991,0.135831,0.142932,0.16255,0.147765,0.268278,0.129158
10799033,0.168201,0.15955,0.153711,0.141072,0.190476,0.193666,0.13476,0.126744,0.153195,0.136592,0.244732,0.148485,0.169625,0.155297,0.165308,0.144195,0.190114,0.205597,0.150583,0.154901,0.180487,0.143333,0.246746,0.114721
10800008,0.17209,0.094944,0.11508,0.114208,0.11762,0.211954,0.10629,0.115863,0.130984,0.109767,0.254032,0.087664,0.196574,0.166549,0.140843,0.122521,0.150605,0.198399,0.134879,0.132388,0.133508,0.141547,0.258474,0.112611
10811454,0.209516,0.192649,0.147211,0.124581,0.228979,0.244526,0.148404,0.153846,0.171086,0.152725,0.231312,0.156754,0.222991,0.232573,0.161959,0.122847,0.241765,0.282114,0.149368,0.138585,0.166175,0.136202,0.190737,0.158777
10818884,0.291897,0.178053,0.164541,0.188841,0.18791,0.17956,0.20493,0.214031,0.23559,0.237923,0.234269,0.172893,0.192792,0.145837,0.141652,0.158259,0.168818,0.181549,0.140231,0.169722,0.170489,0.185357,0.360806,0.160538
10826689,0.186572,0.164407,0.1139,0.11493,0.194613,0.178633,0.12021,0.114837,0.137016,0.116038,0.216799,0.084126,0.202384,0.196568,0.13058,0.122156,0.212653,0.172269,0.130297,0.129198,0.123569,0.13239,0.153379,0.100745
10828347,0.178893,0.151148,0.133844,0.136844,0.191689,0.224247,0.130657,0.13126,0.139215,0.142062,0.184084,0.111464,0.19574,0.195044,0.163334,0.150592,0.199605,0.248874,0.15307,0.159345,0.179269,0.169354,0.241213,0.169226
10830248,0.167863,0.170995,0.147421,0.1232,0.217877,0.221551,0.130984,0.129105,0.143609,0.113866,0.218781,0.224421,0.168324,0.145526,0.174473,0.141784,0.189828,0.18012,0.156492,0.163933,0.199576,0.150209,0.279482,0.155839
10834217,0.196721,0.187237,0.170241,0.147782,0.21557,0.206044,0.154449,0.180978,0.205589,0.170237,0.276199,0.272613,0.182885,0.166469,0.174212,0.139125,0.200007,0.212678,0.154369,0.167293,0.184052,0.157635,0.338425,0.281057
10844346,0.220454,0.213699,0.139117,0.130438,0.246557,0.279459,0.154833,0.142724,0.162463,0.141445,0.259311,0.106163,0.217768,0.251478,0.14682,0.117743,0.268553,0.242755,0.145176,0.133035,0.150962,0.129353,0.240916,0.151548
10851408,0.160917,0.11127,0.098747,0.116617,0.165232,0.236216,0.120781,0.129526,0.129626,0.135416,nan,0.128937,0.317073,0.135915,0.127983,0.156039,0.265065,0.30369,0.14442,0.178374,0.165471,0.171465,0.18319,0.116281
10856252,0.172764,0.140535,0.147878,0.132662,0.176136,0.144901,0.132211,0.144506,0.146637,0.143302,0.254727,0.138472,0.179037,0.204315,0.179116,0.166186,0.249594,0.218019,0.164701,0.184531,0.162722,0.180073,0.203639,0.116099
10862763,0.155178,0.15992,0.124783,0.136248,0.20361,0.265252,0.133338,0.13341,0.149015,0.140752,0.171784,0.132091,0.167417,0.153801,0.109286,0.143661,0.178488,0.216933,0.117955,0.138511,0.12881,0.145456,0.15691,0.147986
10870760,0.196297,0.117023,0.139557,0.132538,0.149537,0.174673,0.130081,0.155633,0.194017,0.156254,0.414235,0.13123,0.176881,0.142003,0.158585,0.134814,0.142588,0.169368,0.148026,0.160051,0.209003,0.153133,0.402624,0.1997
10874195,0.204906,0.152007,0.152111,0.123569,0.220393,0.166693,0.138268,0.150834,0.16703,0.157866,0.372522,0.172393,0.186196,0.168992,0.16066,0.12891,0.213492,0.185087,0.136137,0.153894,0.167448,0.160151,0.312251,0.212516
10875957,0.183918,0.169759,0.170487,0.132157,0.194788,0.241222,0.150464,0.153149,0.165496,0.140421,0.347919,0.196563,0.20507,0.178666,0.194895,0.152124,0.219259,0.287078,0.16746,0.170658,0.192083,0.16594,0.378441,0.247622
10883369,0.204165,0.182738,0.131163,0.11894,0.194484,0.122616,0.140448,0.136809,0.143246,0.152836,0.150885,0.130244,0.203534,0.188553,0.1386,0.160066,0.235112,0.13633,0.143887,0.146485,0.141318,0.158323,0.175333,0.094779
10884526,0.178533,0.141752,0.141219,0.126332,0.195784,0.16964,0.126676,0.135794,0.172534,0.133783,0.300964,0.116288,0.18703,0.15399,0.166148,0.132111,0.224241,0.239123,0.142616,0.151941,0.1722,0.146015,0.355613,0.149671
10888267,0.212893,0.140211,0.144613,0.133736,0.194014,0.216198,0.139708,0.140411,0.183269,0.145591,0.233419,0.120125,0.187334,0.167808,0.142565,0.117374,0.223747,0.176613,0.138131,0.145215,0.144311,0.137941,0.243176,0.12068
10888987,0.171527,0.173712,0.121487,0.120114,0.215655,0.194333,0.124962,0.126265,0.153443,0.129525,0.227496,0.078511,0.186658,0.146575,0.116409,0.120928,0.263502,0.266451,0.122681,0.123381,0.157631,0.138387,0.199512,0.089028
10891518,0.175246,0.143264,0.129687,0.106358,0.162516,0.144543,0.114786,0.130708,0.145846,0.130891,0.273827,0.104938,0.202454,0.175925,0.156426,0.152386,0.196395,0.196084,0.157314,0.171095,0.160596,0.16569,0.327984,0.166219
10892387,0.180096,0.137123,0.135629,0.137405,0.161077,0.149689,0.131303,0.134239,0.15538,0.128772,0.204837,0.090937,0.179901,0.141277,0.133635,0.136446,0.199608,0.180291,0.146763,0.155245,0.172426,0.156953,0.196311,0.101382
10892416,0.197803,0.160648,0.149208,0.143089,0.206062,0.240846,0.143914,0.139148,0.151102,0.13831,0.240044,0.149979,0.191616,0.17857,0.166328,0.137386,0.212142,0.237762,0.148595,0.14951,0.152113,0.157016,0.253131,0.183644
10894240,0.191981,0.146868,0.119151,0.111443,0.163738,0.164287,0.127413,0.13296,0.178569,0.137188,0.299681,0.114111,0.168142,0.15743,0.142722,0.111446,0.146223,0.127419,0.127641,0.129957,0.121218,0.125732,0.193619,0.135643
11097089,0.188606,0.131749,0.121075,0.094371,0.174449,0.16301,0.120829,0.132041,0.150361,0.133891,0.287434,0.107369,0.159225,0.132032,0.138879,0.119338,0.161654,0.172859,0.124303,0.138699,0.129199,0.14534,0.236162,0.096036
11109138,0.165144,0.148544,0.149906,0.119053,0.16567,0.168973,0.127985,0.137594,0.158592,0.136166,0.240542,0.179978,0.164722,0.19122,0.146841,0.129164,0.206443,0.226005,0.146019,0.148956,0.150423,0.149773,0.273419,0.139325
11125824,0.16729,0.141495,0.106205,0.11028,0.175912,0.220756,0.091902,0.108394,0.115458,0.106154,0.204358,0.11335,0.212277,0.178126,0.112876,0.106145,0.189457,0.196101,0.107119,0.123379,0.112036,0.137434,0.176117,0.108044
11236068,0.163356,0.14647,0.101004,0.095137,0.197883,0.118758,0.1176,0.127961,0.148699,0.150445,0.225203,0.128951,0.163013,0.124564,0.110224,0.113046,0.181415,0.156338,0.112865,0.125987,0.147812,0.132413,0.208265,0.158014
11240510,0.162107,0.135926,0.109887,0.107682,0.168536,0.174908,0.117175,0.123332,0.143267,0.134607,0.24731,0.110711,0.171807,0.135758,0.140397,0.129849,0.173972,0.205165,0.130144,0.141265,0.167305,0.149097,0.217944,0.15258
11243530,0.185702,0.164734,0.153051,0.140044,0.210134,0.212391,0.145186,0.154386,0.180147,0.155358,0.264775,0.143809,0.192659,0.20593,0.164294,0.155721,0.252075,0.187399,0.159154,0.171861,0.162603,0.176275,0.338062,0.186635
11243675,0.166557,0.143835,0.139582,0.14365,0.179495,0.254281,0.14106,0.148945,0.163431,0.144381,0.220799,0.102611,0.174168,0.165774,0.155657,0.138675,0.200251,0.246782,0.146268,0.152454,0.162933,0.15905,0.22026,0.122969
11251214,0.184333,0.160739,0.149138,0.138309,0.192439,0.153654,0.143766,0.155404,0.174708,0.157484,0.394811,0.162536,0.173837,0.157112,0.167743,0.134385,0.19512,0.210372,0.140877,0.148393,0.174903,0.153237,0.311897,0.181418
11258661,0.212976,0.174598,0.144816,0.135409,0.205235,0.175144,0.143278,0.141152,0.181067,0.14622,0.312349,0.169862,0.233793,0.216763,0.162197,0.130953,0.235855,0.188153,0.149423,0.146165,0.162042,0.153933,0.273261,0.194025
11265474,0.200416,0.152322,0.163051,0.14945,0.184896,0.209155,0.150052,0.154956,0.181765,0.152781,0.324455,0.122567,0.200049,0.174994,0.175646,0.136638,0.186332,0.241305,0.149565,0.158202,0.167824,0.144782,0.321728,0.183721
11271254,0.192879,0.186406,0.151339,0.148368,0.232391,0.200687,0.153263,0.155403,0.195649,0.154587,0.306632,0.133906,0.230601,0.199836,0.169801,0.134481,0.226835,0.24312,0.160317,0.157779,0.165169,0.151867,0.30241,0.13849
11281732,0.193275,0.166787,0.113943,0.121731,0.213464,0.167745,0.131678,0.143001,0.143993,0.14771,0.256324,0.118395,0.194106,0.1871,0.117234,0.135074,0.201753,0.201223,0.13004,0.144885,0.1375,0.16468,0.175267,0.12834
11292186,0.16467,0.134355,0.150203,0.121004,0.169151,0.221078,0.128954,0.146735,0.165751,0.160926,0.316967,0.150031,0.16819,0.15515,0.131756,0.114963,0.155413,0.201867,0.112281,0.137667,0.121177,0.138226,0.181981,0.145034
11294784,0.211057,0.203508,0.140168,0.122093,0.230593,0.192585,0.14674,0.14332,0.154224,0.147576,0.237698,0.101657,0.188438,0.201653,0.156389,0.147762,0.22315,0.234436,0.149929,0.156239,0.176136,0.166676,0.226899,0.098634
11295347,0.163627,0.134443,0.112705,0.117713,0.171824,0.20062,0.112181,0.120686,0.128636,0.120484,0.199383,0.113248,0.164493,0.134271,0.133936,0.121538,0.162824,0.198918,0.124915,0.136007,0.141084,0.143241,0.200345,0.122851
11307998,0.138123,0.118666,0.122084,0.113082,0.146427,0.18719,0.115733,0.130912,0.133905,0.12938,0.167357,0.118022,0.16608,0.152742,0.136442,0.115674,0.156494,0.156133,0.126641,0.135482,0.145851,0.134308,0.210361,0.159196
11311375,0.183617,0.147198,0.14061,0.124932,0.193215,0.17302,0.128649,0.1322,0.155522,0.132125,0.226869,0.168261,0.179307,0.158925,0.179293,0.159199,0.219147,0.194064,0.163039,0.15222,0.166469,0.156967,0.243604,0.242608
11311792,0.182069,0.161874,0.144774,0.133777,0.172699,0.174184,0.142836,0.141927,0.191209,0.145111,0.236021,0.139496,0.190357,0.186573,0.148398,0.142722,0.202042,0.173101,0.147389,0.135803,0.174297,0.141423,0.225554,0.145131
11316147,0.184033,0.164377,0.145893,0.127051,0.183667,0.173501,0.135461,0.131775,0.150187,0.139186,0.255385,0.116337,0.194208,0.18944,0.15444,0.128443,0.195212,0.219405,0.141364,0.15868,0.169935,0.165264,0.298133,0.140152
11317652,0.152454,0.145926,0.112727,0.093914,0.175651,0.232418,0.103001,0.108404,0.12361,0.100015,0.212865,0.106083,0.150249,0.185258,0.142959,0.127166,0.246299,0.206805,0.129774,0.131173,0.15202,0.142036,0.19814,0.128018
11317738,0.191577,0.134754,0.123968,0.12471,0.199471,0.228229,0.12112,0.125605,0.147578,0.123312,0.295592,0.095942,0.19186,0.177716,0.148438,0.141582,0.200647,0.187856,0.138239,0.155836,0.149679,0.148748,0.331678,0.105457
11318682,0.323059,0.192246,0.145134,0.134262,0.199148,0.20334,0.149175,0.158064,0.173395,0.165556,0.272221,0.142663,0.204822,0.224645,0.139107,0.153044,0.226816,0.181557,0.145791,0.150637,0.134192,0.170817,0.19283,0.113734
11333887,0.17361,0.169992,0.141315,0.139385,0.209218,0.235643,0.144629,0.151899,0.152258,0.144072,0.216317,0.15749,0.184292,0.209652,0.165933,0.130987,0.24297,0.20113,0.156171,0.146918,0.186691,0.145624,0.24157,0.205105
11338327,0.223879,0.162515,0.139936,0.122641,0.18639,0.145982,0.148849,0.141042,0.164065,0.146011,0.231615,0.118842,0.201336,0.185809,0.164204,0.138754,0.191131,0.166511,0.140045,0.127063,0.140251,0.12225,0.238569,0.117981
11338804,0.177316,0.149698,0.134345,0.121649,0.192698,0.178818,0.124051,0.120269,0.160528,0.12528,0.241987,0.112147,0.202903,0.215157,0.138479,0.147785,0.282031,0.263517,0.160048,0.160821,0.181502,0.178024,0.221021,0.086906
11343170,0.18102,0.112697,0.103593,0.10099,0.188378,0.200282,0.111546,0.116607,0.135299,0.129345,0.198803,0.098832,0.178432,0.152766,0.114305,0.115345,0.202255,0.19172,0.12361,0.146735,0.171354,0.153354,0.287335,0.114942
11344679,0.185255,0.184314,0.166598,0.129808,0.182366,0.19028,0.147219,0.160308,0.189808,0.153686,0.346108,0.231184,0.19611,0.183723,0.168227,0.135001,0.231336,0.238046,0.164272,0.185293,0.193302,0.167144,0.367727,0.194911
11345219,0.222377,0.233092,0.146628,0.146919,0.291662,0.162516,0.151008,0.144916,0.154446,0.147838,0.207917,0.10501,0.166676,0.19643,0.154846,0.138486,0.165607,0.19941,0.131439,0.140348,0.121579,0.145728,0.161987,0.108133
11348904,0.20835,0.181242,0.180504,0.164558,0.236454,0.266171,0.172856,0.162002,0.176442,0.161073,nan,0.17208,0.208885,0.202426,0.218773,0.158947,0.247832,0.217873,0.185997,0.187578,0.200715,0.192376,0.188972,0.194913
11348951,0.193728,0.19181,0.126107,0.121273,0.244179,0.133127,0.124165,0.117827,0.139734,0.11505,0.147867,0.154645,0.196765,0.21128,0.14636,0.167944,0.283314,0.251245,0.148006,0.14478,0.180995,0.146918,0.208485,0.144614
11349007,0.193789,0.149251,0.125015,0.130571,0.171596,0.180755,0.130897,0.138422,0.150445,0.15175,0.221421,0.100269,0.201577,0.150144,0.129806,0.13538,0.184043,0.197504,0.127422,0.136031,0.139935,0.14268,0.202443,0.107298
11350369,0.173408,0.16652,0.142052,0.122534,0.214306,0.207637,0.138705,0.142232,0.160355,0.158919,0.287003,0.107506,0.17479,0.17838,0.129957,0.129364,0.19181,0.212958,0.143167,0.146357,0.172164,0.156807,0.231717,0.093134
11353064,0.240371,0.186433,0.126638,0.137485,0.239891,0.156136,0.13742,0.137212,0.154806,0.137418,0.242914,0.08789,0.237726,0.173406,0.138668,0.138736,0.249625,0.180748,0.139975,0.15009,0.173576,0.159089,0.28122,0.101837
11356493,0.175413,0.143066,0.142641,0.124166,0.158808,0.175574,0.132118,0.147116,0.149172,0.141163,0.25701,0.129432,0.186717,0.163993,0.154351,0.142626,0.181427,0.226083,0.155817,0.159853,0.185057,0.151478,0.323835,0.159323
11357113,0.170138,0.153292,0.144594,0.121693,0.173056,0.205951,0.136042,0.151288,0.197152,0.152105,0.35144,0.108388,0.172657,0.159682,0.154501,0.146367,0.175899,0.174153,0.146577,0.15783,0.185986,0.171368,0.283684,0.16278
11357486,0.176059,0.157608,0.113386,0.129169,0.176831,0.158028,0.108967,0.127769,0.137632,0.125268,0.401525,0.097377,0.160255,0.197057,0.153595,0.150604,0.206077,0.160127,0.140747,0.139047,0.150045,0.136799,0.352165,0.125919
11358460,0.162498,0.142827,0.129164,0.121861,0.17802,0.178217,0.127079,0.135867,0.16142,0.136099,0.278974,0.096366,0.159992,0.137459,0.127171,0.1156,0.157295,0.158485,0.118803,0.147363,0.169227,0.158452,0.33775,0.128728
11368796,0.204397,0.168537,0.141411,0.150999,0.155043,0.111555,0.15206,0.163306,0.145959,0.166327,0.159037,0.124791,0.249626,0.298138,0.254451,0.255656,0.292987,0.286105,0.264823,0.251018,0.238686,0.255187,0.260029,0.202747
11368990,0.19824,0.178605,0.138471,0.147263,0.208091,0.249262,0.140683,0.146606,0.142197,0.149512,0.229804,0.123929,0.189816,0.214816,0.164924,0.143199,0.220417,0.234313,0.157123,0.165943,0.152566,0.172976,0.241142,0.13529
11370621,0.243365,0.212548,0.158488,0.135617,0.210925,0.213382,0.151291,0.158429,0.192127,0.137822,0.194804,0.200306,0.213817,0.239064,0.187807,0.152454,0.269082,0.282087,0.165331,0.173705,0.193379,0.169949,0.255344,0.185385
11372886,0.394162,0.481613,0.459095,0.436233,0.469955,0.424973,0.459115,0.447351,0.453495,0.450791,0.421408,0.288017,0.102857,0.139829,0.187531,0.134624,0.147939,0.190926,0.154179,0.153986,0.157095,0.155004,0.137497,0.204412
11374870,0.168554,0.162165,0.160297,0.134872,0.222355,0.221307,0.138562,0.146165,0.165821,0.157041,0.19487,0.16838,0.185101,0.193224,0.165119,0.148743,0.216176,0.230305,0.150593,0.156273,0.168629,0.155906,0.214575,0.166292
11378627,0.191448,0.2003,0.152946,0.160314,0.228998,0.260647,0.147939,0.131819,0.159744,0.118535,0.272682,0.112745,0.188957,0.185672,0.154456,0.164499,0.208982,0.233446,0.1424,0.154464,0.130158,0.161671,0.207435,0.173075
11380871,0.226479,0.197612,0.178765,0.147399,0.220391,0.173296,0.170016,0.167062,0.197208,0.157429,0.350841,0.177977,0.209502,0.18407,0.177783,0.173262,0.226857,0.193605,0.157013,0.160863,0.18455,0.162031,0.333253,0.187734
11382807,0.203408,0.137269,0.192283,0.117744,0.158845,0.193847,0.138124,0.139386,0.18648,0.144901,0.316752,0.255104,0.167463,0.151269,0.151636,0.122792,0.155808,0.202007,0.134187,0.142756,0.169552,0.14379,0.301106,0.145369
11384465,0.18077,0.176603,0.153315,0.130962,0.217392,0.227947,0.142494,0.14362,0.167933,0.146413,0.210178,0.163192,0.189999,0.162409,0.146767,0.143077,0.207663,0.263793,0.142331,0.158158,0.141784,0.163955,0.224167,0.152833
11388743,0.180037,0.172072,0.156342,0.128682,0.209324,0.208272,0.147671,0.136855,0.160803,0.147951,0.260434,0.131046,0.187562,0.1761,0.150246,0.123537,0.188357,0.254253,0.136991,0.135542,0.155909,0.134035,0.250694,0.139071
11394186,0.172243,0.174966,0.122299,0.106573,0.166741,0.139188,0.118703,0.117357,0.140349,0.122721,0.233786,0.106308,0.171462,0.175613,0.12292,0.117812,0.176698,0.160529,0.122586,0.118358,0.128322,0.128158,0.17403,0.10063
11394260,0.190103,0.176691,0.153522,0.130146,0.245537,0.189372,0.139763,0.143984,0.154352,0.137061,0.338862,0.210426,0.18268,0.182391,0.162219,0.126636,0.192534,0.15018,0.141233,0.153966,0.176599,0.152639,0.338598,0.186529
11398446,0.167301,0.157089,0.153515,0.150753,0.192054,0.226899,0.150949,0.166741,0.198172,0.167707,0.369195,0.133925,0.175466,0.155355,0.143762,0.137955,0.165107,0.181752,0.135231,0.145995,0.162553,0.148945,0.309545,0.125658
11400255,0.174608,0.174806,0.176578,0.113831,0.219305,0.216554,0.16185,0.160305,0.18202,0.165697,0.389766,0.18614,0.17816,0.167402,0.205408,0.121315,0.193358,0.264491,0.159873,0.170954,0.195234,0.167983,0.381551,0.240744
11404932,0.183862,0.139211,0.134428,0.125711,0.168088,0.156509,0.126181,0.131149,0.15717,0.136819,0.357485,0.128353,0.182051,0.165994,0.132218,0.132742,0.210461,0.306907,0.132203,0.140802,0.127733,0.14077,0.247833,0.096495
11405532,0.200994,0.193667,0.130879,0.113198,0.247906,0.164034,0.13056,0.137901,0.158331,0.144174,0.197528,0.103564,0.179039,0.19425,0.134039,0.108831,0.257901,0.181594,0.146614,0.1578,0.193173,0.169577,0.21924,0.10295
11405963,0.177921,0.127277,0.104561,0.112927,0.160421,0.145556,0.111635,0.117729,0.15968,0.127377,0.218421,0.07245,0.149871,0.157442,0.125182,0.118155,0.182627,0.175757,0.126399,0.149547,0.169707,0.163684,0.239147,0.134366
11406091,0.165395,0.155155,0.118852,0.110226,0.215479,0.162329,0.124708,0.125769,0.157201,0.131615,0.224676,0.148001,0.173657,0.174558,0.136035,0.121796,0.189396,0.17121,0.133346,0.125167,0.138847,0.123272,0.176266,0.154986
11406849,0.184067,0.20353,0.137563,0.137795,0.253215,0.1649,0.146897,0.142919,0.160666,0.147445,0.205802,0.102564,0.206118,0.226923,0.135382,0.127306,0.227944,0.197415,0.144085,0.144429,0.131161,0.148472,0.178563,0.078541
11411665,0.192593,0.122379,0.113749,0.125667,0.149749,0.141592,0.110031,0.116774,0.132408,0.117243,0.159774,0.144289,0.171228,0.147023,0.124954,0.122216,0.138474,0.161512,0.126308,0.125855,0.135308,0.121598,0.164171,0.135334
11412571,0.19029,0.169343,0.133015,0.10789,0.179771,0.1465,0.132961,0.128888,0.17712,0.125286,0.283403,0.098686,0.19337,0.161365,0.148997,0.126413,0.190454,0.226839,0.142502,0.153353,0.191236,0.153045,0.356305,0.129481
11413364,0.191139,0.15588,0.141099,0.129772,0.187191,0.183136,0.136015,0.131327,0.147624,0.133329,0.251143,0.123197,0.202224,0.18516,0.163732,0.163437,0.214319,0.175831,0.149496,0.148098,0.154516,0.152042,0.253606,0.149131
11414215,0.221112,0.145744,0.133162,0.12271,0.200645,0.173735,0.123868,0.147263,0.170081,0.144539,0.313439,0.158152,0.226811,0.182778,0.168625,0.171772,0.229591,0.248541,0.157172,0.174942,0.179977,0.184937,0.264276,0.138522
11416827,0.196411,0.166505,0.158074,0.109264,0.21282,0.188117,0.139229,0.138518,0.1733,0.136196,0.374536,0.181346,0.215667,0.18128,0.157806,0.138224,0.233557,0.213053,0.16381,0.174417,0.191358,0.174087,0.35493,0.229954
11421208,0.180718,0.127732,0.12403,0.11586,0.169548,0.244332,0.118011,0.12121,0.151161,0.12792,0.231935,0.106579,0.210274,0.137494,0.143233,0.128214,0.180945,0.202989,0.13021,0.144581,0.157869,0.149406,0.220426,0.085339
11433763,0.170198,0.138984,0.12662,0.124162,0.18056,0.177739,0.117014,0.126036,0.15427,0.126562,0.256334,0.159506,0.182429,0.180253,0.153931,0.129124,0.211811,0.196385,0.143754,0.146807,0.138539,0.153119,0.227507,0.158112
